Completed count:-41
Completed count:-42
Completed count:-43
Completed count:-44
Error at count:-45
URL:-https://api.hubapi.com/contacts/v1/contact/vid/678001/profile?hapikey=962e8ce2-2314-4e7f-8dab-77b7f59c270c
URL:-https://api.hubapi.com/contacts/v1/contact/?hapikey=962e8ce2-2314-4e7f-8dab-77b7f59c270c
Response exception:System.Net.HttpWebResponse
Error records:-{"message":"A contact with the email 'sebastianstoj1989@wp.pl' already exists.","identityProfile":{"vid":48554351,"identity":[{"value":"sebastianstoj1989@wp.pl","type":"EMAIL","timestamp":1590264290989,"isPrimary":true},{"value":"251514d6-0f93-4ce6-9946-42c4605fd3fb","type":"LEAD_GUID","timestamp":1590264291898}],"linkedVid":[48555101,48554601],"isContact":true,"savedAtTimestamp":1590264568591},"errors":[{"message":"A contact with email sebastianstoj1989@wp.pl already exists.","in":"email"}],"status":"error","correlationId":"f7288b17-1fd0-40c0-af48-3baec50eefbe","category":"OBJECT_ALREADY_EXISTS","error":"CONTACT_EXISTS"}
Completed count:-45
Completed count:-46
Completed count:-47
Error at count:-48
URL:-https://api.hubapi.com/contacts/v1/contact/vid/63970112/profile?hapikey=962e8ce2-2314-4e7f-8dab-77b7f59c270c
URL:-https://api.hubapi.com/contacts/v1/contact/?hapikey=962e8ce2-2314-4e7f-8dab-77b7f59c270c
Response exception:System.Net.HttpWebResponse
Error records:-{"message":"A contact with the email 'mohkimo@msn.com' already exists.","identityProfile":{"vid":23244851,"identity":[{"value":"mohkimo@msn.com","type":"EMAIL","timestamp":1584110086363,"isPrimary":true},{"value":"e285eac8-876a-4c04-ad8e-7bf4aa99df9b","type":"LEAD_GUID","timestamp":1584110087462}],"linkedVid":[41632851],"isContact":true,"savedAtTimestamp":1588582438586},"errors":[{"message":"A contact with email mohkimo@msn.com already exists.","in":"email"}],"status":"error","correlationId":"301d0b05-f053-4e1f-a8e1-84fa9f016282","category":"OBJECT_ALREADY_EXISTS","error":"CONTACT_EXISTS"}
Completed count:-48
Completed count:-49
Completed count:-50
Error at count:-51
URL:-https://api.hubapi.com/contacts/v1/contact/vid/64020812/profile?hapikey=962e8ce2-2314-4e7f-8dab-77b7f59c270c
URL:-https://api.hubapi.com/contacts/v1/contact/?hapikey=962e8ce2-2314-4e7f-8dab-77b7f59c270c
Response exception:System.Net.HttpWebResponse
Error records:-{"message":"A contact with the email 'rinkudhariwal@gmail.com' already exists.","identityProfile":{"vid":62877076,"identity":[{"value":"rinkudhariwal@gmail.com","type":"EMAIL","timestamp":1593882936726,"isPrimary":true},{"value":"86c6a68e-bc8b-4a6f-b02e-096b43d6655d","type":"LEAD_GUID","timestamp":1593882936737}],"linkedVid":[],"isContact":true,"savedAtTimestamp":1593882936740},"errors":[{"message":"A contact with email rinkudhariwal@gmail.com already exists.","in":"email"}],"status":"error","correlationId":"00b5ae17-4fee-4f9d-829f-f22a65f1ba99","category":"OBJECT_ALREADY_EXISTS","error":"CONTACT_EXISTS"}
Completed count:-51
Completed count:-52
Completed count:-53
Completed count:-54
Completed count:-55
Completed count:-56
Completed count:-57
Error at count:-58
URL:-https://api.hubapi.com/contacts/v1/contact/vid/64031813/profile?hapikey=962e8ce2-2314-4e7f-8dab-77b7f59c270c
URL:-https://api.hubapi.com/contacts/v1/contact/?hapikey=962e8ce2-2314-4e7f-8dab-77b7f59c270c
Response exception:System.Net.HttpWebResponse
Error records:-{"message":"A contact with the email 'manasir05@gmail.com' already exists.","identityProfile":{"vid":62884599,"identity":[{"value":"d56bfb4f-b2ff-4c69-8bff-7e4a2a95ea4a","type":"LEAD_GUID","timestamp":1593882948236},{"value":"manasir05@gmail.com","type":"EMAIL","timestamp":1599584616532,"isPrimary":true}],"linkedVid":[],"isContact":true,"savedAtTimestamp":1599584616583},"errors":[{"message":"A contact with email manasir05@gmail.com already exists.","in":"email"}],"status":"error","correlationId":"5ec700ed-4d58-4c3e-883a-4466844cfb0b","category":"OBJECT_ALREADY_EXISTS","error":"CONTACT_EXISTS"}
Completed count:-58
Error at count:-59
URL:-https://api.hubapi.com/contacts/v1/contact/vid/63932844/profile?hapikey=962e8ce2-2314-4e7f-8dab-77b7f59c270c
URL:-https://api.hubapi.com/contacts/v1/contact/?hapikey=962e8ce2-2314-4e7f-8dab-77b7f59c270c
Response exception:System.Net.HttpWebResponse
Error records:-{"validationResults":[{"isValid":false,"message":"Physical Voucher was not one of the allowed options: [label: \"Online\"\nvalue: \"Online\"\ndisplay_order: 0\ndouble_data: 0.0\nhidden: false\ndescription: \"\"\nread_only: false\n, label: \"Evoucher\"\nvalue: \"Evoucher\"\ndisplay_order: 1\ndouble_data: 0.0\nhidden: false\ndescription: \"\"\nread_only: false\n, label: \"Physical voucher\"\nvalue: \"Physical voucher\"\ndisplay_order: 2\ndouble_data: 0.0\nhidden: false\ndescription: \"\"\nread_only: false\n, label: \"Operator topup\"\nvalue: \"Operator topup\"\ndisplay_order: 3\ndouble_data: 0.0\nhidden: false\ndescription: \"\"\nread_only: false\n]","error":"INVALID_OPTION","name":"latest_topup_method_used1"}],"status":"error","message":"Property values were not valid","correlationId":"e50d8bd1-ae32-4650-8127-64e4c1e608dd"}
Error at count:-59
Record Exception:Object reference not set to an instance of an object.
Completed count:-59
Completed count:-60
Error at count:-61
URL:-https://api.hubapi.com/contacts/v1/contact/vid/{0}/profile?hapikey=962e8ce2-2314-4e7f-8dab-77b7f59c270c
URL:-https://api.hubapi.com/contacts/v1/contact/?hapikey=962e8ce2-2314-4e7f-8dab-77b7f59c270c
Response exception:System.Net.HttpWebResponse
Error records:-{"message":"Contact already exists","identityProfile":{"vid":72154780,"identity":[{"value":"jollyluke@yahoo.com","type":"EMAIL","timestamp":1596045907093,"isPrimary":true},{"value":"6c8202ae-e7c8-42c2-90e3-2d5b4408be84","type":"LEAD_GUID","timestamp":1596045907100}],"linkedVid":[],"isContact":true,"savedAtTimestamp":1596045907101},"errors":[{"message":"A contact with email jollyluke@yahoo.com already exists.","in":"email"}],"status":"error","correlationId":"198fa2f8-6ea4-485c-be11-019ee1163c48","category":"OBJECT_ALREADY_EXISTS","error":"CONTACT_EXISTS"}
Completed count:-61
Completed count:-62
Completed count:-63
Error at count:-64
URL:-https://api.hubapi.com/contacts/v1/contact/vid/{0}/profile?hapikey=962e8ce2-2314-4e7f-8dab-77b7f59c270c
URL:-https://api.hubapi.com/contacts/v1/contact/?hapikey=962e8ce2-2314-4e7f-8dab-77b7f59c270c
Response exception:System.Net.HttpWebResponse
Error records:-{"message":"Contact already exists","identityProfile":{"vid":62881244,"identity":[{"value":"islam12345@gmail.com","type":"EMAIL","timestamp":1593882938455,"isPrimary":true},{"value":"81b6b257-e266-4dbb-8394-c5110918da9e","type":"LEAD_GUID","timestamp":1593882938468}],"linkedVid":[],"isContact":true,"savedAtTimestamp":1593882938470},"errors":[{"message":"A contact with email islam12345@gmail.com already exists.","in":"email"}],"status":"error","correlationId":"ef49fa3a-41f6-464c-b2cf-cfa907836c3b","category":"OBJECT_ALREADY_EXISTS","error":"CONTACT_EXISTS"}
Completed count:-64
Completed count:-65
Completed count:-66
Completed count:-67
Completed count:-68
Completed count:-69
Completed count:-70
Completed count:-71
Error at count:-72
URL:-https://api.hubapi.com/contacts/v1/contact/vid/{0}/profile?hapikey=962e8ce2-2314-4e7f-8dab-77b7f59c270c
URL:-https://api.hubapi.com/contacts/v1/contact/?hapikey=962e8ce2-2314-4e7f-8dab-77b7f59c270c
Response exception:System.Net.HttpWebResponse
Error records:-{"message":"Contact already exists","identityProfile":{"vid":64183104,"identity":[{"value":"shubha.shahane@gmail.com","type":"EMAIL","timestamp":1594154517061,"isPrimary":true},{"value":"cd6c0199-28dd-48d7-a637-c1dfff8670bb","type":"LEAD_GUID","timestamp":1594154517071}],"linkedVid":[],"isContact":true,"savedAtTimestamp":1594154517072},"errors":[{"message":"A contact with email shubha.shahane@gmail.com already exists.","in":"email"}],"status":"error","correlationId":"be4e887e-2c72-4357-a241-370895d5b22f","category":"OBJECT_ALREADY_EXISTS","error":"CONTACT_EXISTS"}
Completed count:-72
Completed count:-73
Completed count:-74
Completed count:-75
Completed count:-76
Completed count:-77
Completed count:-78
Completed count:-79
Error at count:-80
URL:-https://api.hubapi.com/contacts/v1/contact/vid/{0}/profile?hapikey=962e8ce2-2314-4e7f-8dab-77b7f59c270c
URL:-https://api.hubapi.com/contacts/v1/contact/?hapikey=962e8ce2-2314-4e7f-8dab-77b7f59c270c
Response exception:System.Net.HttpWebResponse
Error records:-{"message":"Contact already exists","identityProfile":{"vid":66339101,"identity":[{"value":"narlak.86@gmail.com","type":"EMAIL","timestamp":1594656946335,"isPrimary":true},{"value":"af68e69c-7fa6-48c6-be4e-e702d1e99a83","type":"LEAD_GUID","timestamp":1594656946369}],"linkedVid":[],"isContact":true,"savedAtTimestamp":1594656946374},"errors":[{"message":"A contact with email narlak.86@gmail.com already exists.","in":"email"}],"status":"error","correlationId":"8333778a-57a1-4c45-a6db-f498f7329915","category":"OBJECT_ALREADY_EXISTS","error":"CONTACT_EXISTS"}
Completed count:-80
Completed count:-81
Completed count:-82
Completed count:-83
Completed count:-84
Error at count:-85
URL:-https://api.hubapi.com/contacts/v1/contact/vid/64019003/profile?hapikey=962e8ce2-2314-4e7f-8dab-77b7f59c270c
URL:-https://api.hubapi.com/contacts/v1/contact/?hapikey=962e8ce2-2314-4e7f-8dab-77b7f59c270c
Response exception:System.Net.HttpWebResponse
Error records:-{"message":"A contact with the email 'aaraja99@hotmail.com' already exists.","identityProfile":{"vid":62905422,"identity":[{"value":"aaraja99@hotmail.com","type":"EMAIL","timestamp":1593882960089,"isPrimary":true},{"value":"3600acde-8d23-4d56-90e5-0b91fe4ddefe","type":"LEAD_GUID","timestamp":1593882960099}],"linkedVid":[],"isContact":true,"savedAtTimestamp":1593882960102},"errors":[{"message":"A contact with email aaraja99@hotmail.com already exists.","in":"email"}],"status":"error","correlationId":"7a0422ce-d2c3-4492-a002-3bb7e7c25d7a","category":"OBJECT_ALREADY_EXISTS","error":"CONTACT_EXISTS"}
Completed count:-85
Completed count:-86
Completed count:-87
Completed count:-88
Completed count:-89
Completed count:-90
Completed count:-91
Error at count:-92
URL:-https://api.hubapi.com/contacts/v1/contact/vid/64012802/profile?hapikey=962e8ce2-2314-4e7f-8dab-77b7f59c270c
URL:-https://api.hubapi.com/contacts/v1/contact/?hapikey=962e8ce2-2314-4e7f-8dab-77b7f59c270c
Response exception:System.Net.HttpWebResponse
Error records:-{"message":"A contact with the email 'parvulet_marian@yahoo.com' already exists.","identityProfile":{"vid":439032,"identity":[{"value":"parvulet_marian@yahoo.com","type":"EMAIL","timestamp":1576130876561,"isPrimary":true},{"value":"fea273ba-801f-4ac5-aa51-d9cc994f9778","type":"LEAD_GUID","timestamp":1576130876569}],"linkedVid":[],"isContact":true,"savedAtTimestamp":1576130876571},"errors":[{"message":"A contact with email parvulet_marian@yahoo.com already exists.","in":"email"}],"status":"error","correlationId":"9fd38482-130e-48ab-9ade-b592a4f6d764","category":"OBJECT_ALREADY_EXISTS","error":"CONTACT_EXISTS"}
Completed count:-92
Completed count:-93
Completed count:-94
Completed count:-95
Completed count:-96
Completed count:-97
Error at count:-98
URL:-https://api.hubapi.com/contacts/v1/contact/vid/63968125/profile?hapikey=962e8ce2-2314-4e7f-8dab-77b7f59c270c
URL:-https://api.hubapi.com/contacts/v1/contact/?hapikey=962e8ce2-2314-4e7f-8dab-77b7f59c270c
Response exception:System.Net.HttpWebResponse
Error records:-{"message":"A contact with the email 'butt.ahmar@gmail.com' already exists.","identityProfile":{"vid":62136752,"identity":[{"value":"butt.ahmar@gmail.com","type":"EMAIL","timestamp":1593710888929,"isPrimary":true},{"value":"de64824c-9e18-4d42-b58c-95fdb2923850","type":"LEAD_GUID","timestamp":1593710888937}],"linkedVid":[],"isContact":true,"savedAtTimestamp":1593710888938},"errors":[{"message":"A contact with email butt.ahmar@gmail.com already exists.","in":"email"}],"status":"error","correlationId":"62627791-c904-4dea-8a7a-bb7cfeaa152c","category":"OBJECT_ALREADY_EXISTS","error":"CONTACT_EXISTS"}
Completed count:-98
Completed count:-99
End..08-09-2020 22:41:14
Start..08-09-2020 22:41:38
Count..100
Error at count:-0
URL:-https://api.hubapi.com/contacts/v1/contact/vid/64008223/profile?hapikey=962e8ce2-2314-4e7f-8dab-77b7f59c270c
URL:-https://api.hubapi.com/contacts/v1/contact/?hapikey=962e8ce2-2314-4e7f-8dab-77b7f59c270c
Response exception:System.Net.HttpWebResponse
Error records:-{"validationResults":[{"isValid":false,"message":"Operator Topup was not one of the allowed options: [label: \"Online\"\nvalue: \"Online\"\ndisplay_order: 0\ndouble_data: 0.0\nhidden: false\ndescription: \"\"\nread_only: false\n, label: \"Evoucher\"\nvalue: \"Evoucher\"\ndisplay_order: 1\ndouble_data: 0.0\nhidden: false\ndescription: \"\"\nread_only: false\n, label: \"Physical voucher\"\nvalue: \"Physical voucher\"\ndisplay_order: 2\ndouble_data: 0.0\nhidden: false\ndescription: \"\"\nread_only: false\n, label: \"Operator topup\"\nvalue: \"Operator topup\"\ndisplay_order: 3\ndouble_data: 0.0\nhidden: false\ndescription: \"\"\nread_only: false\n]","error":"INVALID_OPTION","name":"first_topup_method_used"}],"status":"error","message":"Property values were not valid","correlationId":"236dc73a-935e-4a57-97f6-443b1f00dab5"}
Error at count:-0
Record Exception:Object reference not set to an instance of an object.
Completed count:-0
Error at count:-1
URL:-https://api.hubapi.com/contacts/v1/contact/vid/62989815/profile?hapikey=962e8ce2-2314-4e7f-8dab-77b7f59c270c
URL:-https://api.hubapi.com/contacts/v1/contact/?hapikey=962e8ce2-2314-4e7f-8dab-77b7f59c270c
Response exception:System.Net.HttpWebResponse
Error records:-{"validationResults":[{"isValid":false,"message":"Physical Voucher was not one of the allowed options: [label: \"Online\"\nvalue: \"Online\"\ndisplay_order: 0\ndouble_data: 0.0\nhidden: false\ndescription: \"\"\nread_only: false\n, label: \"Evoucher\"\nvalue: \"Evoucher\"\ndisplay_order: 1\ndouble_data: 0.0\nhidden: false\ndescription: \"\"\nread_only: false\n, label: \"Physical voucher\"\nvalue: \"Physical voucher\"\ndisplay_order: 2\ndouble_data: 0.0\nhidden: false\ndescription: \"\"\nread_only: false\n, label: \"Operator topup\"\nvalue: \"Operator topup\"\ndisplay_order: 3\ndouble_data: 0.0\nhidden: false\ndescription: \"\"\nread_only: false\n]","error":"INVALID_OPTION","name":"latest_topup_method_used1"}],"status":"error","message":"Property values were not valid","correlationId":"3920946d-89dc-4718-b355-d01d62b68b46"}
Error at count:-1
Record Exception:Object reference not set to an instance of an object.
Completed count:-1
Error at count:-2
URL:-https://api.hubapi.com/contacts/v1/contact/vid/62913437/profile?hapikey=962e8ce2-2314-4e7f-8dab-77b7f59c270c
URL:-https://api.hubapi.com/contacts/v1/contact/?hapikey=962e8ce2-2314-4e7f-8dab-77b7f59c270c
Response exception:System.Net.HttpWebResponse
Error records:-{"validationResults":[{"isValid":false,"message":"Physical Voucher was not one of the allowed options: [label: \"Online\"\nvalue: \"Online\"\ndisplay_order: 0\ndouble_data: 0.0\nhidden: false\ndescription: \"\"\nread_only: false\n, label: \"Evoucher\"\nvalue: \"Evoucher\"\ndisplay_order: 1\ndouble_data: 0.0\nhidden: false\ndescription: \"\"\nread_only: false\n, label: \"Physical voucher\"\nvalue: \"Physical voucher\"\ndisplay_order: 2\ndouble_data: 0.0\nhidden: false\ndescription: \"\"\nread_only: false\n, label: \"Operator topup\"\nvalue: \"Operator topup\"\ndisplay_order: 3\ndouble_data: 0.0\nhidden: false\ndescription: \"\"\nread_only: false\n]","error":"INVALID_OPTION","name":"latest_topup_method_used1"}],"status":"error","message":"Property values were not valid","correlationId":"742cbdee-cacb-4ffd-9fec-a90093b09fd4"}
Error at count:-2
Record Exception:Object reference not set to an instance of an object.
Completed count:-2
Error at count:-3
URL:-https://api.hubapi.com/contacts/v1/contact/vid/62821350/profile?hapikey=962e8ce2-2314-4e7f-8dab-77b7f59c270c
URL:-https://api.hubapi.com/contacts/v1/contact/?hapikey=962e8ce2-2314-4e7f-8dab-77b7f59c270c
Response exception:System.Net.HttpWebResponse
Error records:-{"validationResults":[{"isValid":false,"message":"Physical Voucher was not one of the allowed options: [label: \"Online\"\nvalue: \"Online\"\ndisplay_order: 0\ndouble_data: 0.0\nhidden: false\ndescription: \"\"\nread_only: false\n, label: \"Evoucher\"\nvalue: \"Evoucher\"\ndisplay_order: 1\ndouble_data: 0.0\nhidden: false\ndescription: \"\"\nread_only: false\n, label: \"Physical voucher\"\nvalue: \"Physical voucher\"\ndisplay_order: 2\ndouble_data: 0.0\nhidden: false\ndescription: \"\"\nread_only: false\n, label: \"Operator topup\"\nvalue: \"Operator topup\"\ndisplay_order: 3\ndouble_data: 0.0\nhidden: false\ndescription: \"\"\nread_only: false\n]","error":"INVALID_OPTION","name":"latest_topup_method_used1"}],"status":"error","message":"Property values were not valid","correlationId":"ef9af5fd-e624-42e2-a7a6-3946da7775ed"}
Error at count:-3
Record Exception:Object reference not set to an instance of an object.
Completed count:-3
Error at count:-4
URL:-https://api.hubapi.com/contacts/v1/contact/vid/62915922/profile?hapikey=962e8ce2-2314-4e7f-8dab-77b7f59c270c
URL:-https://api.hubapi.com/contacts/v1/contact/?hapikey=962e8ce2-2314-4e7f-8dab-77b7f59c270c
Response exception:System.Net.HttpWebResponse
Error records:-{"validationResults":[{"isValid":false,"message":"Physical Voucher was not one of the allowed options: [label: \"Online\"\nvalue: \"Online\"\ndisplay_order: 0\ndouble_data: 0.0\nhidden: false\ndescription: \"\"\nread_only: false\n, label: \"Evoucher\"\nvalue: \"Evoucher\"\ndisplay_order: 1\ndouble_data: 0.0\nhidden: false\ndescription: \"\"\nread_only: false\n, label: \"Physical voucher\"\nvalue: \"Physical voucher\"\ndisplay_order: 2\ndouble_data: 0.0\nhidden: false\ndescription: \"\"\nread_only: false\n, label: \"Operator topup\"\nvalue: \"Operator topup\"\ndisplay_order: 3\ndouble_data: 0.0\nhidden: false\ndescription: \"\"\nread_only: false\n]","error":"INVALID_OPTION","name":"latest_topup_method_used1"}],"status":"error","message":"Property values were not valid","correlationId":"f65104cb-95c9-473b-a22d-3a3507bb583d"}
Error at count:-4
Record Exception:Object reference not set to an instance of an object.
Completed count:-4
Error at count:-5
URL:-https://api.hubapi.com/contacts/v1/contact/vid/254901/profile?hapikey=962e8ce2-2314-4e7f-8dab-77b7f59c270c
URL:-https://api.hubapi.com/contacts/v1/contact/?hapikey=962e8ce2-2314-4e7f-8dab-77b7f59c270c
Response exception:System.Net.HttpWebResponse
Error records:-{"validationResults":[{"isValid":false,"message":"Operator Topup was not one of the allowed options: [label: \"Online\"\nvalue: \"Online\"\ndisplay_order: 0\ndouble_data: 0.0\nhidden: false\ndescription: \"\"\nread_only: false\n, label: \"Evoucher\"\nvalue: \"Evoucher\"\ndisplay_order: 1\ndouble_data: 0.0\nhidden: false\ndescription: \"\"\nread_only: false\n, label: \"Physical voucher\"\nvalue: \"Physical voucher\"\ndisplay_order: 2\ndouble_data: 0.0\nhidden: false\ndescription: \"\"\nread_only: false\n, label: \"Operator topup\"\nvalue: \"Operator topup\"\ndisplay_order: 3\ndouble_data: 0.0\nhidden: false\ndescription: \"\"\nread_only: false\n]","error":"INVALID_OPTION","name":"first_topup_method_used"}],"status":"error","message":"Property values were not valid","correlationId":"2875d299-3c2e-4abf-a410-bd6660114270"}
Error at count:-5
Record Exception:Object reference not set to an instance of an object.
Completed count:-5
Error at count:-6
URL:-https://api.hubapi.com/contacts/v1/contact/vid/63968135/profile?hapikey=962e8ce2-2314-4e7f-8dab-77b7f59c270c
URL:-https://api.hubapi.com/contacts/v1/contact/?hapikey=962e8ce2-2314-4e7f-8dab-77b7f59c270c
Response exception:System.Net.HttpWebResponse
Error records:-{"validationResults":[{"isValid":false,"message":"Physical Voucher was not one of the allowed options: [label: \"Online\"\nvalue: \"Online\"\ndisplay_order: 0\ndouble_data: 0.0\nhidden: false\ndescription: \"\"\nread_only: false\n, label: \"Evoucher\"\nvalue: \"Evoucher\"\ndisplay_order: 1\ndouble_data: 0.0\nhidden: false\ndescription: \"\"\nread_only: false\n, label: \"Physical voucher\"\nvalue: \"Physical voucher\"\ndisplay_order: 2\ndouble_data: 0.0\nhidden: false\ndescription: \"\"\nread_only: false\n, label: \"Operator topup\"\nvalue: \"Operator topup\"\ndisplay_order: 3\ndouble_data: 0.0\nhidden: false\ndescription: \"\"\nread_only: false\n]","error":"INVALID_OPTION","name":"latest_topup_method_used1"}],"status":"error","message":"Property values were not valid","correlationId":"38af43f3-8a5b-4b2a-9b52-1a1fd7f467dd"}
Error at count:-6
Record Exception:Object reference not set to an instance of an object.
Completed count:-6
Error at count:-7
URL:-https://api.hubapi.com/contacts/v1/contact/vid/{0}/profile?hapikey=962e8ce2-2314-4e7f-8dab-77b7f59c270c
URL:-https://api.hubapi.com/contacts/v1/contact/?hapikey=962e8ce2-2314-4e7f-8dab-77b7f59c270c
Response exception:System.Net.HttpWebResponse
Error records:-{"validationResults":[{"isValid":false,"message":"Email address areeba636@yahoo.con is invalid","error":"INVALID_EMAIL","name":"email"}],"status":"error","message":"Property values were not valid","correlationId":"fd950f25-88b1-4dd5-83cc-88c86eb47668"}
Error at count:-7
Record Exception:Object reference not set to an instance of an object.
Completed count:-7
Error at count:-8
URL:-https://api.hubapi.com/contacts/v1/contact/vid/63932844/profile?hapikey=962e8ce2-2314-4e7f-8dab-77b7f59c270c
URL:-https://api.hubapi.com/contacts/v1/contact/?hapikey=962e8ce2-2314-4e7f-8dab-77b7f59c270c
Response exception:System.Net.HttpWebResponse
Error records:-{"validationResults":[{"isValid":false,"message":"Physical Voucher was not one of the allowed options: [label: \"Online\"\nvalue: \"Online\"\ndisplay_order: 0\ndouble_data: 0.0\nhidden: false\ndescription: \"\"\nread_only: false\n, label: \"Evoucher\"\nvalue: \"Evoucher\"\ndisplay_order: 1\ndouble_data: 0.0\nhidden: false\ndescription: \"\"\nread_only: false\n, label: \"Physical voucher\"\nvalue: \"Physical voucher\"\ndisplay_order: 2\ndouble_data: 0.0\nhidden: false\ndescription: \"\"\nread_only: false\n, label: \"Operator topup\"\nvalue: \"Operator topup\"\ndisplay_order: 3\ndouble_data: 0.0\nhidden: false\ndescription: \"\"\nread_only: false\n]","error":"INVALID_OPTION","name":"latest_topup_method_used1"}],"status":"error","message":"Property values were not valid","correlationId":"082b3491-a382-4e49-8a9b-9d6c622dadb2"}
Error at count:-8
Record Exception:Object reference not set to an instance of an object.
Completed count:-8
Error at count:-9
URL:-https://api.hubapi.com/contacts/v1/contact/vid/{0}/profile?hapikey=962e8ce2-2314-4e7f-8dab-77b7f59c270c
URL:-https://api.hubapi.com/contacts/v1/contact/?hapikey=962e8ce2-2314-4e7f-8dab-77b7f59c270c
Response exception:System.Net.HttpWebResponse
Error records:-{"message":"Contact already exists","identityProfile":{"vid":2018801,"identity":[{"value":"93ef02ea-83f9-496b-9275-898b1d4cb0c5","type":"LEAD_GUID","timestamp":1581100138902},{"value":"sdn87@abv.bg","type":"EMAIL","timestamp":1598887119401,"isPrimary":true},{"value":"iskamteas@abv.bg","type":"EMAIL","timestamp":1593882929886,"isSecondary":true}],"linkedVid":[],"isContact":true,"savedAtTimestamp":1598887119459},"errors":[{"message":"A contact with email sdn87@abv.bg already exists.","in":"email"}],"status":"error","correlationId":"a987e0a4-7f0a-46aa-9002-b311108c8695","category":"OBJECT_ALREADY_EXISTS","error":"CONTACT_EXISTS"}
Completed count:-9
Completed count:-10
Completed count:-11
Error at count:-12
URL:-https://api.hubapi.com/contacts/v1/contact/vid/63970976/profile?hapikey=962e8ce2-2314-4e7f-8dab-77b7f59c270c
URL:-https://api.hubapi.com/contacts/v1/contact/?hapikey=962e8ce2-2314-4e7f-8dab-77b7f59c270c
Response exception:System.Net.HttpWebResponse
Error records:-{"validationResults":[{"isValid":false,"message":"Physical Voucher was not one of the allowed options: [label: \"Online\"\nvalue: \"Online\"\ndisplay_order: 0\ndouble_data: 0.0\nhidden: false\ndescription: \"\"\nread_only: false\n, label: \"Evoucher\"\nvalue: \"Evoucher\"\ndisplay_order: 1\ndouble_data: 0.0\nhidden: false\ndescription: \"\"\nread_only: false\n, label: \"Physical voucher\"\nvalue: \"Physical voucher\"\ndisplay_order: 2\ndouble_data: 0.0\nhidden: false\ndescription: \"\"\nread_only: false\n, label: \"Operator topup\"\nvalue: \"Operator topup\"\ndisplay_order: 3\ndouble_data: 0.0\nhidden: false\ndescription: \"\"\nread_only: false\n]","error":"INVALID_OPTION","name":"latest_topup_method_used1"}],"status":"error","message":"Property values were not valid","correlationId":"272195ad-af1c-4575-a645-97c3d5a3e7e9"}
Error at count:-12
Record Exception:Object reference not set to an instance of an object.
Completed count:-12
Completed count:-13
Error at count:-14
URL:-https://api.hubapi.com/contacts/v1/contact/vid/62916266/profile?hapikey=962e8ce2-2314-4e7f-8dab-77b7f59c270c
URL:-https://api.hubapi.com/contacts/v1/contact/?hapikey=962e8ce2-2314-4e7f-8dab-77b7f59c270c
Response exception:System.Net.HttpWebResponse
Error records:-{"message":"A contact with the email 'abfmuk@yahoo.co.uk' already exists.","identityProfile":{"vid":62141270,"identity":[{"value":"abfmuk@yahoo.co.uk","type":"EMAIL","timestamp":1593710893875,"isPrimary":true},{"value":"63a01c42-56e4-47cb-9241-fee347926d0a","type":"LEAD_GUID","timestamp":1593710893884}],"linkedVid":[],"isContact":true,"savedAtTimestamp":1593710893886},"errors":[{"message":"A contact with email abfmuk@yahoo.co.uk already exists.","in":"email"}],"status":"error","correlationId":"57ff5adf-9fc0-4d30-ab9a-abe5a17b4c76","category":"OBJECT_ALREADY_EXISTS","error":"CONTACT_EXISTS"}
Completed count:-14
Error at count:-15
URL:-https://api.hubapi.com/contacts/v1/contact/vid/63950204/profile?hapikey=962e8ce2-2314-4e7f-8dab-77b7f59c270c
URL:-https://api.hubapi.com/contacts/v1/contact/?hapikey=962e8ce2-2314-4e7f-8dab-77b7f59c270c
Response exception:System.Net.HttpWebResponse
Error records:-{"message":"A contact with the email 'abfmuk@yahoo.co.uk' already exists.","identityProfile":{"vid":62141270,"identity":[{"value":"abfmuk@yahoo.co.uk","type":"EMAIL","timestamp":1593710893875,"isPrimary":true},{"value":"63a01c42-56e4-47cb-9241-fee347926d0a","type":"LEAD_GUID","timestamp":1593710893884}],"linkedVid":[],"isContact":true,"savedAtTimestamp":1593710893886},"errors":[{"message":"A contact with email abfmuk@yahoo.co.uk already exists.","in":"email"}],"status":"error","correlationId":"e9b544c7-37b5-4d6f-bcb3-352ee52f2954","category":"OBJECT_ALREADY_EXISTS","error":"CONTACT_EXISTS"}
Completed count:-15
Completed count:-16
Error at count:-17
URL:-https://api.hubapi.com/contacts/v1/contact/vid/{0}/profile?hapikey=962e8ce2-2314-4e7f-8dab-77b7f59c270c
URL:-https://api.hubapi.com/contacts/v1/contact/?hapikey=962e8ce2-2314-4e7f-8dab-77b7f59c270c
Response exception:System.Net.HttpWebResponse
Error records:-{"message":"Contact already exists","identityProfile":{"vid":72155724,"identity":[{"value":"sajda.g7860@gmail.com","type":"EMAIL","timestamp":1596045905777,"isPrimary":true},{"value":"034d7af8-47cd-4153-ba64-f8172ea2d3bb","type":"LEAD_GUID","timestamp":1596045905784}],"linkedVid":[],"isContact":true,"savedAtTimestamp":1596045905787},"errors":[{"message":"A contact with email sajda.g7860@gmail.com already exists.","in":"email"}],"status":"error","correlationId":"9b507a49-22bf-4333-b7b7-3b2307967d52","category":"OBJECT_ALREADY_EXISTS","error":"CONTACT_EXISTS"}
Completed count:-17
Completed count:-18
Completed count:-19
Completed count:-20
Error at count:-21
URL:-https://api.hubapi.com/contacts/v1/contact/vid/{0}/profile?hapikey=962e8ce2-2314-4e7f-8dab-77b7f59c270c
URL:-https://api.hubapi.com/contacts/v1/contact/?hapikey=962e8ce2-2314-4e7f-8dab-77b7f59c270c
Response exception:System.Net.HttpWebResponse
Error records:-{"message":"Contact already exists","identityProfile":{"vid":64183401,"identity":[{"value":"vpatel415@yahoo.com","type":"EMAIL","timestamp":1594154516973,"isPrimary":true},{"value":"e1220fbd-5122-47b3-a2e5-e0621fcf188c","type":"LEAD_GUID","timestamp":1594154516982}],"linkedVid":[],"isContact":true,"savedAtTimestamp":1594154516994},"errors":[{"message":"A contact with email vpatel415@yahoo.com already exists.","in":"email"}],"status":"error","correlationId":"1a02bdbd-4844-4aa4-8751-ba8d3f6eb7a3","category":"OBJECT_ALREADY_EXISTS","error":"CONTACT_EXISTS"}
Completed count:-21
Completed count:-22
Completed count:-23
Completed count:-24
Completed count:-25
Completed count:-26
Completed count:-27
Completed count:-28
Completed count:-29
Completed count:-30
Completed count:-31
Completed count:-32
Completed count:-33
Completed count:-34
Completed count:-35
Completed count:-36
Completed count:-37
Completed count:-38
Completed count:-39
Completed count:-40
