Start..08-09-2020 21:29:06
Count..100
Completed count:-0
Completed count:-1
Error at count:-2
URL:-https://api.hubapi.com/contacts/v1/contact/vid/63961249/profile?hapikey=962e8ce2-2314-4e7f-8dab-77b7f59c270c
URL:-https://api.hubapi.com/contacts/v1/contact/?hapikey=962e8ce2-2314-4e7f-8dab-77b7f59c270c
Response exception:System.Net.HttpWebResponse
Error records:-{"validationResults":[{"isValid":false,"message":"Email address terencecano@yahoo.co.ok is invalid","error":"INVALID_EMAIL","name":"email"}],"status":"error","message":"Property values were not valid","correlationId":"cd6223b1-35da-480c-905e-b1dff82a4453"}
Error at count:-2
Record Exception:Object reference not set to an instance of an object.
Completed count:-2
Error at count:-3
URL:-https://api.hubapi.com/contacts/v1/contact/vid/62843252/profile?hapikey=962e8ce2-2314-4e7f-8dab-77b7f59c270c
URL:-https://api.hubapi.com/contacts/v1/contact/?hapikey=962e8ce2-2314-4e7f-8dab-77b7f59c270c
Response exception:System.Net.HttpWebResponse
Error records:-{"validationResults":[{"isValid":false,"message":"Paypal was not one of the allowed options: [label: \"PayPal\"\nvalue: \"PayPal\"\ndisplay_order: 0\ndouble_data: 0.0\nhidden: false\ndescription: \"\"\nread_only: false\n, label: \"Paysafe\"\nvalue: \"Paysafe\"\ndisplay_order: 1\ndouble_data: 0.0\nhidden: false\ndescription: \"\"\nread_only: false\n, label: \"Others\"\nvalue: \"Others\"\ndisplay_order: 2\ndouble_data: 0.0\nhidden: false\ndescription: \"\"\nread_only: false\n, label: \"Credit/Debit card \"\nvalue: \"Credit/Debit card\"\ndisplay_order: 3\ndouble_data: 0.0\nhidden: false\ndescription: \"\"\nread_only: false\n, label: \"RealX\"\nvalue: \"RealX\"\ndisplay_order: 4\ndouble_data: 0.0\nhidden: false\ndescription: \"\"\nread_only: false\n]","error":"INVALID_OPTION","name":"latest_topup_payment_method_used"}],"status":"error","message":"Property values were not valid","correlationId":"08f7e7f1-e10e-4899-bd25-3e9d776cd1f0"}
Error at count:-3
Record Exception:Object reference not set to an instance of an object.
Completed count:-3
Completed count:-4
Completed count:-5
Error at count:-6
URL:-https://api.hubapi.com/contacts/v1/contact/vid/9462651/profile?hapikey=962e8ce2-2314-4e7f-8dab-77b7f59c270c
URL:-https://api.hubapi.com/contacts/v1/contact/?hapikey=962e8ce2-2314-4e7f-8dab-77b7f59c270c
Response exception:System.Net.HttpWebResponse
Error records:-{"validationResults":[{"isValid":false,"message":"Paypal was not one of the allowed options: [label: \"PayPal\"\nvalue: \"PayPal\"\ndisplay_order: 0\ndouble_data: 0.0\nhidden: false\ndescription: \"\"\nread_only: false\n, label: \"Paysafe\"\nvalue: \"Paysafe\"\ndisplay_order: 1\ndouble_data: 0.0\nhidden: false\ndescription: \"\"\nread_only: false\n, label: \"Others\"\nvalue: \"Others\"\ndisplay_order: 2\ndouble_data: 0.0\nhidden: false\ndescription: \"\"\nread_only: false\n, label: \"Credit/Debit card \"\nvalue: \"Credit/Debit card\"\ndisplay_order: 3\ndouble_data: 0.0\nhidden: false\ndescription: \"\"\nread_only: false\n, label: \"RealX\"\nvalue: \"RealX\"\ndisplay_order: 4\ndouble_data: 0.0\nhidden: false\ndescription: \"\"\nread_only: false\n]","error":"INVALID_OPTION","name":"latest_topup_payment_method_used"}],"status":"error","message":"Property values were not valid","correlationId":"3a6d027a-df92-47a6-86e9-6c34794284fa"}
Error at count:-6
Record Exception:Object reference not set to an instance of an object.
Completed count:-6
Completed count:-7
Completed count:-8
Completed count:-9
Completed count:-10
Completed count:-11
Completed count:-12
Completed count:-13
Completed count:-14
Completed count:-15
Completed count:-16
Completed count:-17
Completed count:-18
Completed count:-19
Completed count:-20
Completed count:-21
Completed count:-22
Completed count:-23
Completed count:-24
Completed count:-25
Completed count:-26
Completed count:-27
Completed count:-28
Completed count:-29
Completed count:-30
Completed count:-31
Completed count:-32
Completed count:-33
Completed count:-34
Completed count:-35
Completed count:-36
Completed count:-37
Completed count:-38
Completed count:-39
Completed count:-40
Completed count:-41
Completed count:-42
Completed count:-43
Completed count:-44
Completed count:-45
Completed count:-46
Completed count:-47
Completed count:-48
Completed count:-49
Completed count:-50
Completed count:-51
Completed count:-52
Completed count:-53
Completed count:-54
Completed count:-55
Completed count:-56
Completed count:-57
Completed count:-58
Completed count:-59
Completed count:-60
Completed count:-61
Completed count:-62
Completed count:-63
Completed count:-64
Completed count:-65
Completed count:-66
Completed count:-67
Completed count:-68
Completed count:-69
Completed count:-70
Completed count:-71
Completed count:-72
Completed count:-73
Completed count:-74
Completed count:-75
Completed count:-76
Completed count:-77
Completed count:-78
Completed count:-79
Completed count:-80
Completed count:-81
Completed count:-82
Completed count:-83
Completed count:-84
Completed count:-85
Completed count:-86
Completed count:-87
Completed count:-88
Completed count:-89
Completed count:-90
Completed count:-91
Completed count:-92
Completed count:-93
Completed count:-94
Completed count:-95
Completed count:-96
Completed count:-97
Completed count:-98
Completed count:-99
End..08-09-2020 21:31:01
Start..08-09-2020 21:31:38
Count..100
Error at count:-0
URL:-https://api.hubapi.com/contacts/v1/contact/vid/63961249/profile?hapikey=962e8ce2-2314-4e7f-8dab-77b7f59c270c
URL:-https://api.hubapi.com/contacts/v1/contact/?hapikey=962e8ce2-2314-4e7f-8dab-77b7f59c270c
Response exception:System.Net.HttpWebResponse
Error records:-{"validationResults":[{"isValid":false,"message":"Email address terencecano@yahoo.co.ok is invalid","error":"INVALID_EMAIL","name":"email"}],"status":"error","message":"Property values were not valid","correlationId":"31e79c36-7349-492b-8594-f5e197127eb0"}
Error at count:-0
Record Exception:Object reference not set to an instance of an object.
Completed count:-0
Error at count:-1
URL:-https://api.hubapi.com/contacts/v1/contact/vid/62843252/profile?hapikey=962e8ce2-2314-4e7f-8dab-77b7f59c270c
URL:-https://api.hubapi.com/contacts/v1/contact/?hapikey=962e8ce2-2314-4e7f-8dab-77b7f59c270c
Response exception:System.Net.HttpWebResponse
Error records:-{"validationResults":[{"isValid":false,"message":"Paypal was not one of the allowed options: [label: \"PayPal\"\nvalue: \"PayPal\"\ndisplay_order: 0\ndouble_data: 0.0\nhidden: false\ndescription: \"\"\nread_only: false\n, label: \"Paysafe\"\nvalue: \"Paysafe\"\ndisplay_order: 1\ndouble_data: 0.0\nhidden: false\ndescription: \"\"\nread_only: false\n, label: \"Others\"\nvalue: \"Others\"\ndisplay_order: 2\ndouble_data: 0.0\nhidden: false\ndescription: \"\"\nread_only: false\n, label: \"Credit/Debit card \"\nvalue: \"Credit/Debit card\"\ndisplay_order: 3\ndouble_data: 0.0\nhidden: false\ndescription: \"\"\nread_only: false\n, label: \"RealX\"\nvalue: \"RealX\"\ndisplay_order: 4\ndouble_data: 0.0\nhidden: false\ndescription: \"\"\nread_only: false\n]","error":"INVALID_OPTION","name":"latest_topup_payment_method_used"}],"status":"error","message":"Property values were not valid","correlationId":"8e2f2894-387b-40ab-84dd-59867a6dc20e"}
Error at count:-1
Record Exception:Object reference not set to an instance of an object.
Completed count:-1
Error at count:-2
URL:-https://api.hubapi.com/contacts/v1/contact/vid/9462651/profile?hapikey=962e8ce2-2314-4e7f-8dab-77b7f59c270c
URL:-https://api.hubapi.com/contacts/v1/contact/?hapikey=962e8ce2-2314-4e7f-8dab-77b7f59c270c
Response exception:System.Net.HttpWebResponse
Error records:-{"validationResults":[{"isValid":false,"message":"Paypal was not one of the allowed options: [label: \"PayPal\"\nvalue: \"PayPal\"\ndisplay_order: 0\ndouble_data: 0.0\nhidden: false\ndescription: \"\"\nread_only: false\n, label: \"Paysafe\"\nvalue: \"Paysafe\"\ndisplay_order: 1\ndouble_data: 0.0\nhidden: false\ndescription: \"\"\nread_only: false\n, label: \"Others\"\nvalue: \"Others\"\ndisplay_order: 2\ndouble_data: 0.0\nhidden: false\ndescription: \"\"\nread_only: false\n, label: \"Credit/Debit card \"\nvalue: \"Credit/Debit card\"\ndisplay_order: 3\ndouble_data: 0.0\nhidden: false\ndescription: \"\"\nread_only: false\n, label: \"RealX\"\nvalue: \"RealX\"\ndisplay_order: 4\ndouble_data: 0.0\nhidden: false\ndescription: \"\"\nread_only: false\n]","error":"INVALID_OPTION","name":"latest_topup_payment_method_used"}],"status":"error","message":"Property values were not valid","correlationId":"e69cc023-eba6-4ec9-96c9-02017ef8d06d"}
Error at count:-2
Record Exception:Object reference not set to an instance of an object.
Completed count:-2
Completed count:-3
Completed count:-4
Completed count:-5
Completed count:-6
Completed count:-7
Error at count:-8
URL:-https://api.hubapi.com/contacts/v1/contact/vid/{0}/profile?hapikey=962e8ce2-2314-4e7f-8dab-77b7f59c270c
URL:-https://api.hubapi.com/contacts/v1/contact/?hapikey=962e8ce2-2314-4e7f-8dab-77b7f59c270c
Response exception:System.Net.HttpWebResponse
Error records:-{"validationResults":[{"isValid":false,"message":"YES was not one of the allowed options: [label: \"Yes\"\nvalue: \"Yes\"\ndisplay_order: 0\ndouble_data: 0.0\nhidden: false\ndescription: \"\"\nread_only: false\n, label: \"No\"\nvalue: \"No\"\ndisplay_order: 1\ndouble_data: 0.0\nhidden: false\ndescription: \"\"\nread_only: false\n]","error":"INVALID_OPTION","name":"has_active_aio_bundle"}],"status":"error","message":"Property values were not valid","correlationId":"0aadb829-29cc-43d8-80f7-623e0ff8ca84"}
Error at count:-8
Record Exception:Object reference not set to an instance of an object.
Completed count:-8
Completed count:-9
Completed count:-10
Completed count:-11
Completed count:-12
Completed count:-13
Completed count:-14
Completed count:-15
Completed count:-16
Completed count:-17
Completed count:-18
Completed count:-19
Completed count:-20
Completed count:-21
Completed count:-22
Completed count:-23
Completed count:-24
Completed count:-25
Completed count:-26
Completed count:-27
Completed count:-28
Completed count:-29
Completed count:-30
Completed count:-31
Completed count:-32
Completed count:-33
Completed count:-34
Completed count:-35
Completed count:-36
Completed count:-37
Completed count:-38
Completed count:-39
Completed count:-40
Completed count:-41
Completed count:-42
Completed count:-43
Error at count:-44
URL:-https://api.hubapi.com/contacts/v1/contact/vid/64032151/profile?hapikey=962e8ce2-2314-4e7f-8dab-77b7f59c270c
URL:-https://api.hubapi.com/contacts/v1/contact/?hapikey=962e8ce2-2314-4e7f-8dab-77b7f59c270c
Response exception:System.Net.HttpWebResponse
Error records:-{"validationResults":[{"isValid":false,"message":"YES was not one of the allowed options: [label: \"Yes\"\nvalue: \"Yes\"\ndisplay_order: 0\ndouble_data: 0.0\nhidden: false\ndescription: \"\"\nread_only: false\n, label: \"No\"\nvalue: \"No\"\ndisplay_order: 1\ndouble_data: 0.0\nhidden: false\ndescription: \"\"\nread_only: false\n]","error":"INVALID_OPTION","name":"has_active_data_bundle"}],"status":"error","message":"Property values were not valid","correlationId":"58da0631-4c8d-42a5-9026-2fcf725e18c1"}
Error at count:-44
Record Exception:Object reference not set to an instance of an object.
Completed count:-44
Completed count:-45
Completed count:-46
Completed count:-47
Completed count:-48
Completed count:-49
Completed count:-50
Completed count:-51
Completed count:-52
Completed count:-53
Completed count:-54
Completed count:-55
Completed count:-56
Completed count:-57
Completed count:-58
Completed count:-59
Completed count:-60
Completed count:-61
Completed count:-62
Completed count:-63
Completed count:-64
Completed count:-65
Completed count:-66
Completed count:-67
Completed count:-68
Completed count:-69
Completed count:-70
Completed count:-71
Completed count:-72
Completed count:-73
Completed count:-74
Completed count:-75
Completed count:-76
Completed count:-77
Completed count:-78
Completed count:-79
Completed count:-80
Completed count:-81
Completed count:-82
Completed count:-83
Completed count:-84
Completed count:-85
Completed count:-86
Completed count:-87
Completed count:-88
Completed count:-89
Completed count:-90
Completed count:-91
Completed count:-92
Completed count:-93
Completed count:-94
Completed count:-95
Completed count:-96
Completed count:-97
Completed count:-98
Completed count:-99
End..08-09-2020 21:33:17
Start..08-09-2020 21:33:38
Count..100
Error at count:-0
URL:-https://api.hubapi.com/contacts/v1/contact/vid/63961249/profile?hapikey=962e8ce2-2314-4e7f-8dab-77b7f59c270c
URL:-https://api.hubapi.com/contacts/v1/contact/?hapikey=962e8ce2-2314-4e7f-8dab-77b7f59c270c
Response exception:System.Net.HttpWebResponse
Error records:-{"validationResults":[{"isValid":false,"message":"Email address terencecano@yahoo.co.ok is invalid","error":"INVALID_EMAIL","name":"email"}],"status":"error","message":"Property values were not valid","correlationId":"2f8f4342-b111-4d6e-9e87-3850b92d8a11"}
Error at count:-0
Record Exception:Object reference not set to an instance of an object.
Completed count:-0
Error at count:-1
URL:-https://api.hubapi.com/contacts/v1/contact/vid/62843252/profile?hapikey=962e8ce2-2314-4e7f-8dab-77b7f59c270c
URL:-https://api.hubapi.com/contacts/v1/contact/?hapikey=962e8ce2-2314-4e7f-8dab-77b7f59c270c
Response exception:System.Net.HttpWebResponse
Error records:-{"validationResults":[{"isValid":false,"message":"Paypal was not one of the allowed options: [label: \"PayPal\"\nvalue: \"PayPal\"\ndisplay_order: 0\ndouble_data: 0.0\nhidden: false\ndescription: \"\"\nread_only: false\n, label: \"Paysafe\"\nvalue: \"Paysafe\"\ndisplay_order: 1\ndouble_data: 0.0\nhidden: false\ndescription: \"\"\nread_only: false\n, label: \"Others\"\nvalue: \"Others\"\ndisplay_order: 2\ndouble_data: 0.0\nhidden: false\ndescription: \"\"\nread_only: false\n, label: \"Credit/Debit card \"\nvalue: \"Credit/Debit card\"\ndisplay_order: 3\ndouble_data: 0.0\nhidden: false\ndescription: \"\"\nread_only: false\n, label: \"RealX\"\nvalue: \"RealX\"\ndisplay_order: 4\ndouble_data: 0.0\nhidden: false\ndescription: \"\"\nread_only: false\n]","error":"INVALID_OPTION","name":"latest_topup_payment_method_used"}],"status":"error","message":"Property values were not valid","correlationId":"ba23e312-d4ae-47f4-87d7-c0a26c36117f"}
Error at count:-1
Record Exception:Object reference not set to an instance of an object.
Completed count:-1
Error at count:-2
URL:-https://api.hubapi.com/contacts/v1/contact/vid/9462651/profile?hapikey=962e8ce2-2314-4e7f-8dab-77b7f59c270c
URL:-https://api.hubapi.com/contacts/v1/contact/?hapikey=962e8ce2-2314-4e7f-8dab-77b7f59c270c
Response exception:System.Net.HttpWebResponse
Error records:-{"validationResults":[{"isValid":false,"message":"Paypal was not one of the allowed options: [label: \"PayPal\"\nvalue: \"PayPal\"\ndisplay_order: 0\ndouble_data: 0.0\nhidden: false\ndescription: \"\"\nread_only: false\n, label: \"Paysafe\"\nvalue: \"Paysafe\"\ndisplay_order: 1\ndouble_data: 0.0\nhidden: false\ndescription: \"\"\nread_only: false\n, label: \"Others\"\nvalue: \"Others\"\ndisplay_order: 2\ndouble_data: 0.0\nhidden: false\ndescription: \"\"\nread_only: false\n, label: \"Credit/Debit card \"\nvalue: \"Credit/Debit card\"\ndisplay_order: 3\ndouble_data: 0.0\nhidden: false\ndescription: \"\"\nread_only: false\n, label: \"RealX\"\nvalue: \"RealX\"\ndisplay_order: 4\ndouble_data: 0.0\nhidden: false\ndescription: \"\"\nread_only: false\n]","error":"INVALID_OPTION","name":"latest_topup_payment_method_used"}],"status":"error","message":"Property values were not valid","correlationId":"69931fff-282b-4c55-9b55-e5c1f52a2619"}
Error at count:-2
Record Exception:Object reference not set to an instance of an object.
Completed count:-2
Error at count:-3
URL:-https://api.hubapi.com/contacts/v1/contact/vid/{0}/profile?hapikey=962e8ce2-2314-4e7f-8dab-77b7f59c270c
URL:-https://api.hubapi.com/contacts/v1/contact/?hapikey=962e8ce2-2314-4e7f-8dab-77b7f59c270c
Response exception:System.Net.HttpWebResponse
Error records:-{"validationResults":[{"isValid":false,"message":"YES was not one of the allowed options: [label: \"Yes\"\nvalue: \"Yes\"\ndisplay_order: 0\ndouble_data: 0.0\nhidden: false\ndescription: \"\"\nread_only: false\n, label: \"No\"\nvalue: \"No\"\ndisplay_order: 1\ndouble_data: 0.0\nhidden: false\ndescription: \"\"\nread_only: false\n]","error":"INVALID_OPTION","name":"has_active_aio_bundle"}],"status":"error","message":"Property values were not valid","correlationId":"9168a30c-7e16-4fa6-a19e-428cfbd1f82c"}
Error at count:-3
Record Exception:Object reference not set to an instance of an object.
Completed count:-3
Error at count:-4
URL:-https://api.hubapi.com/contacts/v1/contact/vid/64032151/profile?hapikey=962e8ce2-2314-4e7f-8dab-77b7f59c270c
URL:-https://api.hubapi.com/contacts/v1/contact/?hapikey=962e8ce2-2314-4e7f-8dab-77b7f59c270c
Response exception:System.Net.HttpWebResponse
Error records:-{"validationResults":[{"isValid":false,"message":"YES was not one of the allowed options: [label: \"Yes\"\nvalue: \"Yes\"\ndisplay_order: 0\ndouble_data: 0.0\nhidden: false\ndescription: \"\"\nread_only: false\n, label: \"No\"\nvalue: \"No\"\ndisplay_order: 1\ndouble_data: 0.0\nhidden: false\ndescription: \"\"\nread_only: false\n]","error":"INVALID_OPTION","name":"has_active_data_bundle"}],"status":"error","message":"Property values were not valid","correlationId":"cc008bcc-969f-44ae-9754-4b9d2348bbbe"}
Error at count:-4
Record Exception:Object reference not set to an instance of an object.
Completed count:-4
Completed count:-5
Completed count:-6
Completed count:-7
Completed count:-8
Completed count:-9
Completed count:-10
Completed count:-11
Completed count:-12
Completed count:-13
Completed count:-14
Completed count:-15
Completed count:-16
Completed count:-17
Completed count:-18
Completed count:-19
Completed count:-20
Completed count:-21
Completed count:-22
Completed count:-23
Error at count:-24
URL:-https://api.hubapi.com/contacts/v1/contact/vid/{0}/profile?hapikey=962e8ce2-2314-4e7f-8dab-77b7f59c270c
URL:-https://api.hubapi.com/contacts/v1/contact/?hapikey=962e8ce2-2314-4e7f-8dab-77b7f59c270c
Response exception:System.Net.HttpWebResponse
Error records:-{"message":"Contact already exists","identityProfile":{"vid":84269630,"identity":[{"value":"muhammadtariq@eircom.net","type":"EMAIL","timestamp":1599059616633,"isPrimary":true},{"value":"8166d444-93d4-4848-8732-f947e7f1304f","type":"LEAD_GUID","timestamp":1599059616642}],"linkedVid":[],"isContact":true,"savedAtTimestamp":1599059616645},"errors":[{"message":"A contact with email muhammadtariq@eircom.net already exists.","in":"email"}],"status":"error","correlationId":"5d7c8158-d5fa-4e01-b9a1-07b56e2b76f1","category":"OBJECT_ALREADY_EXISTS","error":"CONTACT_EXISTS"}
Completed count:-24
Completed count:-25
Completed count:-26
Completed count:-27
Error at count:-28
URL:-https://api.hubapi.com/contacts/v1/contact/vid/{0}/profile?hapikey=962e8ce2-2314-4e7f-8dab-77b7f59c270c
URL:-https://api.hubapi.com/contacts/v1/contact/?hapikey=962e8ce2-2314-4e7f-8dab-77b7f59c270c
Response exception:System.Net.HttpWebResponse
Error records:-{"message":"Contact already exists","identityProfile":{"vid":84262051,"identity":[{"value":"sahrased@hotmail.com","type":"EMAIL","timestamp":1599059612373,"isPrimary":true},{"value":"f21bc284-c13b-47d2-9733-af157a0f5842","type":"LEAD_GUID","timestamp":1599059612383}],"linkedVid":[],"isContact":true,"savedAtTimestamp":1599059612710},"errors":[{"message":"A contact with email sahrased@hotmail.com already exists.","in":"email"}],"status":"error","correlationId":"9a570704-83bc-41da-9bb9-a5ac4a75721e","category":"OBJECT_ALREADY_EXISTS","error":"CONTACT_EXISTS"}
Completed count:-28
Completed count:-29
Error at count:-30
URL:-https://api.hubapi.com/contacts/v1/contact/vid/{0}/profile?hapikey=962e8ce2-2314-4e7f-8dab-77b7f59c270c
URL:-https://api.hubapi.com/contacts/v1/contact/?hapikey=962e8ce2-2314-4e7f-8dab-77b7f59c270c
Response exception:System.Net.HttpWebResponse
Error records:-{"message":"Contact already exists","identityProfile":{"vid":62884052,"identity":[{"value":"iftekharakiyani@gmail.com","type":"EMAIL","timestamp":1593882946805,"isPrimary":true},{"value":"06963a98-4973-4a27-916e-dec04389907d","type":"LEAD_GUID","timestamp":1593882946818}],"linkedVid":[],"isContact":true,"savedAtTimestamp":1593882946820},"errors":[{"message":"A contact with email iftekharakiyani@gmail.com already exists.","in":"email"}],"status":"error","correlationId":"b8f7b4c6-03d1-45a1-8270-e536598ef1fc","category":"OBJECT_ALREADY_EXISTS","error":"CONTACT_EXISTS"}
Completed count:-30
Completed count:-31
Completed count:-32
Completed count:-33
Completed count:-34
Completed count:-35
Completed count:-36
Completed count:-37
Completed count:-38
Completed count:-39
Error at count:-40
URL:-https://api.hubapi.com/contacts/v1/contact/vid/64027714/profile?hapikey=962e8ce2-2314-4e7f-8dab-77b7f59c270c
URL:-https://api.hubapi.com/contacts/v1/contact/?hapikey=962e8ce2-2314-4e7f-8dab-77b7f59c270c
Response exception:System.Net.HttpWebResponse
Error records:-{"message":"A contact with the email 'leninacrown@wp.pl' already exists.","identityProfile":{"vid":5784601,"identity":[{"value":"leninacrown@wp.pl","type":"EMAIL","timestamp":1578392791934,"isPrimary":true},{"value":"22d15234-b7a9-4e50-b504-a9a517966fb1","type":"LEAD_GUID","timestamp":1578392794121}],"linkedVid":[9202151,38831451,19798401],"isContact":true,"savedAtTimestamp":1587901308881},"errors":[{"message":"A contact with email leninacrown@wp.pl already exists.","in":"email"}],"status":"error","correlationId":"e4d563fd-6ead-4395-8792-0ef4b73b1dc3","category":"OBJECT_ALREADY_EXISTS","error":"CONTACT_EXISTS"}
Completed count:-40
Completed count:-41
Completed count:-42
Completed count:-43
Completed count:-44
Completed count:-45
Completed count:-46
Completed count:-47
Completed count:-48
Error at count:-49
URL:-https://api.hubapi.com/contacts/v1/contact/vid/{0}/profile?hapikey=962e8ce2-2314-4e7f-8dab-77b7f59c270c
URL:-https://api.hubapi.com/contacts/v1/contact/?hapikey=962e8ce2-2314-4e7f-8dab-77b7f59c270c
Response exception:System.Net.HttpWebResponse
Error records:-{"message":"Contact already exists","identityProfile":{"vid":62970605,"identity":[{"value":"sharifakh012@yahoo.co.uk","type":"EMAIL","timestamp":1593882999948,"isPrimary":true},{"value":"b25afe74-efa0-4fea-8b16-054aeb896972","type":"LEAD_GUID","timestamp":1593882999955}],"linkedVid":[],"isContact":true,"savedAtTimestamp":1593882999957},"errors":[{"message":"A contact with email sharifakh012@yahoo.co.uk already exists.","in":"email"}],"status":"error","correlationId":"154da222-ff65-45ee-b73f-1509b17bcaae","category":"OBJECT_ALREADY_EXISTS","error":"CONTACT_EXISTS"}
Completed count:-49
Completed count:-50
Error at count:-51
URL:-https://api.hubapi.com/contacts/v1/contact/vid/62970607/profile?hapikey=962e8ce2-2314-4e7f-8dab-77b7f59c270c
URL:-https://api.hubapi.com/contacts/v1/contact/?hapikey=962e8ce2-2314-4e7f-8dab-77b7f59c270c
Response exception:System.Net.HttpWebResponse
Error records:-{"validationResults":[{"isValid":false,"message":"Email address donco_borisov@yahoo.clm is invalid","error":"INVALID_EMAIL","name":"email"}],"status":"error","message":"Property values were not valid","correlationId":"72647723-a52c-481d-8596-32a1b6bf6e58"}
Error at count:-51
Record Exception:Object reference not set to an instance of an object.
Completed count:-51
Completed count:-52
Completed count:-53
Completed count:-54
Completed count:-55
Error at count:-56
URL:-https://api.hubapi.com/contacts/v1/contact/vid/64028060/profile?hapikey=962e8ce2-2314-4e7f-8dab-77b7f59c270c
URL:-https://api.hubapi.com/contacts/v1/contact/?hapikey=962e8ce2-2314-4e7f-8dab-77b7f59c270c
Response exception:System.Net.HttpWebResponse
Error records:-{"message":"A contact with the email 'hakimatabdulmumin@gmail.com' already exists.","identityProfile":{"vid":7667401,"identity":[{"value":"hakimatabdulmumin@gmail.com","type":"EMAIL","timestamp":1585225554114,"isPrimary":true},{"value":"db39ae20-7cee-4519-a4ed-e844d2b195c6","type":"LEAD_GUID","timestamp":1585225554708}],"linkedVid":[],"isContact":true,"savedAtTimestamp":1585225554712},"errors":[{"message":"A contact with email hakimatabdulmumin@gmail.com already exists.","in":"email"}],"status":"error","correlationId":"38c7637d-72b6-49f6-a0a1-d687cc910d7b","category":"OBJECT_ALREADY_EXISTS","error":"CONTACT_EXISTS"}
Completed count:-56
Error at count:-57
URL:-https://api.hubapi.com/contacts/v1/contact/vid/{0}/profile?hapikey=962e8ce2-2314-4e7f-8dab-77b7f59c270c
URL:-https://api.hubapi.com/contacts/v1/contact/?hapikey=962e8ce2-2314-4e7f-8dab-77b7f59c270c
Response exception:System.Net.HttpWebResponse
Error records:-{"validationResults":[{"isValid":false,"message":"Paypal was not one of the allowed options: [label: \"PayPal\"\nvalue: \"PayPal\"\ndisplay_order: 0\ndouble_data: 0.0\nhidden: false\ndescription: \"\"\nread_only: false\n, label: \"Paysafe\"\nvalue: \"Paysafe\"\ndisplay_order: 1\ndouble_data: 0.0\nhidden: false\ndescription: \"\"\nread_only: false\n, label: \"Others\"\nvalue: \"Others\"\ndisplay_order: 2\ndouble_data: 0.0\nhidden: false\ndescription: \"\"\nread_only: false\n, label: \"Credit/Debit card \"\nvalue: \"Credit/Debit card\"\ndisplay_order: 3\ndouble_data: 0.0\nhidden: false\ndescription: \"\"\nread_only: false\n, label: \"RealX\"\nvalue: \"RealX\"\ndisplay_order: 4\ndouble_data: 0.0\nhidden: false\ndescription: \"\"\nread_only: false\n]","error":"INVALID_OPTION","name":"latest_topup_payment_method_used"}],"status":"error","message":"Property values were not valid","correlationId":"d2ca2bc5-e5ee-4bbb-b025-830bc32c6c5a"}
Error at count:-57
Record Exception:Object reference not set to an instance of an object.
Completed count:-57
Completed count:-58
Error at count:-59
URL:-https://api.hubapi.com/contacts/v1/contact/vid/{0}/profile?hapikey=962e8ce2-2314-4e7f-8dab-77b7f59c270c
URL:-https://api.hubapi.com/contacts/v1/contact/?hapikey=962e8ce2-2314-4e7f-8dab-77b7f59c270c
Response exception:System.Net.HttpWebResponse
Error records:-{"validationResults":[{"isValid":false,"message":"Paypal was not one of the allowed options: [label: \"PayPal\"\nvalue: \"PayPal\"\ndisplay_order: 0\ndouble_data: 0.0\nhidden: false\ndescription: \"\"\nread_only: false\n, label: \"Paysafe\"\nvalue: \"Paysafe\"\ndisplay_order: 1\ndouble_data: 0.0\nhidden: false\ndescription: \"\"\nread_only: false\n, label: \"Others\"\nvalue: \"Others\"\ndisplay_order: 2\ndouble_data: 0.0\nhidden: false\ndescription: \"\"\nread_only: false\n, label: \"Credit/Debit card \"\nvalue: \"Credit/Debit card\"\ndisplay_order: 3\ndouble_data: 0.0\nhidden: false\ndescription: \"\"\nread_only: false\n, label: \"RealX\"\nvalue: \"RealX\"\ndisplay_order: 4\ndouble_data: 0.0\nhidden: false\ndescription: \"\"\nread_only: false\n]","error":"INVALID_OPTION","name":"latest_topup_payment_method_used"}],"status":"error","message":"Property values were not valid","correlationId":"19b2b128-3ab2-4f82-9764-ce96c081fcf1"}
Error at count:-59
Record Exception:Object reference not set to an instance of an object.
Completed count:-59
Completed count:-60
Completed count:-61
Completed count:-62
Completed count:-63
Completed count:-64
Completed count:-65
Completed count:-66
Error at count:-67
URL:-https://api.hubapi.com/contacts/v1/contact/vid/{0}/profile?hapikey=962e8ce2-2314-4e7f-8dab-77b7f59c270c
URL:-https://api.hubapi.com/contacts/v1/contact/?hapikey=962e8ce2-2314-4e7f-8dab-77b7f59c270c
Response exception:System.Net.HttpWebResponse
Error records:-{"message":"Contact already exists","identityProfile":{"vid":62136403,"identity":[{"value":"eduardomnl@yahoo.co.uk","type":"EMAIL","timestamp":1593710888914,"isPrimary":true},{"value":"bc798c13-5e1c-45f3-ab78-bcd6597831ee","type":"LEAD_GUID","timestamp":1593710888928}],"linkedVid":[64165751],"isContact":true,"savedAtTimestamp":1594152506638},"errors":[{"message":"A contact with email eduardomnl@yahoo.co.uk already exists.","in":"email"}],"status":"error","correlationId":"7945fb52-af58-4c9e-b433-9e267f8ac7dc","category":"OBJECT_ALREADY_EXISTS","error":"CONTACT_EXISTS"}
Completed count:-67
Completed count:-68
Completed count:-69
Completed count:-70
Completed count:-71
Completed count:-72
Completed count:-73
Error at count:-74
URL:-https://api.hubapi.com/contacts/v1/contact/vid/63964119/profile?hapikey=962e8ce2-2314-4e7f-8dab-77b7f59c270c
URL:-https://api.hubapi.com/contacts/v1/contact/?hapikey=962e8ce2-2314-4e7f-8dab-77b7f59c270c
Response exception:System.Net.HttpWebResponse
Error records:-{"message":"A contact with the email 'aaa786@gmail.com' already exists.","identityProfile":{"vid":62881913,"identity":[{"value":"aaa786@gmail.com","type":"EMAIL","timestamp":1593882939606,"isPrimary":true},{"value":"b757a055-2d18-486d-b589-1e24ed89c817","type":"LEAD_GUID","timestamp":1593882939617}],"linkedVid":[],"isContact":true,"savedAtTimestamp":1593882939619},"errors":[{"message":"A contact with email aaa786@gmail.com already exists.","in":"email"}],"status":"error","correlationId":"4a4eedf1-1133-4cbb-aadd-de0f423e5fe4","category":"OBJECT_ALREADY_EXISTS","error":"CONTACT_EXISTS"}
Completed count:-74
Completed count:-75
Completed count:-76
Completed count:-77
Error at count:-78
URL:-https://api.hubapi.com/contacts/v1/contact/vid/64022667/profile?hapikey=962e8ce2-2314-4e7f-8dab-77b7f59c270c
URL:-https://api.hubapi.com/contacts/v1/contact/?hapikey=962e8ce2-2314-4e7f-8dab-77b7f59c270c
Response exception:System.Net.HttpWebResponse
Error records:-{"message":"A contact with the email 'sulesillah1999@gmail.com' already exists.","identityProfile":{"vid":9274451,"identity":[{"value":"sulesillah1999@gmail.com","type":"EMAIL","timestamp":1579639786581,"isPrimary":true},{"value":"60ee6566-bb67-4323-ac73-3d3e3be329c3","type":"LEAD_GUID","timestamp":1579639787715}],"linkedVid":[38779551,41942351,9919301,52299501,43004501,45591051,9275251],"isContact":true,"savedAtTimestamp":1591234271113},"errors":[{"message":"A contact with email sulesillah1999@gmail.com already exists.","in":"email"}],"status":"error","correlationId":"b19b2b85-2e1b-412d-be09-6ab14abf2ac8","category":"OBJECT_ALREADY_EXISTS","error":"CONTACT_EXISTS"}
Completed count:-78
Completed count:-79
Completed count:-80
Error at count:-81
URL:-https://api.hubapi.com/contacts/v1/contact/vid/62876885/profile?hapikey=962e8ce2-2314-4e7f-8dab-77b7f59c270c
URL:-https://api.hubapi.com/contacts/v1/contact/?hapikey=962e8ce2-2314-4e7f-8dab-77b7f59c270c
Response exception:System.Net.HttpWebResponse
Error records:-{"validationResults":[{"isValid":false,"message":"Paypal was not one of the allowed options: [label: \"PayPal\"\nvalue: \"PayPal\"\ndisplay_order: 0\ndouble_data: 0.0\nhidden: false\ndescription: \"\"\nread_only: false\n, label: \"Paysafe\"\nvalue: \"Paysafe\"\ndisplay_order: 1\ndouble_data: 0.0\nhidden: false\ndescription: \"\"\nread_only: false\n, label: \"Others\"\nvalue: \"Others\"\ndisplay_order: 2\ndouble_data: 0.0\nhidden: false\ndescription: \"\"\nread_only: false\n, label: \"Credit/Debit card \"\nvalue: \"Credit/Debit card\"\ndisplay_order: 3\ndouble_data: 0.0\nhidden: false\ndescription: \"\"\nread_only: false\n, label: \"RealX\"\nvalue: \"RealX\"\ndisplay_order: 4\ndouble_data: 0.0\nhidden: false\ndescription: \"\"\nread_only: false\n]","error":"INVALID_OPTION","name":"latest_topup_payment_method_used"}],"status":"error","message":"Property values were not valid","correlationId":"0960608e-8792-41a3-9a27-9a4ae606d7b1"}
Error at count:-81
Record Exception:Object reference not set to an instance of an object.
Completed count:-81
Completed count:-82
Completed count:-83
Completed count:-84
Completed count:-85
Completed count:-86
Completed count:-87
Completed count:-88
Completed count:-89
Completed count:-90
Completed count:-91
Error at count:-92
URL:-https://api.hubapi.com/contacts/v1/contact/vid/53462701/profile?hapikey=962e8ce2-2314-4e7f-8dab-77b7f59c270c
URL:-https://api.hubapi.com/contacts/v1/contact/?hapikey=962e8ce2-2314-4e7f-8dab-77b7f59c270c
Response exception:System.Net.HttpWebResponse
Error records:-<html>
<head><title>502 Bad Gateway</title></head>
<body bgcolor="white">
<center><h1>502 Bad Gateway</h1></center>
</body>
</html>

Error at count:-92
Record Exception:Unexpected character encountered while parsing value: <. Path '', line 0, position 0.
Completed count:-92
Completed count:-93
Completed count:-94
Completed count:-95
Completed count:-96
Completed count:-97
Completed count:-98
Completed count:-99
End..08-09-2020 21:35:18
Start..08-09-2020 21:35:38
Count..100
Error at count:-0
URL:-https://api.hubapi.com/contacts/v1/contact/vid/63961249/profile?hapikey=962e8ce2-2314-4e7f-8dab-77b7f59c270c
URL:-https://api.hubapi.com/contacts/v1/contact/?hapikey=962e8ce2-2314-4e7f-8dab-77b7f59c270c
Response exception:System.Net.HttpWebResponse
Error records:-{"validationResults":[{"isValid":false,"message":"Email address terencecano@yahoo.co.ok is invalid","error":"INVALID_EMAIL","name":"email"}],"status":"error","message":"Property values were not valid","correlationId":"801c8874-1aa8-4e7b-8427-a987ccff54ad"}
Error at count:-0
Record Exception:Object reference not set to an instance of an object.
Completed count:-0
Error at count:-1
URL:-https://api.hubapi.com/contacts/v1/contact/vid/62843252/profile?hapikey=962e8ce2-2314-4e7f-8dab-77b7f59c270c
URL:-https://api.hubapi.com/contacts/v1/contact/?hapikey=962e8ce2-2314-4e7f-8dab-77b7f59c270c
Response exception:System.Net.HttpWebResponse
Error records:-{"validationResults":[{"isValid":false,"message":"Paypal was not one of the allowed options: [label: \"PayPal\"\nvalue: \"PayPal\"\ndisplay_order: 0\ndouble_data: 0.0\nhidden: false\ndescription: \"\"\nread_only: false\n, label: \"Paysafe\"\nvalue: \"Paysafe\"\ndisplay_order: 1\ndouble_data: 0.0\nhidden: false\ndescription: \"\"\nread_only: false\n, label: \"Others\"\nvalue: \"Others\"\ndisplay_order: 2\ndouble_data: 0.0\nhidden: false\ndescription: \"\"\nread_only: false\n, label: \"Credit/Debit card \"\nvalue: \"Credit/Debit card\"\ndisplay_order: 3\ndouble_data: 0.0\nhidden: false\ndescription: \"\"\nread_only: false\n, label: \"RealX\"\nvalue: \"RealX\"\ndisplay_order: 4\ndouble_data: 0.0\nhidden: false\ndescription: \"\"\nread_only: false\n]","error":"INVALID_OPTION","name":"latest_topup_payment_method_used"}],"status":"error","message":"Property values were not valid","correlationId":"5c49605d-f0ba-46d3-8604-119d978d7c61"}
Error at count:-1
Record Exception:Object reference not set to an instance of an object.
Completed count:-1
Error at count:-2
URL:-https://api.hubapi.com/contacts/v1/contact/vid/9462651/profile?hapikey=962e8ce2-2314-4e7f-8dab-77b7f59c270c
URL:-https://api.hubapi.com/contacts/v1/contact/?hapikey=962e8ce2-2314-4e7f-8dab-77b7f59c270c
Response exception:System.Net.HttpWebResponse
Error records:-{"validationResults":[{"isValid":false,"message":"Paypal was not one of the allowed options: [label: \"PayPal\"\nvalue: \"PayPal\"\ndisplay_order: 0\ndouble_data: 0.0\nhidden: false\ndescription: \"\"\nread_only: false\n, label: \"Paysafe\"\nvalue: \"Paysafe\"\ndisplay_order: 1\ndouble_data: 0.0\nhidden: false\ndescription: \"\"\nread_only: false\n, label: \"Others\"\nvalue: \"Others\"\ndisplay_order: 2\ndouble_data: 0.0\nhidden: false\ndescription: \"\"\nread_only: false\n, label: \"Credit/Debit card \"\nvalue: \"Credit/Debit card\"\ndisplay_order: 3\ndouble_data: 0.0\nhidden: false\ndescription: \"\"\nread_only: false\n, label: \"RealX\"\nvalue: \"RealX\"\ndisplay_order: 4\ndouble_data: 0.0\nhidden: false\ndescription: \"\"\nread_only: false\n]","error":"INVALID_OPTION","name":"latest_topup_payment_method_used"}],"status":"error","message":"Property values were not valid","correlationId":"e290455f-191e-40a0-9be4-ecbf91b8967e"}
Error at count:-2
Record Exception:Object reference not set to an instance of an object.
Completed count:-2
Error at count:-3
URL:-https://api.hubapi.com/contacts/v1/contact/vid/{0}/profile?hapikey=962e8ce2-2314-4e7f-8dab-77b7f59c270c
URL:-https://api.hubapi.com/contacts/v1/contact/?hapikey=962e8ce2-2314-4e7f-8dab-77b7f59c270c
Response exception:System.Net.HttpWebResponse
Error records:-{"validationResults":[{"isValid":false,"message":"YES was not one of the allowed options: [label: \"Yes\"\nvalue: \"Yes\"\ndisplay_order: 0\ndouble_data: 0.0\nhidden: false\ndescription: \"\"\nread_only: false\n, label: \"No\"\nvalue: \"No\"\ndisplay_order: 1\ndouble_data: 0.0\nhidden: false\ndescription: \"\"\nread_only: false\n]","error":"INVALID_OPTION","name":"has_active_aio_bundle"}],"status":"error","message":"Property values were not valid","correlationId":"f5d04821-e120-4c50-8ad3-53bddf02d2da"}
Error at count:-3
Record Exception:Object reference not set to an instance of an object.
Completed count:-3
Error at count:-4
URL:-https://api.hubapi.com/contacts/v1/contact/vid/64032151/profile?hapikey=962e8ce2-2314-4e7f-8dab-77b7f59c270c
URL:-https://api.hubapi.com/contacts/v1/contact/?hapikey=962e8ce2-2314-4e7f-8dab-77b7f59c270c
Response exception:System.Net.HttpWebResponse
Error records:-{"validationResults":[{"isValid":false,"message":"YES was not one of the allowed options: [label: \"Yes\"\nvalue: \"Yes\"\ndisplay_order: 0\ndouble_data: 0.0\nhidden: false\ndescription: \"\"\nread_only: false\n, label: \"No\"\nvalue: \"No\"\ndisplay_order: 1\ndouble_data: 0.0\nhidden: false\ndescription: \"\"\nread_only: false\n]","error":"INVALID_OPTION","name":"has_active_data_bundle"}],"status":"error","message":"Property values were not valid","correlationId":"9131f734-9426-453e-98b1-db91fedd5aec"}
Error at count:-4
Record Exception:Object reference not set to an instance of an object.
Completed count:-4
Error at count:-5
URL:-https://api.hubapi.com/contacts/v1/contact/vid/62970607/profile?hapikey=962e8ce2-2314-4e7f-8dab-77b7f59c270c
URL:-https://api.hubapi.com/contacts/v1/contact/?hapikey=962e8ce2-2314-4e7f-8dab-77b7f59c270c
Response exception:System.Net.HttpWebResponse
Error records:-{"validationResults":[{"isValid":false,"message":"Email address donco_borisov@yahoo.clm is invalid","error":"INVALID_EMAIL","name":"email"}],"status":"error","message":"Property values were not valid","correlationId":"5d9b5961-f481-4970-9c9e-1498048ded23"}
Error at count:-5
Record Exception:Object reference not set to an instance of an object.
Completed count:-5
Error at count:-6
URL:-https://api.hubapi.com/contacts/v1/contact/vid/{0}/profile?hapikey=962e8ce2-2314-4e7f-8dab-77b7f59c270c
URL:-https://api.hubapi.com/contacts/v1/contact/?hapikey=962e8ce2-2314-4e7f-8dab-77b7f59c270c
Response exception:System.Net.HttpWebResponse
Error records:-{"validationResults":[{"isValid":false,"message":"Paypal was not one of the allowed options: [label: \"PayPal\"\nvalue: \"PayPal\"\ndisplay_order: 0\ndouble_data: 0.0\nhidden: false\ndescription: \"\"\nread_only: false\n, label: \"Paysafe\"\nvalue: \"Paysafe\"\ndisplay_order: 1\ndouble_data: 0.0\nhidden: false\ndescription: \"\"\nread_only: false\n, label: \"Others\"\nvalue: \"Others\"\ndisplay_order: 2\ndouble_data: 0.0\nhidden: false\ndescription: \"\"\nread_only: false\n, label: \"Credit/Debit card \"\nvalue: \"Credit/Debit card\"\ndisplay_order: 3\ndouble_data: 0.0\nhidden: false\ndescription: \"\"\nread_only: false\n, label: \"RealX\"\nvalue: \"RealX\"\ndisplay_order: 4\ndouble_data: 0.0\nhidden: false\ndescription: \"\"\nread_only: false\n]","error":"INVALID_OPTION","name":"latest_topup_payment_method_used"}],"status":"error","message":"Property values were not valid","correlationId":"3ea7776c-ad52-4c30-a15e-1b68a729bf19"}
Error at count:-6
Record Exception:Object reference not set to an instance of an object.
Completed count:-6
Error at count:-7
URL:-https://api.hubapi.com/contacts/v1/contact/vid/{0}/profile?hapikey=962e8ce2-2314-4e7f-8dab-77b7f59c270c
URL:-https://api.hubapi.com/contacts/v1/contact/?hapikey=962e8ce2-2314-4e7f-8dab-77b7f59c270c
Response exception:System.Net.HttpWebResponse
Error records:-{"validationResults":[{"isValid":false,"message":"Paypal was not one of the allowed options: [label: \"PayPal\"\nvalue: \"PayPal\"\ndisplay_order: 0\ndouble_data: 0.0\nhidden: false\ndescription: \"\"\nread_only: false\n, label: \"Paysafe\"\nvalue: \"Paysafe\"\ndisplay_order: 1\ndouble_data: 0.0\nhidden: false\ndescription: \"\"\nread_only: false\n, label: \"Others\"\nvalue: \"Others\"\ndisplay_order: 2\ndouble_data: 0.0\nhidden: false\ndescription: \"\"\nread_only: false\n, label: \"Credit/Debit card \"\nvalue: \"Credit/Debit card\"\ndisplay_order: 3\ndouble_data: 0.0\nhidden: false\ndescription: \"\"\nread_only: false\n, label: \"RealX\"\nvalue: \"RealX\"\ndisplay_order: 4\ndouble_data: 0.0\nhidden: false\ndescription: \"\"\nread_only: false\n]","error":"INVALID_OPTION","name":"latest_topup_payment_method_used"}],"status":"error","message":"Property values were not valid","correlationId":"0801439d-fe98-461b-85f6-e0cbab29277b"}
Error at count:-7
Record Exception:Object reference not set to an instance of an object.
Completed count:-7
Error at count:-8
URL:-https://api.hubapi.com/contacts/v1/contact/vid/62876885/profile?hapikey=962e8ce2-2314-4e7f-8dab-77b7f59c270c
URL:-https://api.hubapi.com/contacts/v1/contact/?hapikey=962e8ce2-2314-4e7f-8dab-77b7f59c270c
Response exception:System.Net.HttpWebResponse
Error records:-{"validationResults":[{"isValid":false,"message":"Paypal was not one of the allowed options: [label: \"PayPal\"\nvalue: \"PayPal\"\ndisplay_order: 0\ndouble_data: 0.0\nhidden: false\ndescription: \"\"\nread_only: false\n, label: \"Paysafe\"\nvalue: \"Paysafe\"\ndisplay_order: 1\ndouble_data: 0.0\nhidden: false\ndescription: \"\"\nread_only: false\n, label: \"Others\"\nvalue: \"Others\"\ndisplay_order: 2\ndouble_data: 0.0\nhidden: false\ndescription: \"\"\nread_only: false\n, label: \"Credit/Debit card \"\nvalue: \"Credit/Debit card\"\ndisplay_order: 3\ndouble_data: 0.0\nhidden: false\ndescription: \"\"\nread_only: false\n, label: \"RealX\"\nvalue: \"RealX\"\ndisplay_order: 4\ndouble_data: 0.0\nhidden: false\ndescription: \"\"\nread_only: false\n]","error":"INVALID_OPTION","name":"latest_topup_payment_method_used"}],"status":"error","message":"Property values were not valid","correlationId":"fbd96bb4-097a-4ba4-b3dd-fb18c7053c35"}
Error at count:-8
Record Exception:Object reference not set to an instance of an object.
Completed count:-8
Completed count:-9
Completed count:-10
Completed count:-11
Completed count:-12
Completed count:-13
Completed count:-14
Completed count:-15
Completed count:-16
Completed count:-17
Completed count:-18
Completed count:-19
Completed count:-20
Completed count:-21
Completed count:-22
Completed count:-23
Completed count:-24
Completed count:-25
Completed count:-26
Completed count:-27
Completed count:-28
Completed count:-29
Completed count:-30
Completed count:-31
Completed count:-32
Completed count:-33
Completed count:-34
Completed count:-35
Completed count:-36
Completed count:-37
Completed count:-38
Completed count:-39
Completed count:-40
Completed count:-41
Completed count:-42
Completed count:-43
Completed count:-44
Completed count:-45
Completed count:-46
Completed count:-47
Completed count:-48
Completed count:-49
Completed count:-50
Completed count:-51
Completed count:-52
Completed count:-53
Completed count:-54
Completed count:-55
Completed count:-56
Completed count:-57
Completed count:-58
Completed count:-59
Completed count:-60
Completed count:-61
Completed count:-62
Completed count:-63
Completed count:-64
Completed count:-65
Completed count:-66
Completed count:-67
Completed count:-68
Completed count:-69
Completed count:-70
Completed count:-71
Completed count:-72
Completed count:-73
Completed count:-74
Completed count:-75
Completed count:-76
Completed count:-77
Completed count:-78
Completed count:-79
Completed count:-80
Completed count:-81
Completed count:-82
Completed count:-83
Completed count:-84
Completed count:-85
Completed count:-86
Completed count:-87
Completed count:-88
Completed count:-89
Completed count:-90
Completed count:-91
Completed count:-92
Completed count:-93
Completed count:-94
Completed count:-95
Completed count:-96
Completed count:-97
Completed count:-98
Completed count:-99
End..08-09-2020 21:37:35
Start..08-09-2020 21:37:38
Count..100
Error at count:-0
URL:-https://api.hubapi.com/contacts/v1/contact/vid/63961249/profile?hapikey=962e8ce2-2314-4e7f-8dab-77b7f59c270c
URL:-https://api.hubapi.com/contacts/v1/contact/?hapikey=962e8ce2-2314-4e7f-8dab-77b7f59c270c
Response exception:System.Net.HttpWebResponse
