Start..08-09-2020 20:39:23
Count..100
Error at count:-0
URL:-https://api.hubapi.com/contacts/v1/contact/vid/62965675/profile?hapikey=962e8ce2-2314-4e7f-8dab-77b7f59c270c
URL:-https://api.hubapi.com/contacts/v1/contact/?hapikey=962e8ce2-2314-4e7f-8dab-77b7f59c270c
Response exception:System.Net.HttpWebResponse
Error records:-{"validationResults":[{"isValid":false,"message":"Other Campaigns was not one of the allowed options: [label: \"Organic Search\"\nvalue: \"ORGANIC_SEARCH\"\ndisplay_order: 0\ndouble_data: 0.0\nhidden: false\ndescription: \"\"\nread_only: false\n, label: \"Paid Search\"\nvalue: \"PAID_SEARCH\"\ndisplay_order: 1\ndouble_data: 0.0\nhidden: false\ndescription: \"\"\nread_only: false\n, label: \"Email Marketing\"\nvalue: \"EMAIL_MARKETING\"\ndisplay_order: 2\ndouble_data: 0.0\nhidden: false\ndescription: \"\"\nread_only: false\n, label: \"Social Media\"\nvalue: \"SOCIAL_MEDIA\"\ndisplay_order: 3\ndouble_data: 0.0\nhidden: false\ndescription: \"\"\nread_only: false\n, label: \"Referrals\"\nvalue: \"REFERRALS\"\ndisplay_order: 4\ndouble_data: 0.0\nhidden: false\ndescription: \"\"\nread_only: false\n, label: \"Other Campaigns\"\nvalue: \"OTHER_CAMPAIGNS\"\ndisplay_order: 5\ndouble_data: 0.0\nhidden: false\ndescription: \"\"\nread_only: false\n, label: \"Direct Traffic\"\nvalue: \"DIRECT_TRAFFIC\"\ndisplay_order: 6\ndouble_data: 0.0\nhidden: false\ndescription: \"\"\nread_only: false\n, label: \"Offline Sources\"\nvalue: \"OFFLINE\"\ndisplay_order: 7\ndouble_data: 0.0\nhidden: false\ndescription: \"\"\nread_only: false\n, label: \"Paid Social\"\nvalue: \"PAID_SOCIAL\"\ndisplay_order: 8\ndouble_data: 0.0\nhidden: false\ndescription: \"\"\nread_only: false\n]","error":"INVALID_OPTION","name":"hs_analytics_source"},{"isValid":false,"message":"YES was not one of the allowed options: [label: \"Yes\"\nvalue: \"Yes\"\ndisplay_order: 0\ndouble_data: 0.0\nhidden: false\ndescription: \"\"\nread_only: false\n, label: \"No\"\nvalue: \"No\"\ndisplay_order: 1\ndouble_data: 0.0\nhidden: false\ndescription: \"\"\nread_only: false\n]","error":"INVALID_OPTION","name":"has_active_national_bundle"}],"status":"error","message":"Property values were not valid","correlationId":"ff9bcc0e-f99e-4dd5-928a-00e2e61efdbe"}
Error at count:-0
Record Exception:Object reference not set to an instance of an object.
Completed count:-0
Error at count:-1
URL:-https://api.hubapi.com/contacts/v1/contact/vid/62882581/profile?hapikey=962e8ce2-2314-4e7f-8dab-77b7f59c270c
URL:-https://api.hubapi.com/contacts/v1/contact/?hapikey=962e8ce2-2314-4e7f-8dab-77b7f59c270c
Response exception:System.Net.HttpWebResponse
Error records:-{"validationResults":[{"isValid":false,"message":"Other Campaigns was not one of the allowed options: [label: \"Organic Search\"\nvalue: \"ORGANIC_SEARCH\"\ndisplay_order: 0\ndouble_data: 0.0\nhidden: false\ndescription: \"\"\nread_only: false\n, label: \"Paid Search\"\nvalue: \"PAID_SEARCH\"\ndisplay_order: 1\ndouble_data: 0.0\nhidden: false\ndescription: \"\"\nread_only: false\n, label: \"Email Marketing\"\nvalue: \"EMAIL_MARKETING\"\ndisplay_order: 2\ndouble_data: 0.0\nhidden: false\ndescription: \"\"\nread_only: false\n, label: \"Social Media\"\nvalue: \"SOCIAL_MEDIA\"\ndisplay_order: 3\ndouble_data: 0.0\nhidden: false\ndescription: \"\"\nread_only: false\n, label: \"Referrals\"\nvalue: \"REFERRALS\"\ndisplay_order: 4\ndouble_data: 0.0\nhidden: false\ndescription: \"\"\nread_only: false\n, label: \"Other Campaigns\"\nvalue: \"OTHER_CAMPAIGNS\"\ndisplay_order: 5\ndouble_data: 0.0\nhidden: false\ndescription: \"\"\nread_only: false\n, label: \"Direct Traffic\"\nvalue: \"DIRECT_TRAFFIC\"\ndisplay_order: 6\ndouble_data: 0.0\nhidden: false\ndescription: \"\"\nread_only: false\n, label: \"Offline Sources\"\nvalue: \"OFFLINE\"\ndisplay_order: 7\ndouble_data: 0.0\nhidden: false\ndescription: \"\"\nread_only: false\n, label: \"Paid Social\"\nvalue: \"PAID_SOCIAL\"\ndisplay_order: 8\ndouble_data: 0.0\nhidden: false\ndescription: \"\"\nread_only: false\n]","error":"INVALID_OPTION","name":"hs_analytics_source"},{"isValid":false,"message":"Email address   is invalid","error":"INVALID_EMAIL","name":"email"}],"status":"error","message":"Property values were not valid","correlationId":"653ef570-6350-4dde-a3b2-9192c20e8ef3"}
Error at count:-1
Record Exception:Object reference not set to an instance of an object.
Completed count:-1
Error at count:-2
URL:-https://api.hubapi.com/contacts/v1/contact/vid/62880412/profile?hapikey=962e8ce2-2314-4e7f-8dab-77b7f59c270c
URL:-https://api.hubapi.com/contacts/v1/contact/?hapikey=962e8ce2-2314-4e7f-8dab-77b7f59c270c
Response exception:System.Net.HttpWebResponse
Error records:-{"validationResults":[{"isValid":false,"message":"Other Campaigns was not one of the allowed options: [label: \"Organic Search\"\nvalue: \"ORGANIC_SEARCH\"\ndisplay_order: 0\ndouble_data: 0.0\nhidden: false\ndescription: \"\"\nread_only: false\n, label: \"Paid Search\"\nvalue: \"PAID_SEARCH\"\ndisplay_order: 1\ndouble_data: 0.0\nhidden: false\ndescription: \"\"\nread_only: false\n, label: \"Email Marketing\"\nvalue: \"EMAIL_MARKETING\"\ndisplay_order: 2\ndouble_data: 0.0\nhidden: false\ndescription: \"\"\nread_only: false\n, label: \"Social Media\"\nvalue: \"SOCIAL_MEDIA\"\ndisplay_order: 3\ndouble_data: 0.0\nhidden: false\ndescription: \"\"\nread_only: false\n, label: \"Referrals\"\nvalue: \"REFERRALS\"\ndisplay_order: 4\ndouble_data: 0.0\nhidden: false\ndescription: \"\"\nread_only: false\n, label: \"Other Campaigns\"\nvalue: \"OTHER_CAMPAIGNS\"\ndisplay_order: 5\ndouble_data: 0.0\nhidden: false\ndescription: \"\"\nread_only: false\n, label: \"Direct Traffic\"\nvalue: \"DIRECT_TRAFFIC\"\ndisplay_order: 6\ndouble_data: 0.0\nhidden: false\ndescription: \"\"\nread_only: false\n, label: \"Offline Sources\"\nvalue: \"OFFLINE\"\ndisplay_order: 7\ndouble_data: 0.0\nhidden: false\ndescription: \"\"\nread_only: false\n, label: \"Paid Social\"\nvalue: \"PAID_SOCIAL\"\ndisplay_order: 8\ndouble_data: 0.0\nhidden: false\ndescription: \"\"\nread_only: false\n]","error":"INVALID_OPTION","name":"hs_analytics_source"},{"isValid":false,"message":"topup was not one of the allowed options: [label: \"Topup\"\nvalue: \"Topup\"\ndisplay_order: 0\ndouble_data: 0.0\nhidden: false\ndescription: \"\"\nread_only: false\n, label: \"Quick topup\"\nvalue: \"Quick topup\"\ndisplay_order: 1\ndouble_data: 0.0\nhidden: false\ndescription: \"\"\nread_only: false\n, label: \"Auto Topup\"\nvalue: \"Auto Topup\"\ndisplay_order: 2\ndouble_data: 0.0\nhidden: false\ndescription: \"\"\nread_only: false\n, label: \"Voucher\"\nvalue: \"Voucher\"\ndisplay_order: 3\ndouble_data: 0.0\nhidden: false\ndescription: \"\"\nread_only: false\n, label: \"Online topup\"\nvalue: \"Online topup\"\ndisplay_order: 4\ndouble_data: 0.0\nhidden: false\ndescription: \"\"\nread_only: false\n]","error":"INVALID_OPTION","name":"latest_topup_type"}],"status":"error","message":"Property values were not valid","correlationId":"2013c99f-6ffa-4a3c-909c-717a87bad252"}
Error at count:-2
Record Exception:Object reference not set to an instance of an object.
Completed count:-2
Error at count:-3
URL:-https://api.hubapi.com/contacts/v1/contact/vid/62864184/profile?hapikey=962e8ce2-2314-4e7f-8dab-77b7f59c270c
URL:-https://api.hubapi.com/contacts/v1/contact/?hapikey=962e8ce2-2314-4e7f-8dab-77b7f59c270c
Response exception:System.Net.HttpWebResponse
Error records:-{"validationResults":[{"isValid":false,"message":"Other Campaigns was not one of the allowed options: [label: \"Organic Search\"\nvalue: \"ORGANIC_SEARCH\"\ndisplay_order: 0\ndouble_data: 0.0\nhidden: false\ndescription: \"\"\nread_only: false\n, label: \"Paid Search\"\nvalue: \"PAID_SEARCH\"\ndisplay_order: 1\ndouble_data: 0.0\nhidden: false\ndescription: \"\"\nread_only: false\n, label: \"Email Marketing\"\nvalue: \"EMAIL_MARKETING\"\ndisplay_order: 2\ndouble_data: 0.0\nhidden: false\ndescription: \"\"\nread_only: false\n, label: \"Social Media\"\nvalue: \"SOCIAL_MEDIA\"\ndisplay_order: 3\ndouble_data: 0.0\nhidden: false\ndescription: \"\"\nread_only: false\n, label: \"Referrals\"\nvalue: \"REFERRALS\"\ndisplay_order: 4\ndouble_data: 0.0\nhidden: false\ndescription: \"\"\nread_only: false\n, label: \"Other Campaigns\"\nvalue: \"OTHER_CAMPAIGNS\"\ndisplay_order: 5\ndouble_data: 0.0\nhidden: false\ndescription: \"\"\nread_only: false\n, label: \"Direct Traffic\"\nvalue: \"DIRECT_TRAFFIC\"\ndisplay_order: 6\ndouble_data: 0.0\nhidden: false\ndescription: \"\"\nread_only: false\n, label: \"Offline Sources\"\nvalue: \"OFFLINE\"\ndisplay_order: 7\ndouble_data: 0.0\nhidden: false\ndescription: \"\"\nread_only: false\n, label: \"Paid Social\"\nvalue: \"PAID_SOCIAL\"\ndisplay_order: 8\ndouble_data: 0.0\nhidden: false\ndescription: \"\"\nread_only: false\n]","error":"INVALID_OPTION","name":"hs_analytics_source"},{"isValid":false,"message":"topup was not one of the allowed options: [label: \"Topup\"\nvalue: \"Topup\"\ndisplay_order: 0\ndouble_data: 0.0\nhidden: false\ndescription: \"\"\nread_only: false\n, label: \"Quick topup\"\nvalue: \"Quick topup\"\ndisplay_order: 1\ndouble_data: 0.0\nhidden: false\ndescription: \"\"\nread_only: false\n, label: \"Auto Topup\"\nvalue: \"Auto Topup\"\ndisplay_order: 2\ndouble_data: 0.0\nhidden: false\ndescription: \"\"\nread_only: false\n, label: \"Voucher\"\nvalue: \"Voucher\"\ndisplay_order: 3\ndouble_data: 0.0\nhidden: false\ndescription: \"\"\nread_only: false\n, label: \"Online topup\"\nvalue: \"Online topup\"\ndisplay_order: 4\ndouble_data: 0.0\nhidden: false\ndescription: \"\"\nread_only: false\n]","error":"INVALID_OPTION","name":"latest_topup_type"},{"isValid":false,"message":"Online Topup was not one of the allowed options: [label: \"Online\"\nvalue: \"Online\"\ndisplay_order: 0\ndouble_data: 0.0\nhidden: false\ndescription: \"\"\nread_only: false\n, label: \"Evoucher\"\nvalue: \"Evoucher\"\ndisplay_order: 1\ndouble_data: 0.0\nhidden: false\ndescription: \"\"\nread_only: false\n, label: \"Physical voucher\"\nvalue: \"Physical voucher\"\ndisplay_order: 2\ndouble_data: 0.0\nhidden: false\ndescription: \"\"\nread_only: false\n, label: \"Operator topup\"\nvalue: \"Operator topup\"\ndisplay_order: 3\ndouble_data: 0.0\nhidden: false\ndescription: \"\"\nread_only: false\n]","error":"INVALID_OPTION","name":"first_topup_method_used"}],"status":"error","message":"Property values were not valid","correlationId":"c0d4d3b3-bf15-46b3-a70b-492278fc3def"}
Error at count:-3
Record Exception:Object reference not set to an instance of an object.
Completed count:-3
Error at count:-4
URL:-https://api.hubapi.com/contacts/v1/contact/vid/63952563/profile?hapikey=962e8ce2-2314-4e7f-8dab-77b7f59c270c
URL:-https://api.hubapi.com/contacts/v1/contact/?hapikey=962e8ce2-2314-4e7f-8dab-77b7f59c270c
Response exception:System.Net.HttpWebResponse
Error records:-{"validationResults":[{"isValid":false,"message":"Other Campaigns was not one of the allowed options: [label: \"Organic Search\"\nvalue: \"ORGANIC_SEARCH\"\ndisplay_order: 0\ndouble_data: 0.0\nhidden: false\ndescription: \"\"\nread_only: false\n, label: \"Paid Search\"\nvalue: \"PAID_SEARCH\"\ndisplay_order: 1\ndouble_data: 0.0\nhidden: false\ndescription: \"\"\nread_only: false\n, label: \"Email Marketing\"\nvalue: \"EMAIL_MARKETING\"\ndisplay_order: 2\ndouble_data: 0.0\nhidden: false\ndescription: \"\"\nread_only: false\n, label: \"Social Media\"\nvalue: \"SOCIAL_MEDIA\"\ndisplay_order: 3\ndouble_data: 0.0\nhidden: false\ndescription: \"\"\nread_only: false\n, label: \"Referrals\"\nvalue: \"REFERRALS\"\ndisplay_order: 4\ndouble_data: 0.0\nhidden: false\ndescription: \"\"\nread_only: false\n, label: \"Other Campaigns\"\nvalue: \"OTHER_CAMPAIGNS\"\ndisplay_order: 5\ndouble_data: 0.0\nhidden: false\ndescription: \"\"\nread_only: false\n, label: \"Direct Traffic\"\nvalue: \"DIRECT_TRAFFIC\"\ndisplay_order: 6\ndouble_data: 0.0\nhidden: false\ndescription: \"\"\nread_only: false\n, label: \"Offline Sources\"\nvalue: \"OFFLINE\"\ndisplay_order: 7\ndouble_data: 0.0\nhidden: false\ndescription: \"\"\nread_only: false\n, label: \"Paid Social\"\nvalue: \"PAID_SOCIAL\"\ndisplay_order: 8\ndouble_data: 0.0\nhidden: false\ndescription: \"\"\nread_only: false\n]","error":"INVALID_OPTION","name":"hs_analytics_source"},{"isValid":false,"message":"topup was not one of the allowed options: [label: \"Topup\"\nvalue: \"Topup\"\ndisplay_order: 0\ndouble_data: 0.0\nhidden: false\ndescription: \"\"\nread_only: false\n, label: \"Quick topup\"\nvalue: \"Quick topup\"\ndisplay_order: 1\ndouble_data: 0.0\nhidden: false\ndescription: \"\"\nread_only: false\n, label: \"Auto Topup\"\nvalue: \"Auto Topup\"\ndisplay_order: 2\ndouble_data: 0.0\nhidden: false\ndescription: \"\"\nread_only: false\n, label: \"Voucher\"\nvalue: \"Voucher\"\ndisplay_order: 3\ndouble_data: 0.0\nhidden: false\ndescription: \"\"\nread_only: false\n, label: \"Online topup\"\nvalue: \"Online topup\"\ndisplay_order: 4\ndouble_data: 0.0\nhidden: false\ndescription: \"\"\nread_only: false\n]","error":"INVALID_OPTION","name":"latest_topup_type"}],"status":"error","message":"Property values were not valid","correlationId":"d919004e-61d2-4b76-a81e-524fa25a1603"}
Error at count:-4
Record Exception:Object reference not set to an instance of an object.
Completed count:-4
Error at count:-5
URL:-https://api.hubapi.com/contacts/v1/contact/vid/62883366/profile?hapikey=962e8ce2-2314-4e7f-8dab-77b7f59c270c
URL:-https://api.hubapi.com/contacts/v1/contact/?hapikey=962e8ce2-2314-4e7f-8dab-77b7f59c270c
Response exception:System.Net.HttpWebResponse
Start..08-09-2020 20:53:14
Count..100
Error at count:-0
URL:-https://api.hubapi.com/contacts/v1/contact/vid/62965675/profile?hapikey=962e8ce2-2314-4e7f-8dab-77b7f59c270c
URL:-https://api.hubapi.com/contacts/v1/contact/?hapikey=962e8ce2-2314-4e7f-8dab-77b7f59c270c
Response exception:System.Net.HttpWebResponse
Start..08-09-2020 20:58:08
Start..08-09-2020 21:00:11
Start..08-09-2020 21:03:54
Count..100
Completed count:-0
Error at count:-1
URL:-https://api.hubapi.com/contacts/v1/contact/vid/62882581/profile?hapikey=962e8ce2-2314-4e7f-8dab-77b7f59c270c
URL:-https://api.hubapi.com/contacts/v1/contact/?hapikey=962e8ce2-2314-4e7f-8dab-77b7f59c270c
Response exception:System.Net.HttpWebResponse
Error records:-{"validationResults":[{"isValid":false,"message":"Email address   is invalid","error":"INVALID_EMAIL","name":"email"}],"status":"error","message":"Property values were not valid","correlationId":"e85f65b4-7324-4bb1-a701-6c2bfb98a323"}
Start..08-09-2020 21:05:44
Count..100
Error at count:-0
URL:-https://api.hubapi.com/contacts/v1/contact/vid/62882581/profile?hapikey=962e8ce2-2314-4e7f-8dab-77b7f59c270c
URL:-https://api.hubapi.com/contacts/v1/contact/?hapikey=962e8ce2-2314-4e7f-8dab-77b7f59c270c
Response exception:System.Net.HttpWebResponse
Error records:-{"validationResults":[{"isValid":false,"message":"Email address   is invalid","error":"INVALID_EMAIL","name":"email"}],"status":"error","message":"Property values were not valid","correlationId":"b9b0e297-4e1b-47b0-98a5-60252bfb9d04"}
Start..08-09-2020 21:06:44
Count..100
Start..08-09-2020 21:08:30
Count..100
Completed count:-0
Error at count:-1
URL:-https://api.hubapi.com/contacts/v1/contact/vid/62880412/profile?hapikey=962e8ce2-2314-4e7f-8dab-77b7f59c270c
URL:-https://api.hubapi.com/contacts/v1/contact/?hapikey=962e8ce2-2314-4e7f-8dab-77b7f59c270c
Response exception:System.Net.HttpWebResponse
Error records:-{"validationResults":[{"isValid":false,"message":"topup was not one of the allowed options: [label: \"Topup\"\nvalue: \"Topup\"\ndisplay_order: 0\ndouble_data: 0.0\nhidden: false\ndescription: \"\"\nread_only: false\n, label: \"Quick topup\"\nvalue: \"Quick topup\"\ndisplay_order: 1\ndouble_data: 0.0\nhidden: false\ndescription: \"\"\nread_only: false\n, label: \"Auto Topup\"\nvalue: \"Auto Topup\"\ndisplay_order: 2\ndouble_data: 0.0\nhidden: false\ndescription: \"\"\nread_only: false\n, label: \"Voucher\"\nvalue: \"Voucher\"\ndisplay_order: 3\ndouble_data: 0.0\nhidden: false\ndescription: \"\"\nread_only: false\n, label: \"Online topup\"\nvalue: \"Online topup\"\ndisplay_order: 4\ndouble_data: 0.0\nhidden: false\ndescription: \"\"\nread_only: false\n]","error":"INVALID_OPTION","name":"latest_topup_type"}],"status":"error","message":"Property values were not valid","correlationId":"af0ec5d7-1dcb-4939-85ec-73a06b394058"}
Error at count:-1
Record Exception:Object reference not set to an instance of an object.
Completed count:-1
Error at count:-2
URL:-https://api.hubapi.com/contacts/v1/contact/vid/62864184/profile?hapikey=962e8ce2-2314-4e7f-8dab-77b7f59c270c
URL:-https://api.hubapi.com/contacts/v1/contact/?hapikey=962e8ce2-2314-4e7f-8dab-77b7f59c270c
Response exception:System.Net.HttpWebResponse
Start..08-09-2020 21:24:22
Count..100
Completed count:-0
Completed count:-1
Completed count:-2
