Completed count:-1183
Completed count:-1184
Completed count:-1185
Completed count:-1186
Completed count:-1187
Error at count:-1188
URL:-https://api.hubapi.com/contacts/v1/contact/vid/{0}/profile?hapikey=962e8ce2-2314-4e7f-8dab-77b7f59c270c
URL:-https://api.hubapi.com/contacts/v1/contact/?hapikey=962e8ce2-2314-4e7f-8dab-77b7f59c270c
Response exception:System.Net.HttpWebResponse
Error records:-{"message":"Contact already exists","identityProfile":{"vid":62970675,"identity":[{"value":"nisatahmed2003@gmail.com","type":"EMAIL","timestamp":1593883000682,"isPrimary":true},{"value":"5723bf8d-c861-4cff-ae3d-250036651a8d","type":"LEAD_GUID","timestamp":1593883000691}],"linkedVid":[],"isContact":true,"savedAtTimestamp":1593883000694},"errors":[{"message":"A contact with email nisatahmed2003@gmail.com already exists.","in":"email"}],"status":"error","correlationId":"4ef92b29-d53d-4360-a7ea-134568e55ad0","category":"OBJECT_ALREADY_EXISTS","error":"CONTACT_EXISTS"}
Completed count:-1188
Completed count:-1189
Error at count:-1190
URL:-https://api.hubapi.com/contacts/v1/contact/vid/{0}/profile?hapikey=962e8ce2-2314-4e7f-8dab-77b7f59c270c
URL:-https://api.hubapi.com/contacts/v1/contact/?hapikey=962e8ce2-2314-4e7f-8dab-77b7f59c270c
Response exception:System.Net.HttpWebResponse
Error records:-{"message":"Contact already exists","identityProfile":{"vid":62881596,"identity":[{"value":"f1327be2-e05e-49fa-bb22-77ff327d1b6a","type":"LEAD_GUID","timestamp":1593882940780},{"value":"rolandzukas@gmail.com","type":"EMAIL","timestamp":1599661640868,"isPrimary":true}],"linkedVid":[],"isContact":true,"savedAtTimestamp":1599661640940},"errors":[{"message":"A contact with email rolandzukas@gmail.com already exists.","in":"email"}],"status":"error","correlationId":"33f32314-cd28-4d55-9d2d-640a3d0bfcef","category":"OBJECT_ALREADY_EXISTS","error":"CONTACT_EXISTS"}
Completed count:-1190
Error at count:-1191
URL:-https://api.hubapi.com/contacts/v1/contact/vid/{0}/profile?hapikey=962e8ce2-2314-4e7f-8dab-77b7f59c270c
URL:-https://api.hubapi.com/contacts/v1/contact/?hapikey=962e8ce2-2314-4e7f-8dab-77b7f59c270c
Response exception:System.Net.HttpWebResponse
Error records:-{"message":"Contact already exists","identityProfile":{"vid":62819940,"identity":[{"value":"cf8b344b-5182-4ee1-bfd1-e59c07ea0aa2","type":"LEAD_GUID","timestamp":1593882904473},{"value":"tolstovsd@gmail.com","type":"EMAIL","timestamp":1599593429599,"isPrimary":true}],"linkedVid":[],"isContact":true,"savedAtTimestamp":1599593429642},"errors":[{"message":"A contact with email tolstovsd@gmail.com already exists.","in":"email"}],"status":"error","correlationId":"f39bd0cb-e3a7-401e-829b-96cc25d73e1a","category":"OBJECT_ALREADY_EXISTS","error":"CONTACT_EXISTS"}
Completed count:-1191
Completed count:-1192
Error at count:-1193
URL:-https://api.hubapi.com/contacts/v1/contact/vid/{0}/profile?hapikey=962e8ce2-2314-4e7f-8dab-77b7f59c270c
URL:-https://api.hubapi.com/contacts/v1/contact/?hapikey=962e8ce2-2314-4e7f-8dab-77b7f59c270c
Response exception:System.Net.HttpWebResponse
Error records:-{"message":"Contact already exists","identityProfile":{"vid":62825262,"identity":[{"value":"edzia83@spoko.pl","type":"EMAIL","timestamp":1593882908460,"isPrimary":true},{"value":"dee100de-fc29-4230-8e28-12bcc53570c4","type":"LEAD_GUID","timestamp":1593882908474}],"linkedVid":[],"isContact":true,"savedAtTimestamp":1593882908476},"errors":[{"message":"A contact with email edzia83@spoko.pl already exists.","in":"email"}],"status":"error","correlationId":"574446a7-7622-48d9-a674-04d6d1acf474","category":"OBJECT_ALREADY_EXISTS","error":"CONTACT_EXISTS"}
Completed count:-1193
Completed count:-1194
Error at count:-1195
URL:-https://api.hubapi.com/contacts/v1/contact/vid/{0}/profile?hapikey=962e8ce2-2314-4e7f-8dab-77b7f59c270c
URL:-https://api.hubapi.com/contacts/v1/contact/?hapikey=962e8ce2-2314-4e7f-8dab-77b7f59c270c
Response exception:System.Net.HttpWebResponse
Error records:-{"message":"Contact already exists","identityProfile":{"vid":63959551,"identity":[{"value":"95490c9e-1aa7-4f13-9642-95ba74ea3a3b","type":"LEAD_GUID","timestamp":1594132387430},{"value":"rednwhite44@gmail.com","type":"EMAIL","timestamp":1598887124383,"isPrimary":true}],"linkedVid":[],"isContact":true,"createdWithoutEmail":true,"savedAtTimestamp":1598887124412,"promotedToContact":true},"errors":[{"message":"A contact with email rednwhite44@gmail.com already exists.","in":"email"}],"status":"error","correlationId":"9bb0ff71-f95d-4b2c-90ee-f480ccd8fcb9","category":"OBJECT_ALREADY_EXISTS","error":"CONTACT_EXISTS"}
Completed count:-1195
Error at count:-1196
URL:-https://api.hubapi.com/contacts/v1/contact/vid/{0}/profile?hapikey=962e8ce2-2314-4e7f-8dab-77b7f59c270c
URL:-https://api.hubapi.com/contacts/v1/contact/?hapikey=962e8ce2-2314-4e7f-8dab-77b7f59c270c
Response exception:System.Net.HttpWebResponse
Error records:-{"message":"Contact already exists","identityProfile":{"vid":62976911,"identity":[{"value":"d.bhudia@hotmail.com","type":"EMAIL","timestamp":1593883015772,"isPrimary":true},{"value":"ef69a3cb-5246-481d-bf9d-00cf84447181","type":"LEAD_GUID","timestamp":1593883015784}],"linkedVid":[],"isContact":true,"savedAtTimestamp":1593883015786},"errors":[{"message":"A contact with email d.bhudia@hotmail.com already exists.","in":"email"}],"status":"error","correlationId":"0dc45863-692e-4bc8-b120-a0ed460caaf2","category":"OBJECT_ALREADY_EXISTS","error":"CONTACT_EXISTS"}
Completed count:-1196
Completed count:-1197
Completed count:-1198
Error at count:-1199
URL:-https://api.hubapi.com/contacts/v1/contact/vid/{0}/profile?hapikey=962e8ce2-2314-4e7f-8dab-77b7f59c270c
URL:-https://api.hubapi.com/contacts/v1/contact/?hapikey=962e8ce2-2314-4e7f-8dab-77b7f59c270c
Response exception:System.Net.HttpWebResponse
Error records:-{"message":"Contact already exists","identityProfile":{"vid":62973027,"identity":[{"value":"ppetrova42@gmail.com","type":"EMAIL","timestamp":1593883004672,"isPrimary":true},{"value":"bfc27c17-f410-4971-9829-e21ab9a8aa79","type":"LEAD_GUID","timestamp":1593883004688}],"linkedVid":[],"isContact":true,"savedAtTimestamp":1593883004690},"errors":[{"message":"A contact with email ppetrova42@gmail.com already exists.","in":"email"}],"status":"error","correlationId":"6f190619-c79c-4f2c-a7e7-2c7028ce0bde","category":"OBJECT_ALREADY_EXISTS","error":"CONTACT_EXISTS"}
Completed count:-1199
Completed count:-1200
Completed count:-1201
Completed count:-1202
Completed count:-1203
Completed count:-1204
Completed count:-1205
Completed count:-1206
Completed count:-1207
Completed count:-1208
Error at count:-1209
URL:-https://api.hubapi.com/contacts/v1/contact/vid/{0}/profile?hapikey=962e8ce2-2314-4e7f-8dab-77b7f59c270c
URL:-https://api.hubapi.com/contacts/v1/contact/?hapikey=962e8ce2-2314-4e7f-8dab-77b7f59c270c
Response exception:System.Net.HttpWebResponse
Error records:-{"message":"Contact already exists","identityProfile":{"vid":440015,"identity":[{"value":"77442342-6cfa-4ba5-8168-3bcb4c8b8b93","type":"LEAD_GUID","timestamp":1576130878542}],"linkedVid":[1164451],"isContact":true,"savedAtTimestamp":1600454790511},"errors":[{"message":"A contact with email gery.84@vipmail.hu already exists.","in":"email"}],"status":"error","correlationId":"6c17bb24-21fe-4109-b220-accfa21f530c","category":"OBJECT_ALREADY_EXISTS","error":"CONTACT_EXISTS"}
Completed count:-1209
Error at count:-1210
URL:-https://api.hubapi.com/contacts/v1/contact/vid/{0}/profile?hapikey=962e8ce2-2314-4e7f-8dab-77b7f59c270c
URL:-https://api.hubapi.com/contacts/v1/contact/?hapikey=962e8ce2-2314-4e7f-8dab-77b7f59c270c
Response exception:System.Net.HttpWebResponse
Error records:-{"message":"Contact already exists","identityProfile":{"vid":62841295,"identity":[{"value":"71b7190f-1408-4397-9450-e77a88dea150","type":"LEAD_GUID","timestamp":1593882920426},{"value":"asia2133@wp.pl","type":"EMAIL","timestamp":1598887125615,"isPrimary":true}],"linkedVid":[],"isContact":true,"savedAtTimestamp":1598887125651},"errors":[{"message":"A contact with email asia2133@wp.pl already exists.","in":"email"}],"status":"error","correlationId":"7a444fb3-c387-40f9-a618-3a9eef06113d","category":"OBJECT_ALREADY_EXISTS","error":"CONTACT_EXISTS"}
Completed count:-1210
Completed count:-1211
Error at count:-1212
URL:-https://api.hubapi.com/contacts/v1/contact/vid/{0}/profile?hapikey=962e8ce2-2314-4e7f-8dab-77b7f59c270c
URL:-https://api.hubapi.com/contacts/v1/contact/?hapikey=962e8ce2-2314-4e7f-8dab-77b7f59c270c
Response exception:System.Net.HttpWebResponse
Error records:-{"message":"Contact already exists","identityProfile":{"vid":62970525,"identity":[{"value":"etno.ilona@gmail.com","type":"EMAIL","timestamp":1593883000840,"isPrimary":true},{"value":"46c69d58-8be3-4d93-ab77-71104ba05be9","type":"LEAD_GUID","timestamp":1593883000853}],"linkedVid":[64370812],"isContact":true,"savedAtTimestamp":1594201437495},"errors":[{"message":"A contact with email etno.ilona@gmail.com already exists.","in":"email"}],"status":"error","correlationId":"dee4a596-e06f-4a66-9161-f4c241fed9c2","category":"OBJECT_ALREADY_EXISTS","error":"CONTACT_EXISTS"}
Completed count:-1212
Completed count:-1213
Completed count:-1214
Completed count:-1215
Completed count:-1216
Completed count:-1217
Completed count:-1218
Completed count:-1219
Completed count:-1220
Completed count:-1221
Completed count:-1222
Error at count:-1223
URL:-https://api.hubapi.com/contacts/v1/contact/vid/{0}/profile?hapikey=962e8ce2-2314-4e7f-8dab-77b7f59c270c
URL:-https://api.hubapi.com/contacts/v1/contact/?hapikey=962e8ce2-2314-4e7f-8dab-77b7f59c270c
Response exception:System.Net.HttpWebResponse
Error records:-{"message":"Contact already exists","identityProfile":{"vid":62887914,"identity":[{"value":"zulf-0@hotmail.com","type":"EMAIL","timestamp":1593882951338,"isPrimary":true},{"value":"73cc5b6a-b5b2-46b7-b11e-3eb07f954bc5","type":"LEAD_GUID","timestamp":1593882951349}],"linkedVid":[],"isContact":true,"savedAtTimestamp":1593882951351},"errors":[{"message":"A contact with email zulf-0@hotmail.com already exists.","in":"email"}],"status":"error","correlationId":"f594b6a8-619b-4ae0-b6e2-0905908eed77","category":"OBJECT_ALREADY_EXISTS","error":"CONTACT_EXISTS"}
Completed count:-1223
Completed count:-1224
Completed count:-1225
Completed count:-1226
Error at count:-1227
URL:-https://api.hubapi.com/contacts/v1/contact/vid/{0}/profile?hapikey=962e8ce2-2314-4e7f-8dab-77b7f59c270c
URL:-https://api.hubapi.com/contacts/v1/contact/?hapikey=962e8ce2-2314-4e7f-8dab-77b7f59c270c
Response exception:System.Net.HttpWebResponse
Error records:-{"message":"Contact already exists","identityProfile":{"vid":62824901,"identity":[{"value":"naf4lyf_786@hotmail.com","type":"EMAIL","timestamp":1593882907580,"isPrimary":true},{"value":"67fa5337-9a54-4a42-87b8-8364280c0e02","type":"LEAD_GUID","timestamp":1593882907588}],"linkedVid":[],"isContact":true,"savedAtTimestamp":1593882907593},"errors":[{"message":"A contact with email naf4lyf_786@hotmail.com already exists.","in":"email"}],"status":"error","correlationId":"362560bc-d04d-4ab1-ae31-b7d24edde19d","category":"OBJECT_ALREADY_EXISTS","error":"CONTACT_EXISTS"}
Completed count:-1227
Error at count:-1228
URL:-https://api.hubapi.com/contacts/v1/contact/vid/{0}/profile?hapikey=962e8ce2-2314-4e7f-8dab-77b7f59c270c
URL:-https://api.hubapi.com/contacts/v1/contact/?hapikey=962e8ce2-2314-4e7f-8dab-77b7f59c270c
Response exception:System.Net.HttpWebResponse
Error records:-{"message":"Contact already exists","identityProfile":{"vid":5579051,"identity":[{"value":"jo.m@onet.pl","type":"EMAIL","timestamp":1578313567271,"isPrimary":true},{"value":"7115bd43-40a5-4771-a0de-87cb1107d4c7","type":"LEAD_GUID","timestamp":1578313567284}],"linkedVid":[],"isContact":true,"savedAtTimestamp":1578313567287},"errors":[{"message":"A contact with email jo.m@onet.pl already exists.","in":"email"}],"status":"error","correlationId":"c554fe5e-1fec-4484-bfef-45a74b44fb38","category":"OBJECT_ALREADY_EXISTS","error":"CONTACT_EXISTS"}
Completed count:-1228
Completed count:-1229
Error at count:-1230
URL:-https://api.hubapi.com/contacts/v1/contact/vid/{0}/profile?hapikey=962e8ce2-2314-4e7f-8dab-77b7f59c270c
URL:-https://api.hubapi.com/contacts/v1/contact/?hapikey=962e8ce2-2314-4e7f-8dab-77b7f59c270c
Response exception:System.Net.HttpWebResponse
Error records:-{"message":"Contact already exists","identityProfile":{"vid":63967380,"identity":[{"value":"6367c33a-394b-4f6f-a02d-81919495115d","type":"LEAD_GUID","timestamp":1594132391848},{"value":"jedowen@hotmail.co.uk","type":"EMAIL","timestamp":1598887126699,"isPrimary":true}],"linkedVid":[],"isContact":true,"savedAtTimestamp":1598887126750},"errors":[{"message":"A contact with email jedowen@hotmail.co.uk already exists.","in":"email"}],"status":"error","correlationId":"47b22e4e-d242-489f-8df0-7d010f58d8a4","category":"OBJECT_ALREADY_EXISTS","error":"CONTACT_EXISTS"}
Completed count:-1230
Completed count:-1231
Error at count:-1232
URL:-https://api.hubapi.com/contacts/v1/contact/vid/{0}/profile?hapikey=962e8ce2-2314-4e7f-8dab-77b7f59c270c
URL:-https://api.hubapi.com/contacts/v1/contact/?hapikey=962e8ce2-2314-4e7f-8dab-77b7f59c270c
Response exception:System.Net.HttpWebResponse
Error records:-{"message":"Contact already exists","identityProfile":{"vid":63958953,"identity":[{"value":"5f0fd97c-27c0-4f02-9817-fd1ce1947453","type":"LEAD_GUID","timestamp":1594132387551},{"value":"nadkan52@gmail.com","type":"EMAIL","timestamp":1599663078582,"isPrimary":true}],"linkedVid":[],"isContact":true,"createdWithoutEmail":true,"savedAtTimestamp":1599663078656,"promotedToContact":true},"errors":[{"message":"A contact with email nadkan52@gmail.com already exists.","in":"email"}],"status":"error","correlationId":"abe9814d-477e-4c72-82fe-1c8411e3e44f","category":"OBJECT_ALREADY_EXISTS","error":"CONTACT_EXISTS"}
Completed count:-1232
Error at count:-1233
URL:-https://api.hubapi.com/contacts/v1/contact/vid/{0}/profile?hapikey=962e8ce2-2314-4e7f-8dab-77b7f59c270c
URL:-https://api.hubapi.com/contacts/v1/contact/?hapikey=962e8ce2-2314-4e7f-8dab-77b7f59c270c
Response exception:System.Net.HttpWebResponse
Error records:-{"message":"Contact already exists","identityProfile":{"vid":72664751,"identity":[{"value":"harpreetsheera55@gmail.com","type":"EMAIL","timestamp":1596172226174,"isPrimary":true},{"value":"0f08b6a3-0804-484f-9a1d-8895820e4bfd","type":"LEAD_GUID","timestamp":1596172226200}],"linkedVid":[],"isContact":true,"savedAtTimestamp":1596172226204},"errors":[{"message":"A contact with email harpreetsheera55@gmail.com already exists.","in":"email"}],"status":"error","correlationId":"84c3e593-0bca-4a0e-b756-0505d4bbd095","category":"OBJECT_ALREADY_EXISTS","error":"CONTACT_EXISTS"}
Completed count:-1233
Error at count:-1234
URL:-https://api.hubapi.com/contacts/v1/contact/vid/{0}/profile?hapikey=962e8ce2-2314-4e7f-8dab-77b7f59c270c
URL:-https://api.hubapi.com/contacts/v1/contact/?hapikey=962e8ce2-2314-4e7f-8dab-77b7f59c270c
Response exception:System.Net.HttpWebResponse
Error records:-{"message":"Contact already exists","identityProfile":{"vid":62828240,"identity":[{"value":"badeadorin87@gmail.com","type":"EMAIL","timestamp":1593882911833,"isPrimary":true},{"value":"7ff14804-63e8-4d92-8aff-e69ab7d9e04b","type":"LEAD_GUID","timestamp":1593882911841}],"linkedVid":[],"isContact":true,"savedAtTimestamp":1593882911843},"errors":[{"message":"A contact with email badeadorin87@gmail.com already exists.","in":"email"}],"status":"error","correlationId":"354bd854-52ce-4051-826c-be8e3d957221","category":"OBJECT_ALREADY_EXISTS","error":"CONTACT_EXISTS"}
Completed count:-1234
Completed count:-1235
Completed count:-1236
Completed count:-1237
Completed count:-1238
Completed count:-1239
Completed count:-1240
Error at count:-1241
URL:-https://api.hubapi.com/contacts/v1/contact/vid/{0}/profile?hapikey=962e8ce2-2314-4e7f-8dab-77b7f59c270c
URL:-https://api.hubapi.com/contacts/v1/contact/?hapikey=962e8ce2-2314-4e7f-8dab-77b7f59c270c
Response exception:System.Net.HttpWebResponse
Error records:-{"message":"Contact already exists","identityProfile":{"vid":62300601,"identity":[{"value":"marc.prachi14@gmail.com","type":"EMAIL","timestamp":1593755827381,"isPrimary":true},{"value":"e4eec507-3003-474d-b233-5fe23fae04f2","type":"LEAD_GUID","timestamp":1593755827396}],"linkedVid":[],"isContact":true,"savedAtTimestamp":1593755827401},"errors":[{"message":"A contact with email marc.prachi14@gmail.com already exists.","in":"email"}],"status":"error","correlationId":"57227f6c-c650-49df-805c-4f6473adf2ca","category":"OBJECT_ALREADY_EXISTS","error":"CONTACT_EXISTS"}
Completed count:-1241
Error at count:-1242
URL:-https://api.hubapi.com/contacts/v1/contact/vid/{0}/profile?hapikey=962e8ce2-2314-4e7f-8dab-77b7f59c270c
URL:-https://api.hubapi.com/contacts/v1/contact/?hapikey=962e8ce2-2314-4e7f-8dab-77b7f59c270c
Response exception:System.Net.HttpWebResponse
Error records:-{"message":"Contact already exists","identityProfile":{"vid":7108001,"identity":[{"value":"danielte@gmail.com","type":"EMAIL","timestamp":1580243611559,"isPrimary":true},{"value":"d045e919-c22d-4827-b749-a3a612cc77a1","type":"LEAD_GUID","timestamp":1580243613324}],"linkedVid":[12017601],"isContact":true,"savedAtTimestamp":1580563535978},"errors":[{"message":"A contact with email danielte@gmail.com already exists.","in":"email"}],"status":"error","correlationId":"28df46c4-7d3d-41b8-aca7-9aac6976a7be","category":"OBJECT_ALREADY_EXISTS","error":"CONTACT_EXISTS"}
Completed count:-1242
Error at count:-1243
URL:-https://api.hubapi.com/contacts/v1/contact/vid/{0}/profile?hapikey=962e8ce2-2314-4e7f-8dab-77b7f59c270c
URL:-https://api.hubapi.com/contacts/v1/contact/?hapikey=962e8ce2-2314-4e7f-8dab-77b7f59c270c
Response exception:System.Net.HttpWebResponse
Error records:-{"message":"Contact already exists","identityProfile":{"vid":14852807,"identity":[{"value":"bagbanigo@yahoo.com","type":"EMAIL","timestamp":1581544030615,"isPrimary":true},{"value":"26798957-871f-49ff-a39c-06bd2dfca3a9","type":"LEAD_GUID","timestamp":1581544030636}],"linkedVid":[],"isContact":true,"savedAtTimestamp":1581544030638},"errors":[{"message":"A contact with email bagbanigo@yahoo.com already exists.","in":"email"}],"status":"error","correlationId":"e3f6c3b9-699e-4156-a07e-cad01261a50b","category":"OBJECT_ALREADY_EXISTS","error":"CONTACT_EXISTS"}
Completed count:-1243
Completed count:-1244
Error at count:-1245
URL:-https://api.hubapi.com/contacts/v1/contact/vid/{0}/profile?hapikey=962e8ce2-2314-4e7f-8dab-77b7f59c270c
URL:-https://api.hubapi.com/contacts/v1/contact/?hapikey=962e8ce2-2314-4e7f-8dab-77b7f59c270c
Response exception:System.Net.HttpWebResponse
Error records:-{"message":"Contact already exists","identityProfile":{"vid":65263101,"identity":[{"value":"flounis71@gmail.com","type":"EMAIL","timestamp":1594385344876,"isPrimary":true},{"value":"f36e3972-f947-4873-945b-54a60da94590","type":"LEAD_GUID","timestamp":1594385344898}],"linkedVid":[],"isContact":true,"savedAtTimestamp":1594385344904},"errors":[{"message":"A contact with email flounis71@gmail.com already exists.","in":"email"}],"status":"error","correlationId":"748330f1-9537-4e31-ba5b-24878091d1c4","category":"OBJECT_ALREADY_EXISTS","error":"CONTACT_EXISTS"}
Completed count:-1245
Completed count:-1246
Completed count:-1247
Completed count:-1248
