Error at count:-4085
URL:-https://api.hubapi.com/contacts/v1/contact/vid/{0}/profile?hapikey=962e8ce2-2314-4e7f-8dab-77b7f59c270c
URL:-https://api.hubapi.com/contacts/v1/contact/?hapikey=962e8ce2-2314-4e7f-8dab-77b7f59c270c
Response exception:System.Net.HttpWebResponse
Error records:-{"message":"Contact already exists","identityProfile":{"vid":14855151,"identity":[{"value":"acd7c775-188e-458b-92a8-5e65b15cb21a","type":"LEAD_GUID","timestamp":1582195073241},{"value":"marcusain@yahoo.co.uk","type":"EMAIL","timestamp":1582197089247,"isPrimary":true},{"value":"hunimuro@yahoo.co.uk","type":"EMAIL","timestamp":1582195071947,"isSecondary":true}],"linkedVid":[39228951,63896783,39231701,39232051,39232451,15765258,39231401],"isContact":true,"savedAtTimestamp":1594123871049},"errors":[{"message":"A contact with email marcusain@yahoo.co.uk already exists.","in":"email"}],"status":"error","correlationId":"bf79e586-bba8-4b13-8aad-2748110bbca4","category":"OBJECT_ALREADY_EXISTS","error":"CONTACT_EXISTS"}
Completed count:-4085
Error at count:-4086
URL:-https://api.hubapi.com/contacts/v1/contact/vid/{0}/profile?hapikey=962e8ce2-2314-4e7f-8dab-77b7f59c270c
URL:-https://api.hubapi.com/contacts/v1/contact/?hapikey=962e8ce2-2314-4e7f-8dab-77b7f59c270c
Response exception:System.Net.HttpWebResponse
Error records:-{"message":"Contact already exists","identityProfile":{"vid":62845246,"identity":[{"value":"kamarakay@live.com","type":"EMAIL","timestamp":1593882923113,"isPrimary":true},{"value":"7e1d4bf6-f87a-47e5-8f45-b6298f0e4176","type":"LEAD_GUID","timestamp":1593882923124}],"linkedVid":[],"isContact":true,"savedAtTimestamp":1593882923125},"errors":[{"message":"A contact with email kamarakay@live.com already exists.","in":"email"}],"status":"error","correlationId":"e637d550-c6e1-4aa6-a9ab-a54d4e09e1b7","category":"OBJECT_ALREADY_EXISTS","error":"CONTACT_EXISTS"}
Completed count:-4086
Error at count:-4087
URL:-https://api.hubapi.com/contacts/v1/contact/vid/{0}/profile?hapikey=962e8ce2-2314-4e7f-8dab-77b7f59c270c
URL:-https://api.hubapi.com/contacts/v1/contact/?hapikey=962e8ce2-2314-4e7f-8dab-77b7f59c270c
Response exception:System.Net.HttpWebResponse
Error records:-{"message":"Contact already exists","identityProfile":{"vid":62988867,"identity":[{"value":"kanbergailze@inbox.lv","type":"EMAIL","timestamp":1593883020517,"isPrimary":true},{"value":"d68b863b-2216-433b-981c-eb6b606851b5","type":"LEAD_GUID","timestamp":1593883020527}],"linkedVid":[],"isContact":true,"savedAtTimestamp":1593883020530},"errors":[{"message":"A contact with email kanbergailze@inbox.lv already exists.","in":"email"}],"status":"error","correlationId":"410d9dec-1370-4e0d-a697-650028eabf74","category":"OBJECT_ALREADY_EXISTS","error":"CONTACT_EXISTS"}
Completed count:-4087
Completed count:-4088
Error at count:-4089
URL:-https://api.hubapi.com/contacts/v1/contact/vid/{0}/profile?hapikey=962e8ce2-2314-4e7f-8dab-77b7f59c270c
URL:-https://api.hubapi.com/contacts/v1/contact/?hapikey=962e8ce2-2314-4e7f-8dab-77b7f59c270c
Response exception:System.Net.HttpWebResponse
Error records:-{"message":"Contact already exists","identityProfile":{"vid":62970318,"identity":[{"value":"despon@abv.bg","type":"EMAIL","timestamp":1593882999756,"isPrimary":true},{"value":"8e9d5f88-09ac-447c-9ef5-00f8c19ebdcd","type":"LEAD_GUID","timestamp":1593882999765}],"linkedVid":[],"isContact":true,"savedAtTimestamp":1593882999767},"errors":[{"message":"A contact with email despon@abv.bg already exists.","in":"email"}],"status":"error","correlationId":"1d9f7782-feac-42d5-9a99-42be94e7ebad","category":"OBJECT_ALREADY_EXISTS","error":"CONTACT_EXISTS"}
Completed count:-4089
Error at count:-4090
URL:-https://api.hubapi.com/contacts/v1/contact/vid/{0}/profile?hapikey=962e8ce2-2314-4e7f-8dab-77b7f59c270c
URL:-https://api.hubapi.com/contacts/v1/contact/?hapikey=962e8ce2-2314-4e7f-8dab-77b7f59c270c
Response exception:System.Net.HttpWebResponse
Error records:-{"message":"Contact already exists","identityProfile":{"vid":62824921,"identity":[{"value":"j.kaczmarek@vp.pl","type":"EMAIL","timestamp":1593882908205,"isPrimary":true},{"value":"594dce33-b53f-422b-96af-3c2bbc28947b","type":"LEAD_GUID","timestamp":1593882908212}],"linkedVid":[],"isContact":true,"savedAtTimestamp":1593882908215},"errors":[{"message":"A contact with email j.kaczmarek@vp.pl already exists.","in":"email"}],"status":"error","correlationId":"42524883-04dd-4cfc-a107-129ae7c266e2","category":"OBJECT_ALREADY_EXISTS","error":"CONTACT_EXISTS"}
Completed count:-4090
Error at count:-4091
URL:-https://api.hubapi.com/contacts/v1/contact/vid/{0}/profile?hapikey=962e8ce2-2314-4e7f-8dab-77b7f59c270c
URL:-https://api.hubapi.com/contacts/v1/contact/?hapikey=962e8ce2-2314-4e7f-8dab-77b7f59c270c
Response exception:System.Net.HttpWebResponse
Error records:-{"message":"Contact already exists","identityProfile":{"vid":14057351,"identity":[{"value":"fc8ad031-e997-49e2-8994-bb04eda15a7c","type":"LEAD_GUID","timestamp":1581332845933},{"value":"shahinabdul009@gmail.com","type":"EMAIL","timestamp":1581866800863,"isSecondary":true},{"value":"taibam2612@gmail.com","type":"EMAIL","timestamp":1584610796688,"isSecondary":true},{"value":"kodaz@email.com","type":"EMAIL","timestamp":1593883013773,"isSecondary":true},{"value":"ha.cedar1@hotmail.co.uk","type":"EMAIL","timestamp":1594154516941,"isSecondary":true},{"value":"ralidulla@yahoo.co.uk","type":"EMAIL","timestamp":1594154517178,"isSecondary":true},{"value":"ivars.datavs@gmail.com","type":"EMAIL","timestamp":1594154516868,"isSecondary":true},{"value":"nosafranklin@hotmail.com","type":"EMAIL","timestamp":1594841723358,"isSecondary":true},{"value":"transtih@gmail.com","type":"EMAIL","timestamp":1599920606409,"isSecondary":true},{"value":"goniahlu@yahoo.com","type":"EMAIL","timestamp":1600468517654,"isPrimary":true},{"value":"a.oummer@live.co.uk","type":"EMAIL","timestamp":1600468489892,"isSecondary":true}],"linkedVid":[44224001,44230801,18137601,44224101,11580651,44224201],"isContact":true,"savedAtTimestamp":1600468517742},"errors":[{"message":"A contact with email goniahlu@yahoo.com already exists.","in":"email"}],"status":"error","correlationId":"0d67a3dc-29b3-4e3d-bd15-1a663eb6afe2","category":"OBJECT_ALREADY_EXISTS","error":"CONTACT_EXISTS"}
Completed count:-4091
Error at count:-4092
URL:-https://api.hubapi.com/contacts/v1/contact/vid/{0}/profile?hapikey=962e8ce2-2314-4e7f-8dab-77b7f59c270c
URL:-https://api.hubapi.com/contacts/v1/contact/?hapikey=962e8ce2-2314-4e7f-8dab-77b7f59c270c
Response exception:System.Net.HttpWebResponse
Error records:-{"message":"Contact already exists","identityProfile":{"vid":62885974,"identity":[{"value":"sam65_6@hotmail.com","type":"EMAIL","timestamp":1593882949369,"isPrimary":true},{"value":"135282a2-8e65-4a19-bbe5-1c8f224815fe","type":"LEAD_GUID","timestamp":1593882949376}],"linkedVid":[],"isContact":true,"savedAtTimestamp":1593882949379},"errors":[{"message":"A contact with email sam65_6@hotmail.com already exists.","in":"email"}],"status":"error","correlationId":"9aa15245-b8c9-47c6-bfb8-3b3f656eea12","category":"OBJECT_ALREADY_EXISTS","error":"CONTACT_EXISTS"}
Completed count:-4092
Error at count:-4093
URL:-https://api.hubapi.com/contacts/v1/contact/vid/{0}/profile?hapikey=962e8ce2-2314-4e7f-8dab-77b7f59c270c
URL:-https://api.hubapi.com/contacts/v1/contact/?hapikey=962e8ce2-2314-4e7f-8dab-77b7f59c270c
Response exception:System.Net.HttpWebResponse
Error records:-{"message":"Contact already exists","identityProfile":{"vid":5339501,"identity":[{"value":"dc6f2e72-2006-48f0-84f3-a2628b0f915c","type":"LEAD_GUID","timestamp":1578215849960},{"value":"theodorejoseph.tjc@gmail.com","type":"EMAIL","timestamp":1600470305416,"isPrimary":true},{"value":"tobiaschristopher.tcc@gmail.com","type":"EMAIL","timestamp":1600443951083,"isSecondary":true}],"linkedVid":[5339701],"isContact":true,"savedAtTimestamp":1600470305479},"errors":[{"message":"A contact with email theodorejoseph.tjc@gmail.com already exists.","in":"email"}],"status":"error","correlationId":"2c900e85-757f-4dc0-a154-3e7a9197a648","category":"OBJECT_ALREADY_EXISTS","error":"CONTACT_EXISTS"}
Completed count:-4093
Completed count:-4094
Completed count:-4095
Error at count:-4096
URL:-https://api.hubapi.com/contacts/v1/contact/vid/{0}/profile?hapikey=962e8ce2-2314-4e7f-8dab-77b7f59c270c
URL:-https://api.hubapi.com/contacts/v1/contact/?hapikey=962e8ce2-2314-4e7f-8dab-77b7f59c270c
Response exception:System.Net.HttpWebResponse
Error records:-{"message":"Contact already exists","identityProfile":{"vid":2089551,"identity":[{"value":"7b9fdf6a-aba6-49da-90c2-1400aa1c9230","type":"LEAD_GUID","timestamp":1576781347395},{"value":"nitadan743@gmail.com","type":"EMAIL","timestamp":1599598357879,"isSecondary":true},{"value":"dannita056@gmail.com","type":"EMAIL","timestamp":1600459533900,"isPrimary":true},{"value":"dannita14@yahoo.com","type":"EMAIL","timestamp":1599677672500,"isSecondary":true}],"linkedVid":[48402901,1764401],"isContact":true,"savedAtTimestamp":1600459533977},"errors":[{"message":"A contact with email dannita056@gmail.com already exists.","in":"email"}],"status":"error","correlationId":"f6cd45b3-4da8-4b64-8dd3-6fe7358866be","category":"OBJECT_ALREADY_EXISTS","error":"CONTACT_EXISTS"}
Completed count:-4096
Completed count:-4097
Completed count:-4098
Completed count:-4099
Error at count:-4100
URL:-https://api.hubapi.com/contacts/v1/contact/vid/{0}/profile?hapikey=962e8ce2-2314-4e7f-8dab-77b7f59c270c
URL:-https://api.hubapi.com/contacts/v1/contact/?hapikey=962e8ce2-2314-4e7f-8dab-77b7f59c270c
Response exception:System.Net.HttpWebResponse
Error records:-{"message":"Contact already exists","identityProfile":{"vid":62847153,"identity":[{"value":"raja.danish2004@gmail.com","type":"EMAIL","timestamp":1593882924047,"isPrimary":true},{"value":"aabcf44c-4adf-4968-9c18-89775839a9b4","type":"LEAD_GUID","timestamp":1593882924054}],"linkedVid":[],"isContact":true,"savedAtTimestamp":1593882924055},"errors":[{"message":"A contact with email raja.danish2004@gmail.com already exists.","in":"email"}],"status":"error","correlationId":"a3b4d341-1d6d-4880-88a9-b6b4763b24e5","category":"OBJECT_ALREADY_EXISTS","error":"CONTACT_EXISTS"}
Completed count:-4100
Error at count:-4101
URL:-https://api.hubapi.com/contacts/v1/contact/vid/{0}/profile?hapikey=962e8ce2-2314-4e7f-8dab-77b7f59c270c
URL:-https://api.hubapi.com/contacts/v1/contact/?hapikey=962e8ce2-2314-4e7f-8dab-77b7f59c270c
Response exception:System.Net.HttpWebResponse
Error records:-{"message":"Contact already exists","identityProfile":{"vid":62886826,"identity":[{"value":"djkarl1989@tlen.pl","type":"EMAIL","timestamp":1593882950164,"isPrimary":true},{"value":"4d5df461-14a1-438e-9d63-834d0327f98f","type":"LEAD_GUID","timestamp":1593882950172}],"linkedVid":[],"isContact":true,"savedAtTimestamp":1593882950174},"errors":[{"message":"A contact with email djkarl1989@tlen.pl already exists.","in":"email"}],"status":"error","correlationId":"ab998819-f78a-4614-bbbf-0aa94d6c1616","category":"OBJECT_ALREADY_EXISTS","error":"CONTACT_EXISTS"}
Completed count:-4101
Completed count:-4102
Error at count:-4103
URL:-https://api.hubapi.com/contacts/v1/contact/vid/{0}/profile?hapikey=962e8ce2-2314-4e7f-8dab-77b7f59c270c
URL:-https://api.hubapi.com/contacts/v1/contact/?hapikey=962e8ce2-2314-4e7f-8dab-77b7f59c270c
Response exception:System.Net.HttpWebResponse
Error records:-{"message":"Contact already exists","identityProfile":{"vid":62970467,"identity":[{"value":"4fdc484b-d8d0-41a9-b8d9-a7af8d530aea","type":"LEAD_GUID","timestamp":1593882999910},{"value":"hutanumadalinaiuliana@gmail.com","type":"EMAIL","timestamp":1598890819593,"isPrimary":true}],"linkedVid":[],"isContact":true,"savedAtTimestamp":1598890819639},"errors":[{"message":"A contact with email hutanumadalinaiuliana@gmail.com already exists.","in":"email"}],"status":"error","correlationId":"9feefa28-0cfe-4b9f-b623-a3a9324d8392","category":"OBJECT_ALREADY_EXISTS","error":"CONTACT_EXISTS"}
Completed count:-4103
Completed count:-4104
Completed count:-4105
Completed count:-4106
Completed count:-4107
Completed count:-4108
Completed count:-4109
Completed count:-4110
Error at count:-4111
URL:-https://api.hubapi.com/contacts/v1/contact/vid/{0}/profile?hapikey=962e8ce2-2314-4e7f-8dab-77b7f59c270c
URL:-https://api.hubapi.com/contacts/v1/contact/?hapikey=962e8ce2-2314-4e7f-8dab-77b7f59c270c
Response exception:System.Net.HttpWebResponse
Error records:-{"message":"Contact already exists","identityProfile":{"vid":62986305,"identity":[{"value":"toth.edem@freemail.hu","type":"EMAIL","timestamp":1593883018349,"isPrimary":true},{"value":"27a6ed59-448b-4f5c-96ac-6d01ebde227d","type":"LEAD_GUID","timestamp":1593883018361}],"linkedVid":[],"isContact":true,"savedAtTimestamp":1593883018364},"errors":[{"message":"A contact with email toth.edem@freemail.hu already exists.","in":"email"}],"status":"error","correlationId":"e80f0120-2c59-4d95-a2ed-982a97a0e527","category":"OBJECT_ALREADY_EXISTS","error":"CONTACT_EXISTS"}
Completed count:-4111
Completed count:-4112
Error at count:-4113
URL:-https://api.hubapi.com/contacts/v1/contact/vid/{0}/profile?hapikey=962e8ce2-2314-4e7f-8dab-77b7f59c270c
URL:-https://api.hubapi.com/contacts/v1/contact/?hapikey=962e8ce2-2314-4e7f-8dab-77b7f59c270c
Response exception:System.Net.HttpWebResponse
Error records:-{"message":"Contact already exists","identityProfile":{"vid":62876766,"identity":[{"value":"ayare1234@gmail.com","type":"EMAIL","timestamp":1593882935676,"isPrimary":true},{"value":"25ba6f03-b50e-4c81-a0da-469a307f50c9","type":"LEAD_GUID","timestamp":1593882935683}],"linkedVid":[64282101],"isContact":true,"savedAtTimestamp":1594174522622},"errors":[{"message":"A contact with email ayare1234@gmail.com already exists.","in":"email"}],"status":"error","correlationId":"9dc02656-7274-4050-b8c4-0e2e794b7159","category":"OBJECT_ALREADY_EXISTS","error":"CONTACT_EXISTS"}
Completed count:-4113
Error at count:-4114
URL:-https://api.hubapi.com/contacts/v1/contact/vid/{0}/profile?hapikey=962e8ce2-2314-4e7f-8dab-77b7f59c270c
URL:-https://api.hubapi.com/contacts/v1/contact/?hapikey=962e8ce2-2314-4e7f-8dab-77b7f59c270c
Response exception:System.Net.HttpWebResponse
Error records:-{"message":"Contact already exists","identityProfile":{"vid":4757701,"identity":[{"value":"lechzas@op.pl","type":"EMAIL","timestamp":1577967200619,"isPrimary":true},{"value":"47e7c740-b781-469a-8db5-3f67821fef63","type":"LEAD_GUID","timestamp":1577967201500}],"linkedVid":[7317551,38555551,12383002,18339401,49016101,38554851],"isContact":true,"savedAtTimestamp":1590411288836},"errors":[{"message":"A contact with email lechzas@op.pl already exists.","in":"email"}],"status":"error","correlationId":"7beca1d4-6acc-4664-bb41-4f880d1af354","category":"OBJECT_ALREADY_EXISTS","error":"CONTACT_EXISTS"}
Completed count:-4114
Error at count:-4115
URL:-https://api.hubapi.com/contacts/v1/contact/vid/{0}/profile?hapikey=962e8ce2-2314-4e7f-8dab-77b7f59c270c
URL:-https://api.hubapi.com/contacts/v1/contact/?hapikey=962e8ce2-2314-4e7f-8dab-77b7f59c270c
Response exception:System.Net.HttpWebResponse
Error records:-{"message":"Contact already exists","identityProfile":{"vid":62876897,"identity":[{"value":"a34dec8f-0685-4066-823f-7350708b0618","type":"LEAD_GUID","timestamp":1593882936639},{"value":"fahadit0088@gmail.com","type":"EMAIL","timestamp":1599596746517,"isPrimary":true}],"linkedVid":[],"isContact":true,"createdWithoutEmail":true,"savedAtTimestamp":1599596746579,"promotedToContact":true},"errors":[{"message":"A contact with email fahadit0088@gmail.com already exists.","in":"email"}],"status":"error","correlationId":"647fbe20-9c59-4d0d-adeb-39afa3ff0e8d","category":"OBJECT_ALREADY_EXISTS","error":"CONTACT_EXISTS"}
Completed count:-4115
Completed count:-4116
Completed count:-4117
Completed count:-4118
Error at count:-4119
URL:-https://api.hubapi.com/contacts/v1/contact/vid/{0}/profile?hapikey=962e8ce2-2314-4e7f-8dab-77b7f59c270c
URL:-https://api.hubapi.com/contacts/v1/contact/?hapikey=962e8ce2-2314-4e7f-8dab-77b7f59c270c
Response exception:System.Net.HttpWebResponse
Error records:-{"message":"Contact already exists","identityProfile":{"vid":62906171,"identity":[{"value":"sopoza@hotmail.co.uk","type":"EMAIL","timestamp":1593882961072,"isPrimary":true},{"value":"edaf8ac2-644a-4ec2-adc8-43da175abeb8","type":"LEAD_GUID","timestamp":1593882961086}],"linkedVid":[],"isContact":true,"savedAtTimestamp":1593882961088},"errors":[{"message":"A contact with email sopoza@hotmail.co.uk already exists.","in":"email"}],"status":"error","correlationId":"b6ca27c6-4da6-4c2d-baf6-31b1e5391d8c","category":"OBJECT_ALREADY_EXISTS","error":"CONTACT_EXISTS"}
Completed count:-4119
Completed count:-4120
Error at count:-4121
URL:-https://api.hubapi.com/contacts/v1/contact/vid/{0}/profile?hapikey=962e8ce2-2314-4e7f-8dab-77b7f59c270c
URL:-https://api.hubapi.com/contacts/v1/contact/?hapikey=962e8ce2-2314-4e7f-8dab-77b7f59c270c
Response exception:System.Net.HttpWebResponse
Error records:-{"message":"Contact already exists","identityProfile":{"vid":68438051,"identity":[{"value":"piotrgawlak50@gmail.com","type":"EMAIL","timestamp":1595171501369,"isPrimary":true},{"value":"4b10b844-1344-404d-bac4-2c89bb49bd09","type":"LEAD_GUID","timestamp":1595171501399}],"linkedVid":[],"isContact":true,"savedAtTimestamp":1595171501404},"errors":[{"message":"A contact with email piotrgawlak50@gmail.com already exists.","in":"email"}],"status":"error","correlationId":"6bc170f8-b141-4cdb-996d-6e17323b737d","category":"OBJECT_ALREADY_EXISTS","error":"CONTACT_EXISTS"}
Completed count:-4121
Completed count:-4122
Error at count:-4123
URL:-https://api.hubapi.com/contacts/v1/contact/vid/{0}/profile?hapikey=962e8ce2-2314-4e7f-8dab-77b7f59c270c
URL:-https://api.hubapi.com/contacts/v1/contact/?hapikey=962e8ce2-2314-4e7f-8dab-77b7f59c270c
Response exception:System.Net.HttpWebResponse
Error records:-{"message":"Contact already exists","identityProfile":{"vid":62966144,"identity":[{"value":"chrisandlin22@hotmail.com","type":"EMAIL","timestamp":1593882996405,"isPrimary":true},{"value":"e6976180-7ede-4f90-ac5d-54730fcc91d1","type":"LEAD_GUID","timestamp":1593882996415}],"linkedVid":[64229201],"isContact":true,"savedAtTimestamp":1594161125840},"errors":[{"message":"A contact with email chrisandlin22@hotmail.com already exists.","in":"email"}],"status":"error","correlationId":"88ea6f80-5f29-4655-8633-02d055ee6d65","category":"OBJECT_ALREADY_EXISTS","error":"CONTACT_EXISTS"}
Completed count:-4123
Error at count:-4124
URL:-https://api.hubapi.com/contacts/v1/contact/vid/{0}/profile?hapikey=962e8ce2-2314-4e7f-8dab-77b7f59c270c
URL:-https://api.hubapi.com/contacts/v1/contact/?hapikey=962e8ce2-2314-4e7f-8dab-77b7f59c270c
Response exception:System.Net.HttpWebResponse
Error records:-{"message":"Contact already exists","identityProfile":{"vid":7022751,"identity":[{"value":"erdaugintis@gmail.com","type":"EMAIL","timestamp":1578940017891,"isPrimary":true},{"value":"f38101e6-de93-469a-9809-3cae16952d19","type":"LEAD_GUID","timestamp":1578940019916}],"linkedVid":[],"isContact":true,"savedAtTimestamp":1578940019936},"errors":[{"message":"A contact with email erdaugintis@gmail.com already exists.","in":"email"}],"status":"error","correlationId":"058c6a01-5704-412c-b3c2-5aea07a4ee6c","category":"OBJECT_ALREADY_EXISTS","error":"CONTACT_EXISTS"}
Completed count:-4124
Error at count:-4125
URL:-https://api.hubapi.com/contacts/v1/contact/vid/{0}/profile?hapikey=962e8ce2-2314-4e7f-8dab-77b7f59c270c
URL:-https://api.hubapi.com/contacts/v1/contact/?hapikey=962e8ce2-2314-4e7f-8dab-77b7f59c270c
Response exception:System.Net.HttpWebResponse
Error records:-{"message":"Contact already exists","identityProfile":{"vid":62136956,"identity":[{"value":"shahtariq@hotmail.co.uk","type":"EMAIL","timestamp":1593710889088,"isPrimary":true},{"value":"21226017-f74c-4fb0-9f0f-1e209f67566e","type":"LEAD_GUID","timestamp":1593710889096}],"linkedVid":[],"isContact":true,"savedAtTimestamp":1593710889099},"errors":[{"message":"A contact with email shahtariq@hotmail.co.uk already exists.","in":"email"}],"status":"error","correlationId":"2fa53c9e-5b98-4b0a-b604-35a50fef9e51","category":"OBJECT_ALREADY_EXISTS","error":"CONTACT_EXISTS"}
Completed count:-4125
Completed count:-4126
Error at count:-4127
URL:-https://api.hubapi.com/contacts/v1/contact/vid/{0}/profile?hapikey=962e8ce2-2314-4e7f-8dab-77b7f59c270c
URL:-https://api.hubapi.com/contacts/v1/contact/?hapikey=962e8ce2-2314-4e7f-8dab-77b7f59c270c
Response exception:System.Net.HttpWebResponse
Error records:-{"message":"Contact already exists","identityProfile":{"vid":62877012,"identity":[{"value":"dsestrinski@gmail.com","type":"EMAIL","timestamp":1593882935794,"isPrimary":true},{"value":"c2355282-c4cc-4ee4-b70b-a143af86289b","type":"LEAD_GUID","timestamp":1593882935801}],"linkedVid":[],"isContact":true,"savedAtTimestamp":1593882935803},"errors":[{"message":"A contact with email dsestrinski@gmail.com already exists.","in":"email"}],"status":"error","correlationId":"2b528808-eecb-47ec-8bc0-a353e740e45d","category":"OBJECT_ALREADY_EXISTS","error":"CONTACT_EXISTS"}
Completed count:-4127
Error at count:-4128
URL:-https://api.hubapi.com/contacts/v1/contact/vid/{0}/profile?hapikey=962e8ce2-2314-4e7f-8dab-77b7f59c270c
URL:-https://api.hubapi.com/contacts/v1/contact/?hapikey=962e8ce2-2314-4e7f-8dab-77b7f59c270c
Response exception:System.Net.HttpWebResponse
Error records:-{"message":"Contact already exists","identityProfile":{"vid":2711701,"identity":[{"value":"sani_05@hotmail.com","type":"EMAIL","timestamp":1577531821203,"isPrimary":true},{"value":"36b79865-f69f-4bbb-bd32-542886560c49","type":"LEAD_GUID","timestamp":1577531822867}],"linkedVid":[42038851,52461851,56299351],"isContact":true,"savedAtTimestamp":1592299111432},"errors":[{"message":"A contact with email sani_05@hotmail.com already exists.","in":"email"}],"status":"error","correlationId":"75b63209-1cab-4d33-81c6-e2a030a6caf0","category":"OBJECT_ALREADY_EXISTS","error":"CONTACT_EXISTS"}
Completed count:-4128
Error at count:-4129
URL:-https://api.hubapi.com/contacts/v1/contact/vid/{0}/profile?hapikey=962e8ce2-2314-4e7f-8dab-77b7f59c270c
URL:-https://api.hubapi.com/contacts/v1/contact/?hapikey=962e8ce2-2314-4e7f-8dab-77b7f59c270c
Response exception:System.Net.HttpWebResponse
Error records:-{"message":"Contact already exists","identityProfile":{"vid":22180501,"identity":[{"value":"dar.rozwadowski@gmail.com","type":"EMAIL","timestamp":1583759331604,"isPrimary":true},{"value":"4ec04edc-ee5f-4583-9573-5044cd090223","type":"LEAD_GUID","timestamp":1583759331969}],"linkedVid":[],"isContact":true,"savedAtTimestamp":1583759331973},"errors":[{"message":"A contact with email dar.rozwadowski@gmail.com already exists.","in":"email"}],"status":"error","correlationId":"16b3cbb1-b2e8-403b-b4da-360055085aa5","category":"OBJECT_ALREADY_EXISTS","error":"CONTACT_EXISTS"}
Completed count:-4129
Completed count:-4130
Completed count:-4131
Completed count:-4132
Error at count:-4133
URL:-https://api.hubapi.com/contacts/v1/contact/vid/{0}/profile?hapikey=962e8ce2-2314-4e7f-8dab-77b7f59c270c
URL:-https://api.hubapi.com/contacts/v1/contact/?hapikey=962e8ce2-2314-4e7f-8dab-77b7f59c270c
Response exception:System.Net.HttpWebResponse
Error records:-{"message":"Contact already exists","identityProfile":{"vid":62896499,"identity":[{"value":"mariola.cichowicz@onet.pl","type":"EMAIL","timestamp":1593882953632,"isPrimary":true},{"value":"5c746152-ab56-4ef0-ad54-f48eea101e75","type":"LEAD_GUID","timestamp":1593882953640}],"linkedVid":[],"isContact":true,"savedAtTimestamp":1593882953642},"errors":[{"message":"A contact with email mariola.cichowicz@onet.pl already exists.","in":"email"}],"status":"error","correlationId":"e96894b8-278d-4d9d-bb9b-2524f478a2ed","category":"OBJECT_ALREADY_EXISTS","error":"CONTACT_EXISTS"}
Completed count:-4133
Completed count:-4134
Error at count:-4135
URL:-https://api.hubapi.com/contacts/v1/contact/vid/{0}/profile?hapikey=962e8ce2-2314-4e7f-8dab-77b7f59c270c
URL:-https://api.hubapi.com/contacts/v1/contact/?hapikey=962e8ce2-2314-4e7f-8dab-77b7f59c270c
Response exception:System.Net.HttpWebResponse
Error records:-{"message":"Contact already exists","identityProfile":{"vid":63967897,"identity":[{"value":"7c98c81a-f9c8-468a-a320-d981a17d8a99","type":"LEAD_GUID","timestamp":1594132392272},{"value":"noman@hotmail.co.uk","type":"EMAIL","timestamp":1598890818471,"isPrimary":true}],"linkedVid":[],"isContact":true,"createdWithoutEmail":true,"savedAtTimestamp":1598890818510,"promotedToContact":true},"errors":[{"message":"A contact with email noman@hotmail.co.uk already exists.","in":"email"}],"status":"error","correlationId":"4650dc8b-93fd-41f5-a8f0-af975f601ad9","category":"OBJECT_ALREADY_EXISTS","error":"CONTACT_EXISTS"}
Completed count:-4135
Error at count:-4136
URL:-https://api.hubapi.com/contacts/v1/contact/vid/{0}/profile?hapikey=962e8ce2-2314-4e7f-8dab-77b7f59c270c
URL:-https://api.hubapi.com/contacts/v1/contact/?hapikey=962e8ce2-2314-4e7f-8dab-77b7f59c270c
Response exception:System.Net.HttpWebResponse
Error records:-{"message":"Contact already exists","identityProfile":{"vid":64018056,"identity":[{"value":"d9d56435-17f6-417c-8352-71fa98e2ebcc","type":"LEAD_GUID","timestamp":1594132399057},{"value":"reece.marie.maclean@gmail.com","type":"EMAIL","timestamp":1599595461986,"isPrimary":true}],"linkedVid":[],"isContact":true,"createdWithoutEmail":true,"savedAtTimestamp":1599595462024,"promotedToContact":true},"errors":[{"message":"A contact with email reece.marie.maclean@gmail.com already exists.","in":"email"}],"status":"error","correlationId":"82df1c62-5541-4681-9eb0-55487d57845d","category":"OBJECT_ALREADY_EXISTS","error":"CONTACT_EXISTS"}
Completed count:-4136
Error at count:-4137
URL:-https://api.hubapi.com/contacts/v1/contact/vid/{0}/profile?hapikey=962e8ce2-2314-4e7f-8dab-77b7f59c270c
URL:-https://api.hubapi.com/contacts/v1/contact/?hapikey=962e8ce2-2314-4e7f-8dab-77b7f59c270c
Response exception:System.Net.HttpWebResponse
Error records:-{"message":"Contact already exists","identityProfile":{"vid":62876855,"identity":[{"value":"lex.industri@icloud.com","type":"EMAIL","timestamp":1593882935618,"isPrimary":true},{"value":"680ee2b9-da14-4d56-b457-359ab06adf3c","type":"LEAD_GUID","timestamp":1593882935626}],"linkedVid":[],"isContact":true,"savedAtTimestamp":1593882935628},"errors":[{"message":"A contact with email lex.industri@icloud.com already exists.","in":"email"}],"status":"error","correlationId":"e16fa8b8-5f99-4df1-b5b9-58e3a6f7bc13","category":"OBJECT_ALREADY_EXISTS","error":"CONTACT_EXISTS"}
Completed count:-4137
Error at count:-4138
URL:-https://api.hubapi.com/contacts/v1/contact/vid/{0}/profile?hapikey=962e8ce2-2314-4e7f-8dab-77b7f59c270c
URL:-https://api.hubapi.com/contacts/v1/contact/?hapikey=962e8ce2-2314-4e7f-8dab-77b7f59c270c
Response exception:System.Net.HttpWebResponse
Error records:-{"message":"Contact already exists","identityProfile":{"vid":437489,"identity":[{"value":"noemail@gmail.com","type":"EMAIL","timestamp":1576130874293,"isPrimary":true},{"value":"749507fd-0ac1-4d42-9ad6-7513ba717f66","type":"LEAD_GUID","timestamp":1576130874303}],"linkedVid":[43090401,43089651],"isContact":true,"savedAtTimestamp":1588907364609},"errors":[{"message":"A contact with email noemail@gmail.com already exists.","in":"email"}],"status":"error","correlationId":"8de2df1a-f267-46fa-85e4-81678447b8ca","category":"OBJECT_ALREADY_EXISTS","error":"CONTACT_EXISTS"}
Completed count:-4138
Error at count:-4139
URL:-https://api.hubapi.com/contacts/v1/contact/vid/{0}/profile?hapikey=962e8ce2-2314-4e7f-8dab-77b7f59c270c
URL:-https://api.hubapi.com/contacts/v1/contact/?hapikey=962e8ce2-2314-4e7f-8dab-77b7f59c270c
Response exception:System.Net.HttpWebResponse
Error records:-{"message":"Contact already exists","identityProfile":{"vid":62142303,"identity":[{"value":"mjalal52@hotmail.com","type":"EMAIL","timestamp":1593710894648,"isPrimary":true},{"value":"d9998422-dc5f-453d-aa51-f6c84ea5be25","type":"LEAD_GUID","timestamp":1593710894661}],"linkedVid":[63882251],"isContact":true,"savedAtTimestamp":1594120965332},"errors":[{"message":"A contact with email mjalal52@hotmail.com already exists.","in":"email"}],"status":"error","correlationId":"d8cdfa0f-53d8-4c10-92dc-dffa10bfb30c","category":"OBJECT_ALREADY_EXISTS","error":"CONTACT_EXISTS"}
Completed count:-4139
Completed count:-4140
Completed count:-4141
Completed count:-4142
Completed count:-4143
Error at count:-4144
URL:-https://api.hubapi.com/contacts/v1/contact/vid/{0}/profile?hapikey=962e8ce2-2314-4e7f-8dab-77b7f59c270c
URL:-https://api.hubapi.com/contacts/v1/contact/?hapikey=962e8ce2-2314-4e7f-8dab-77b7f59c270c
Response exception:System.Net.HttpWebResponse
Error records:-{"message":"Contact already exists","identityProfile":{"vid":62973159,"identity":[{"value":"aalbertie1@gmail.com","type":"EMAIL","timestamp":1593883004345,"isPrimary":true},{"value":"4ff4e427-9ddf-4c58-9a93-653e92cf93e9","type":"LEAD_GUID","timestamp":1593883004355}],"linkedVid":[],"isContact":true,"savedAtTimestamp":1593883004357},"errors":[{"message":"A contact with email aalbertie1@gmail.com already exists.","in":"email"}],"status":"error","correlationId":"e3d79bec-3879-4f79-9fa5-c0f79d05a12d","category":"OBJECT_ALREADY_EXISTS","error":"CONTACT_EXISTS"}
Completed count:-4144
Error at count:-4145
URL:-https://api.hubapi.com/contacts/v1/contact/vid/{0}/profile?hapikey=962e8ce2-2314-4e7f-8dab-77b7f59c270c
URL:-https://api.hubapi.com/contacts/v1/contact/?hapikey=962e8ce2-2314-4e7f-8dab-77b7f59c270c
Response exception:System.Net.HttpWebResponse
Error records:-{"message":"Contact already exists","identityProfile":{"vid":62941036,"identity":[{"value":"d8434b0c-7c9b-470b-8926-e855fe9b6c64","type":"LEAD_GUID","timestamp":1593882983872},{"value":"soodamamun1@yahoo.com","type":"EMAIL","timestamp":1598887124460,"isPrimary":true}],"linkedVid":[],"isContact":true,"createdWithoutEmail":true,"savedAtTimestamp":1598887124495,"promotedToContact":true},"errors":[{"message":"A contact with email soodamamun1@yahoo.com already exists.","in":"email"}],"status":"error","correlationId":"8f094c27-229d-45e8-8945-243587204d1c","category":"OBJECT_ALREADY_EXISTS","error":"CONTACT_EXISTS"}
Completed count:-4145
Error at count:-4146
URL:-https://api.hubapi.com/contacts/v1/contact/vid/{0}/profile?hapikey=962e8ce2-2314-4e7f-8dab-77b7f59c270c
URL:-https://api.hubapi.com/contacts/v1/contact/?hapikey=962e8ce2-2314-4e7f-8dab-77b7f59c270c
Response exception:System.Net.HttpWebResponse
Error records:-{"message":"Contact already exists","identityProfile":{"vid":62941878,"identity":[{"value":"1b8f31de-f7a5-4734-b5fd-43e8dff5b92f","type":"LEAD_GUID","timestamp":1593882983862},{"value":"avalentin38@yahoo.com","type":"EMAIL","timestamp":1598890818738,"isPrimary":true}],"linkedVid":[],"isContact":true,"savedAtTimestamp":1598890818778},"errors":[{"message":"A contact with email avalentin38@yahoo.com already exists.","in":"email"}],"status":"error","correlationId":"d8feb5c9-acc5-4d81-b7a4-03bb9b290910","category":"OBJECT_ALREADY_EXISTS","error":"CONTACT_EXISTS"}
Completed count:-4146
Completed count:-4147
Error at count:-4148
URL:-https://api.hubapi.com/contacts/v1/contact/vid/{0}/profile?hapikey=962e8ce2-2314-4e7f-8dab-77b7f59c270c
URL:-https://api.hubapi.com/contacts/v1/contact/?hapikey=962e8ce2-2314-4e7f-8dab-77b7f59c270c
Response exception:System.Net.HttpWebResponse
Error records:-{"message":"Contact already exists","identityProfile":{"vid":439856,"identity":[{"value":"olivijacerkovskyte9@gmail.com","type":"EMAIL","timestamp":1576130877766,"isPrimary":true},{"value":"d71b60ee-b6f2-4b37-9f4c-dc9fb24ce6fb","type":"LEAD_GUID","timestamp":1576130877775}],"linkedVid":[],"isContact":true,"savedAtTimestamp":1576130877776},"errors":[{"message":"A contact with email olivijacerkovskyte9@gmail.com already exists.","in":"email"}],"status":"error","correlationId":"ad2f7eb1-57b5-4370-b2d0-74b1ea81e60a","category":"OBJECT_ALREADY_EXISTS","error":"CONTACT_EXISTS"}
Completed count:-4148
Completed count:-4149
Error at count:-4150
URL:-https://api.hubapi.com/contacts/v1/contact/vid/{0}/profile?hapikey=962e8ce2-2314-4e7f-8dab-77b7f59c270c
URL:-https://api.hubapi.com/contacts/v1/contact/?hapikey=962e8ce2-2314-4e7f-8dab-77b7f59c270c
Response exception:System.Net.HttpWebResponse
Error records:-{"message":"Contact already exists","identityProfile":{"vid":62825086,"identity":[{"value":"damaraegbu@yahoo.co.uk","type":"EMAIL","timestamp":1593882908424,"isPrimary":true},{"value":"f14e4b7a-245c-4d34-9100-1d6ae31a3718","type":"LEAD_GUID","timestamp":1593882908432}],"linkedVid":[],"isContact":true,"savedAtTimestamp":1593882908435},"errors":[{"message":"A contact with email damaraegbu@yahoo.co.uk already exists.","in":"email"}],"status":"error","correlationId":"81e844d3-8a63-4180-aff1-4f2d2ff52026","category":"OBJECT_ALREADY_EXISTS","error":"CONTACT_EXISTS"}
Completed count:-4150
Completed count:-4151
Completed count:-4152
Completed count:-4153
Completed count:-4154
Completed count:-4155
Completed count:-4156
Error at count:-4157
URL:-https://api.hubapi.com/contacts/v1/contact/vid/{0}/profile?hapikey=962e8ce2-2314-4e7f-8dab-77b7f59c270c
URL:-https://api.hubapi.com/contacts/v1/contact/?hapikey=962e8ce2-2314-4e7f-8dab-77b7f59c270c
Response exception:System.Net.HttpWebResponse
Error records:-{"message":"Contact already exists","identityProfile":{"vid":437984,"identity":[{"value":"mkrakowiak@btinternet.com","type":"EMAIL","timestamp":1576130874362,"isPrimary":true},{"value":"1fcb7e19-44c2-4244-abf4-308b01b734c8","type":"LEAD_GUID","timestamp":1576130874370}],"linkedVid":[],"isContact":true,"savedAtTimestamp":1576130874372},"errors":[{"message":"A contact with email mkrakowiak@btinternet.com already exists.","in":"email"}],"status":"error","correlationId":"1eba1200-67e6-4d5e-8e9e-912c7a0c3c24","category":"OBJECT_ALREADY_EXISTS","error":"CONTACT_EXISTS"}
Completed count:-4157
Completed count:-4158
Completed count:-4159
Error at count:-4160
URL:-https://api.hubapi.com/contacts/v1/contact/vid/{0}/profile?hapikey=962e8ce2-2314-4e7f-8dab-77b7f59c270c
URL:-https://api.hubapi.com/contacts/v1/contact/?hapikey=962e8ce2-2314-4e7f-8dab-77b7f59c270c
Response exception:System.Net.HttpWebResponse
Error records:-{"message":"Contact already exists","identityProfile":{"vid":62946282,"identity":[{"value":"anupman74@gmail.com","type":"EMAIL","timestamp":1593882986367,"isPrimary":true},{"value":"a1e8e46b-a988-44d9-b7e2-3fa3be010a4a","type":"LEAD_GUID","timestamp":1593882986376}],"linkedVid":[],"isContact":true,"savedAtTimestamp":1593882986378},"errors":[{"message":"A contact with email anupman74@gmail.com already exists.","in":"email"}],"status":"error","correlationId":"6f79a997-5224-4039-996d-cdc2f619f8c8","category":"OBJECT_ALREADY_EXISTS","error":"CONTACT_EXISTS"}
Completed count:-4160
Completed count:-4161
Error at count:-4162
URL:-https://api.hubapi.com/contacts/v1/contact/vid/{0}/profile?hapikey=962e8ce2-2314-4e7f-8dab-77b7f59c270c
URL:-https://api.hubapi.com/contacts/v1/contact/?hapikey=962e8ce2-2314-4e7f-8dab-77b7f59c270c
Response exception:System.Net.HttpWebResponse
Error records:-{"message":"Contact already exists","identityProfile":{"vid":62825764,"identity":[{"value":"fatsuperguy@gmail.com","type":"EMAIL","timestamp":1593882908970,"isPrimary":true},{"value":"b1ae5429-8d55-4575-81d1-7c87696d450a","type":"LEAD_GUID","timestamp":1593882908983}],"linkedVid":[],"isContact":true,"savedAtTimestamp":1593882908986},"errors":[{"message":"A contact with email fatsuperguy@gmail.com already exists.","in":"email"}],"status":"error","correlationId":"1695d8ee-073c-4399-884d-37649b83e0e9","category":"OBJECT_ALREADY_EXISTS","error":"CONTACT_EXISTS"}
Completed count:-4162
Error at count:-4163
URL:-https://api.hubapi.com/contacts/v1/contact/vid/{0}/profile?hapikey=962e8ce2-2314-4e7f-8dab-77b7f59c270c
URL:-https://api.hubapi.com/contacts/v1/contact/?hapikey=962e8ce2-2314-4e7f-8dab-77b7f59c270c
Response exception:System.Net.HttpWebResponse
Error records:-{"message":"Contact already exists","identityProfile":{"vid":62888801,"identity":[{"value":"ilonag2303@gmail.com","type":"EMAIL","timestamp":1593882951593,"isPrimary":true},{"value":"166b289b-dd0a-4bde-945a-a9c183ee6f48","type":"LEAD_GUID","timestamp":1593882951602}],"linkedVid":[],"isContact":true,"savedAtTimestamp":1593882952321},"errors":[{"message":"A contact with email ilonag2303@gmail.com already exists.","in":"email"}],"status":"error","correlationId":"153317dd-0603-47cc-933a-de245b14151d","category":"OBJECT_ALREADY_EXISTS","error":"CONTACT_EXISTS"}
Completed count:-4163
Completed count:-4164
Error at count:-4165
URL:-https://api.hubapi.com/contacts/v1/contact/vid/{0}/profile?hapikey=962e8ce2-2314-4e7f-8dab-77b7f59c270c
URL:-https://api.hubapi.com/contacts/v1/contact/?hapikey=962e8ce2-2314-4e7f-8dab-77b7f59c270c
Response exception:System.Net.HttpWebResponse
Error records:-{"message":"Contact already exists","identityProfile":{"vid":62988534,"identity":[{"value":"sebastiansadowski92@gmail.com","type":"EMAIL","timestamp":1593883020388,"isPrimary":true},{"value":"b2144894-fb97-43a2-b9f9-f42e9d3ebc3d","type":"LEAD_GUID","timestamp":1593883020401}],"linkedVid":[],"isContact":true,"savedAtTimestamp":1593883020404},"errors":[{"message":"A contact with email sebastiansadowski92@gmail.com already exists.","in":"email"}],"status":"error","correlationId":"ef0783e6-f6d2-4589-ba2a-b6e9449b54e2","category":"OBJECT_ALREADY_EXISTS","error":"CONTACT_EXISTS"}
Completed count:-4165
Completed count:-4166
Error at count:-4167
URL:-https://api.hubapi.com/contacts/v1/contact/vid/{0}/profile?hapikey=962e8ce2-2314-4e7f-8dab-77b7f59c270c
URL:-https://api.hubapi.com/contacts/v1/contact/?hapikey=962e8ce2-2314-4e7f-8dab-77b7f59c270c
Response exception:System.Net.HttpWebResponse
Error records:-{"message":"Contact already exists","identityProfile":{"vid":62828223,"identity":[{"value":"deanorx8@gmail.com","type":"EMAIL","timestamp":1593882911606,"isPrimary":true},{"value":"c3a618f3-944b-4986-a2bd-eadef886000d","type":"LEAD_GUID","timestamp":1593882911617}],"linkedVid":[],"isContact":true,"savedAtTimestamp":1593882911618},"errors":[{"message":"A contact with email deanorx8@gmail.com already exists.","in":"email"}],"status":"error","correlationId":"d369c913-5c60-422b-9f00-f5d31bc5833f","category":"OBJECT_ALREADY_EXISTS","error":"CONTACT_EXISTS"}
Completed count:-4167
Completed count:-4168
Error at count:-4169
URL:-https://api.hubapi.com/contacts/v1/contact/vid/{0}/profile?hapikey=962e8ce2-2314-4e7f-8dab-77b7f59c270c
URL:-https://api.hubapi.com/contacts/v1/contact/?hapikey=962e8ce2-2314-4e7f-8dab-77b7f59c270c
Response exception:System.Net.HttpWebResponse
Error records:-{"message":"Contact already exists","identityProfile":{"vid":3106401,"identity":[{"value":"julienjivkov1@gmail.com","type":"EMAIL","timestamp":1577370990576,"isPrimary":true},{"value":"99ceebfd-cd9b-426e-95d2-7e531452b0b9","type":"LEAD_GUID","timestamp":1577370991713}],"linkedVid":[54086956],"isContact":true,"savedAtTimestamp":1591702676051},"errors":[{"message":"A contact with email julienjivkov1@gmail.com already exists.","in":"email"}],"status":"error","correlationId":"f1f47412-25ed-4349-95aa-560539c522a0","category":"OBJECT_ALREADY_EXISTS","error":"CONTACT_EXISTS"}
Completed count:-4169
Error at count:-4170
URL:-https://api.hubapi.com/contacts/v1/contact/vid/{0}/profile?hapikey=962e8ce2-2314-4e7f-8dab-77b7f59c270c
URL:-https://api.hubapi.com/contacts/v1/contact/?hapikey=962e8ce2-2314-4e7f-8dab-77b7f59c270c
Response exception:System.Net.HttpWebResponse
Error records:-{"message":"Contact already exists","identityProfile":{"vid":62972488,"identity":[{"value":"mironokia1@gmail.com","type":"EMAIL","timestamp":1593883003356,"isPrimary":true},{"value":"b1a1885e-1593-4ff2-bbdc-9306d99d6f55","type":"LEAD_GUID","timestamp":1593883003367}],"linkedVid":[],"isContact":true,"savedAtTimestamp":1593883003370},"errors":[{"message":"A contact with email mironokia1@gmail.com already exists.","in":"email"}],"status":"error","correlationId":"d5fb2f69-722a-4e17-aead-4e299c9564d0","category":"OBJECT_ALREADY_EXISTS","error":"CONTACT_EXISTS"}
Completed count:-4170
Completed count:-4171
Completed count:-4172
Completed count:-4173
Completed count:-4174
Completed count:-4175
Completed count:-4176
Completed count:-4177
Error at count:-4178
URL:-https://api.hubapi.com/contacts/v1/contact/vid/{0}/profile?hapikey=962e8ce2-2314-4e7f-8dab-77b7f59c270c
URL:-https://api.hubapi.com/contacts/v1/contact/?hapikey=962e8ce2-2314-4e7f-8dab-77b7f59c270c
Response exception:System.Net.HttpWebResponse
Error records:-{"message":"Contact already exists","identityProfile":{"vid":888201,"identity":[{"value":"805f6068-068a-4571-bb86-749883cd5e17","type":"LEAD_GUID","timestamp":1576751515258},{"value":"john.ladele@yahoo.com","type":"EMAIL","timestamp":1576751512911,"isSecondary":true},{"value":"ladtune@yahoo.com","type":"EMAIL","timestamp":1598890819373,"isPrimary":true},{"value":"ladtunde@yahoo.com","type":"EMAIL","timestamp":1593882998622,"isSecondary":true}],"linkedVid":[27320801,25627301],"isContact":true,"savedAtTimestamp":1598890819478},"errors":[{"message":"A contact with email ladtune@yahoo.com already exists.","in":"email"}],"status":"error","correlationId":"026ecedb-bcc6-41fa-882a-6f3f2b4b8d6a","category":"OBJECT_ALREADY_EXISTS","error":"CONTACT_EXISTS"}
Completed count:-4178
Completed count:-4179
Completed count:-4180
Completed count:-4181
Error at count:-4182
URL:-https://api.hubapi.com/contacts/v1/contact/vid/{0}/profile?hapikey=962e8ce2-2314-4e7f-8dab-77b7f59c270c
URL:-https://api.hubapi.com/contacts/v1/contact/?hapikey=962e8ce2-2314-4e7f-8dab-77b7f59c270c
Response exception:System.Net.HttpWebResponse
Error records:-{"message":"Contact already exists","identityProfile":{"vid":62825154,"identity":[{"value":"lupu_mc_mihaela@yahoo.com","type":"EMAIL","timestamp":1593882908099,"isPrimary":true},{"value":"429afab3-e5fc-41a2-a204-9a9737c36945","type":"LEAD_GUID","timestamp":1593882908111}],"linkedVid":[],"isContact":true,"savedAtTimestamp":1593882908113},"errors":[{"message":"A contact with email lupu_mc_mihaela@yahoo.com already exists.","in":"email"}],"status":"error","correlationId":"17491960-9c19-411d-a0d7-04d1a02df872","category":"OBJECT_ALREADY_EXISTS","error":"CONTACT_EXISTS"}
Completed count:-4182
Completed count:-4183
Completed count:-4184
Error at count:-4185
URL:-https://api.hubapi.com/contacts/v1/contact/vid/{0}/profile?hapikey=962e8ce2-2314-4e7f-8dab-77b7f59c270c
URL:-https://api.hubapi.com/contacts/v1/contact/?hapikey=962e8ce2-2314-4e7f-8dab-77b7f59c270c
Response exception:System.Net.HttpWebResponse
Error records:-{"message":"Contact already exists","identityProfile":{"vid":438502,"identity":[{"value":"acd2f903-5dc4-4167-b2d4-3a5859491195","type":"LEAD_GUID","timestamp":1576130874880},{"value":"tabulevica@gmail.com","type":"EMAIL","timestamp":1599592243563,"isPrimary":true}],"linkedVid":[4002301,50685908,43817201,29893751],"isContact":true,"savedAtTimestamp":1599592243683},"errors":[{"message":"A contact with email tabulevica@gmail.com already exists.","in":"email"}],"status":"error","correlationId":"e4844d2c-77dc-461f-abed-377d77251afa","category":"OBJECT_ALREADY_EXISTS","error":"CONTACT_EXISTS"}
Completed count:-4185
Completed count:-4186
Completed count:-4187
Error at count:-4188
URL:-https://api.hubapi.com/contacts/v1/contact/vid/{0}/profile?hapikey=962e8ce2-2314-4e7f-8dab-77b7f59c270c
URL:-https://api.hubapi.com/contacts/v1/contact/?hapikey=962e8ce2-2314-4e7f-8dab-77b7f59c270c
Response exception:System.Net.HttpWebResponse
Error records:-{"message":"Contact already exists","identityProfile":{"vid":62135053,"identity":[{"value":"kingping395@gmail.com","type":"EMAIL","timestamp":1593710887564,"isPrimary":true},{"value":"612afce0-f0f1-43b9-9092-87a5f7271824","type":"LEAD_GUID","timestamp":1593710887574}],"linkedVid":[],"isContact":true,"savedAtTimestamp":1593710887575},"errors":[{"message":"A contact with email kingping395@gmail.com already exists.","in":"email"}],"status":"error","correlationId":"06c59c67-ac1c-4631-a9ba-4fb4ab684de2","category":"OBJECT_ALREADY_EXISTS","error":"CONTACT_EXISTS"}
Completed count:-4188
Completed count:-4189
Completed count:-4190
Completed count:-4191
Completed count:-4192
Error at count:-4193
URL:-https://api.hubapi.com/contacts/v1/contact/vid/{0}/profile?hapikey=962e8ce2-2314-4e7f-8dab-77b7f59c270c
URL:-https://api.hubapi.com/contacts/v1/contact/?hapikey=962e8ce2-2314-4e7f-8dab-77b7f59c270c
Response exception:System.Net.HttpWebResponse
Error records:-{"message":"Contact already exists","identityProfile":{"vid":63955056,"identity":[{"value":"6cc2cae0-20b0-4337-bd63-1096ea04eae8","type":"LEAD_GUID","timestamp":1594132388154},{"value":"iseoluwasanyaolu2017@yahoo.com","type":"EMAIL","timestamp":1598887121033,"isPrimary":true}],"linkedVid":[],"isContact":true,"createdWithoutEmail":true,"savedAtTimestamp":1598887121069,"promotedToContact":true},"errors":[{"message":"A contact with email iseoluwasanyaolu2017@yahoo.com already exists.","in":"email"}],"status":"error","correlationId":"96f39302-0581-4fed-9247-b2d71004f754","category":"OBJECT_ALREADY_EXISTS","error":"CONTACT_EXISTS"}
Completed count:-4193
Error at count:-4194
URL:-https://api.hubapi.com/contacts/v1/contact/vid/{0}/profile?hapikey=962e8ce2-2314-4e7f-8dab-77b7f59c270c
URL:-https://api.hubapi.com/contacts/v1/contact/?hapikey=962e8ce2-2314-4e7f-8dab-77b7f59c270c
Response exception:System.Net.HttpWebResponse
Error records:-{"message":"Contact already exists","identityProfile":{"vid":62138747,"identity":[{"value":"ifzatabbassum1002@gmail.com","type":"EMAIL","timestamp":1593710891094,"isPrimary":true},{"value":"0435dd0a-479c-4422-9e99-0c74fd515082","type":"LEAD_GUID","timestamp":1593710891110}],"linkedVid":[],"isContact":true,"savedAtTimestamp":1593710891113},"errors":[{"message":"A contact with email ifzatabbassum1002@gmail.com already exists.","in":"email"}],"status":"error","correlationId":"ff9c25db-9c64-42ca-8b94-76f0cd465201","category":"OBJECT_ALREADY_EXISTS","error":"CONTACT_EXISTS"}
Completed count:-4194
