Completed count:-741
Completed count:-742
Error at count:-743
URL:-https://api.hubapi.com/contacts/v1/contact/vid/{0}/profile?hapikey=962e8ce2-2314-4e7f-8dab-77b7f59c270c
URL:-https://api.hubapi.com/contacts/v1/contact/?hapikey=962e8ce2-2314-4e7f-8dab-77b7f59c270c
Response exception:System.Net.HttpWebResponse
Error records:-{"message":"Contact already exists","identityProfile":{"vid":64019422,"identity":[{"value":"23b02424-4d5a-4b42-a7d0-aa23a3acf79e","type":"LEAD_GUID","timestamp":1594132399369},{"value":"joaoolival1974@gmail.com","type":"EMAIL","timestamp":1598887124008,"isPrimary":true}],"linkedVid":[],"isContact":true,"createdWithoutEmail":true,"savedAtTimestamp":1598887124046,"promotedToContact":true},"errors":[{"message":"A contact with email joaoolival1974@gmail.com already exists.","in":"email"}],"status":"error","correlationId":"f4b7bbcb-6ac7-492c-8adc-cef635682d7d","category":"OBJECT_ALREADY_EXISTS","error":"CONTACT_EXISTS"}
Completed count:-743
Completed count:-744
Completed count:-745
Completed count:-746
Error at count:-747
URL:-https://api.hubapi.com/contacts/v1/contact/vid/{0}/profile?hapikey=962e8ce2-2314-4e7f-8dab-77b7f59c270c
URL:-https://api.hubapi.com/contacts/v1/contact/?hapikey=962e8ce2-2314-4e7f-8dab-77b7f59c270c
Response exception:System.Net.HttpWebResponse
Error records:-{"message":"Contact already exists","identityProfile":{"vid":62139667,"identity":[{"value":"b8b3de3a-f098-47db-9ace-3166e9ccc813","type":"LEAD_GUID","timestamp":1593710892471},{"value":"adjalme.carralho@gmail.com","type":"EMAIL","timestamp":1599662181236,"isPrimary":true}],"linkedVid":[],"isContact":true,"savedAtTimestamp":1599662181289},"errors":[{"message":"A contact with email adjalme.carralho@gmail.com already exists.","in":"email"}],"status":"error","correlationId":"b57c2edf-e27c-435a-974a-13bd04b5f71b","category":"OBJECT_ALREADY_EXISTS","error":"CONTACT_EXISTS"}
Completed count:-747
Completed count:-748
Completed count:-749
Completed count:-750
Completed count:-751
Completed count:-752
Error at count:-753
URL:-https://api.hubapi.com/contacts/v1/contact/vid/{0}/profile?hapikey=962e8ce2-2314-4e7f-8dab-77b7f59c270c
URL:-https://api.hubapi.com/contacts/v1/contact/?hapikey=962e8ce2-2314-4e7f-8dab-77b7f59c270c
Response exception:System.Net.HttpWebResponse
Error records:-{"validationResults":[{"isValid":false,"message":"credit/debit card was not one of the allowed options: [label: \"PayPal\"\nvalue: \"PayPal\"\ndisplay_order: 0\ndouble_data: 0.0\nhidden: false\ndescription: \"\"\nread_only: false\n, label: \"Paysafe\"\nvalue: \"Paysafe\"\ndisplay_order: 1\ndouble_data: 0.0\nhidden: false\ndescription: \"\"\nread_only: false\n, label: \"Others\"\nvalue: \"Others\"\ndisplay_order: 2\ndouble_data: 0.0\nhidden: false\ndescription: \"\"\nread_only: false\n, label: \"Credit/Debit card \"\nvalue: \"Credit/Debit card\"\ndisplay_order: 3\ndouble_data: 0.0\nhidden: false\ndescription: \"\"\nread_only: false\n, label: \"RealX\"\nvalue: \"RealX\"\ndisplay_order: 4\ndouble_data: 0.0\nhidden: false\ndescription: \"\"\nread_only: false\n]","error":"INVALID_OPTION","name":"latest_topup_payment_method_used"}],"status":"error","message":"Property values were not valid","correlationId":"00d7efc8-40bf-4343-ad19-235162685e48"}
Completed count:-753
Error at count:-754
URL:-https://api.hubapi.com/contacts/v1/contact/vid/{0}/profile?hapikey=962e8ce2-2314-4e7f-8dab-77b7f59c270c
URL:-https://api.hubapi.com/contacts/v1/contact/?hapikey=962e8ce2-2314-4e7f-8dab-77b7f59c270c
Response exception:System.Net.HttpWebResponse
Error records:-{"message":"Contact already exists","identityProfile":{"vid":62916619,"identity":[{"value":"12efb775-d3f4-4219-9caa-ee07d26df3d4","type":"LEAD_GUID","timestamp":1593882970843},{"value":"ramunaskrasuckis@gmail.com","type":"EMAIL","timestamp":1599588130406,"isPrimary":true}],"linkedVid":[],"isContact":true,"savedAtTimestamp":1599588130456},"errors":[{"message":"A contact with email ramunaskrasuckis@gmail.com already exists.","in":"email"}],"status":"error","correlationId":"1360d1a2-fcff-448b-892f-a9371fbe99e0","category":"OBJECT_ALREADY_EXISTS","error":"CONTACT_EXISTS"}
Completed count:-754
Error at count:-755
URL:-https://api.hubapi.com/contacts/v1/contact/vid/{0}/profile?hapikey=962e8ce2-2314-4e7f-8dab-77b7f59c270c
URL:-https://api.hubapi.com/contacts/v1/contact/?hapikey=962e8ce2-2314-4e7f-8dab-77b7f59c270c
Response exception:System.Net.HttpWebResponse
Error records:-{"message":"Contact already exists","identityProfile":{"vid":435500,"identity":[{"value":"petio8208bg@gmail.com","type":"EMAIL","timestamp":1576130871905,"isPrimary":true},{"value":"6cbace98-8e21-4b9a-a21c-c1a1fe18a65f","type":"LEAD_GUID","timestamp":1576130871912}],"linkedVid":[],"isContact":true,"savedAtTimestamp":1576130871914},"errors":[{"message":"A contact with email petio8208bg@gmail.com already exists.","in":"email"}],"status":"error","correlationId":"5d6dd632-03c8-4b51-87e1-46406df59b24","category":"OBJECT_ALREADY_EXISTS","error":"CONTACT_EXISTS"}
Completed count:-755
Completed count:-756
Error at count:-757
URL:-https://api.hubapi.com/contacts/v1/contact/vid/{0}/profile?hapikey=962e8ce2-2314-4e7f-8dab-77b7f59c270c
URL:-https://api.hubapi.com/contacts/v1/contact/?hapikey=962e8ce2-2314-4e7f-8dab-77b7f59c270c
Response exception:System.Net.HttpWebResponse
Error records:-{"message":"Contact already exists","identityProfile":{"vid":62907004,"identity":[{"value":"dishaptl@hotmail.co.uk","type":"EMAIL","timestamp":1593882961650,"isPrimary":true},{"value":"5ebb4b40-5378-44cf-9fb2-2d66e1f4a21d","type":"LEAD_GUID","timestamp":1593882961657}],"linkedVid":[],"isContact":true,"savedAtTimestamp":1593882961658},"errors":[{"message":"A contact with email dishaptl@hotmail.co.uk already exists.","in":"email"}],"status":"error","correlationId":"f1da1ff4-f102-466b-89c8-127f46df3bd2","category":"OBJECT_ALREADY_EXISTS","error":"CONTACT_EXISTS"}
Completed count:-757
Completed count:-758
Error at count:-759
URL:-https://api.hubapi.com/contacts/v1/contact/vid/{0}/profile?hapikey=962e8ce2-2314-4e7f-8dab-77b7f59c270c
URL:-https://api.hubapi.com/contacts/v1/contact/?hapikey=962e8ce2-2314-4e7f-8dab-77b7f59c270c
Response exception:System.Net.HttpWebResponse
Error records:-{"message":"Contact already exists","identityProfile":{"vid":2703801,"identity":[{"value":"ionuttrandafir1982@gmail.com","type":"EMAIL","timestamp":1577086187435,"isPrimary":true},{"value":"7968af8c-93ae-4346-b7e5-ac5a01d29f25","type":"LEAD_GUID","timestamp":1577086196089}],"linkedVid":[20396951,59133351,54748101,42560101,53596001,30326908,55184351,42983701,54745951,53787401,30752106],"isContact":true,"savedAtTimestamp":1592989825351},"errors":[{"message":"A contact with email ionuttrandafir1982@gmail.com already exists.","in":"email"}],"status":"error","correlationId":"38f383eb-4ef6-4e63-b6d4-b8313a1abda1","category":"OBJECT_ALREADY_EXISTS","error":"CONTACT_EXISTS"}
Completed count:-759
Completed count:-760
Completed count:-761
Completed count:-762
Completed count:-763
Error at count:-764
URL:-https://api.hubapi.com/contacts/v1/contact/vid/{0}/profile?hapikey=962e8ce2-2314-4e7f-8dab-77b7f59c270c
URL:-https://api.hubapi.com/contacts/v1/contact/?hapikey=962e8ce2-2314-4e7f-8dab-77b7f59c270c
Response exception:System.Net.HttpWebResponse
Error records:-{"message":"Contact already exists","identityProfile":{"vid":62916294,"identity":[{"value":"e797b009-2704-4943-ba71-ad6227ccc509","type":"LEAD_GUID","timestamp":1593882971466},{"value":"jkulka221@interia.pl","type":"EMAIL","timestamp":1598887121836,"isPrimary":true}],"linkedVid":[],"isContact":true,"savedAtTimestamp":1598887121883},"errors":[{"message":"A contact with email jkulka221@interia.pl already exists.","in":"email"}],"status":"error","correlationId":"a83a0e20-3359-41b3-b883-c53e03c42375","category":"OBJECT_ALREADY_EXISTS","error":"CONTACT_EXISTS"}
Completed count:-764
Error at count:-765
URL:-https://api.hubapi.com/contacts/v1/contact/vid/{0}/profile?hapikey=962e8ce2-2314-4e7f-8dab-77b7f59c270c
URL:-https://api.hubapi.com/contacts/v1/contact/?hapikey=962e8ce2-2314-4e7f-8dab-77b7f59c270c
Response exception:System.Net.HttpWebResponse
Error records:-{"message":"Contact already exists","identityProfile":{"vid":62958567,"identity":[{"value":"sergiolopes068@gmail.com","type":"EMAIL","timestamp":1593882987566,"isPrimary":true},{"value":"04130b2c-1cfc-41f5-9d10-10e60e05c393","type":"LEAD_GUID","timestamp":1593882987573}],"linkedVid":[],"isContact":true,"savedAtTimestamp":1593882987575},"errors":[{"message":"A contact with email sergiolopes068@gmail.com already exists.","in":"email"}],"status":"error","correlationId":"02b44ad5-21d4-4a88-9434-d7b521041420","category":"OBJECT_ALREADY_EXISTS","error":"CONTACT_EXISTS"}
Completed count:-765
Completed count:-766
Completed count:-767
Error at count:-768
URL:-https://api.hubapi.com/contacts/v1/contact/vid/{0}/profile?hapikey=962e8ce2-2314-4e7f-8dab-77b7f59c270c
URL:-https://api.hubapi.com/contacts/v1/contact/?hapikey=962e8ce2-2314-4e7f-8dab-77b7f59c270c
Response exception:System.Net.HttpWebResponse
Error records:-{"message":"Contact already exists","identityProfile":{"vid":62840728,"identity":[{"value":"5282cf2f-1f8b-442f-b40b-a59dfb8938c4","type":"LEAD_GUID","timestamp":1593882919455},{"value":"taiwokayode2003@yahoo.com","type":"EMAIL","timestamp":1598887121880,"isPrimary":true}],"linkedVid":[],"isContact":true,"savedAtTimestamp":1598887121917},"errors":[{"message":"A contact with email taiwokayode2003@yahoo.com already exists.","in":"email"}],"status":"error","correlationId":"619b325f-5cd2-47fd-9e22-2c8dd5a364d2","category":"OBJECT_ALREADY_EXISTS","error":"CONTACT_EXISTS"}
Completed count:-768
Completed count:-769
Completed count:-770
Error at count:-771
URL:-https://api.hubapi.com/contacts/v1/contact/vid/{0}/profile?hapikey=962e8ce2-2314-4e7f-8dab-77b7f59c270c
URL:-https://api.hubapi.com/contacts/v1/contact/?hapikey=962e8ce2-2314-4e7f-8dab-77b7f59c270c
Response exception:System.Net.HttpWebResponse
Error records:-{"message":"Contact already exists","identityProfile":{"vid":62883039,"identity":[{"value":"puchala.monika@gmail.com","type":"EMAIL","timestamp":1593882945434,"isPrimary":true},{"value":"6b63d320-9fd0-4772-b560-7917c0573d8f","type":"LEAD_GUID","timestamp":1593882945445}],"linkedVid":[],"isContact":true,"savedAtTimestamp":1593882945447},"errors":[{"message":"A contact with email puchala.monika@gmail.com already exists.","in":"email"}],"status":"error","correlationId":"93e595f7-7674-4c4b-a45f-59b7789ade0b","category":"OBJECT_ALREADY_EXISTS","error":"CONTACT_EXISTS"}
Completed count:-771
Completed count:-772
Error at count:-773
URL:-https://api.hubapi.com/contacts/v1/contact/vid/{0}/profile?hapikey=962e8ce2-2314-4e7f-8dab-77b7f59c270c
URL:-https://api.hubapi.com/contacts/v1/contact/?hapikey=962e8ce2-2314-4e7f-8dab-77b7f59c270c
Response exception:System.Net.HttpWebResponse
Error records:-{"message":"Contact already exists","identityProfile":{"vid":347151,"identity":[{"value":"mohassan262@gmail.com","type":"EMAIL","timestamp":1576511641370,"isPrimary":true},{"value":"c66205f8-d1c2-404b-86e0-5689f658a693","type":"LEAD_GUID","timestamp":1576511643314}],"linkedVid":[],"isContact":true,"savedAtTimestamp":1576511643318},"errors":[{"message":"A contact with email mohassan262@gmail.com already exists.","in":"email"}],"status":"error","correlationId":"9fd6c26e-1dff-4bb9-a8f2-bda1284fcfb7","category":"OBJECT_ALREADY_EXISTS","error":"CONTACT_EXISTS"}
Completed count:-773
Error at count:-774
URL:-https://api.hubapi.com/contacts/v1/contact/vid/{0}/profile?hapikey=962e8ce2-2314-4e7f-8dab-77b7f59c270c
URL:-https://api.hubapi.com/contacts/v1/contact/?hapikey=962e8ce2-2314-4e7f-8dab-77b7f59c270c
Response exception:System.Net.HttpWebResponse
Error records:-{"message":"Contact already exists","identityProfile":{"vid":63960436,"identity":[{"value":"b011323e-d479-46d1-aac3-0de57b693317","type":"LEAD_GUID","timestamp":1594132389748},{"value":"razawaqas@icloud.com","type":"EMAIL","timestamp":1598887124462,"isPrimary":true}],"linkedVid":[],"isContact":true,"createdWithoutEmail":true,"savedAtTimestamp":1598887124498,"promotedToContact":true},"errors":[{"message":"A contact with email razawaqas@icloud.com already exists.","in":"email"}],"status":"error","correlationId":"94bfe706-0757-44b9-9787-e131a9c2a7fe","category":"OBJECT_ALREADY_EXISTS","error":"CONTACT_EXISTS"}
Completed count:-774
Completed count:-775
Error at count:-776
URL:-https://api.hubapi.com/contacts/v1/contact/vid/{0}/profile?hapikey=962e8ce2-2314-4e7f-8dab-77b7f59c270c
URL:-https://api.hubapi.com/contacts/v1/contact/?hapikey=962e8ce2-2314-4e7f-8dab-77b7f59c270c
Response exception:System.Net.HttpWebResponse
Error records:-{"message":"Contact already exists","identityProfile":{"vid":62956584,"identity":[{"value":"maxsitheo@yahoo.com","type":"EMAIL","timestamp":1593882987987,"isPrimary":true},{"value":"7257102c-f89d-45ad-a7bf-3ca8c58b1d71","type":"LEAD_GUID","timestamp":1593882987996}],"linkedVid":[],"isContact":true,"savedAtTimestamp":1593882987998},"errors":[{"message":"A contact with email maxsitheo@yahoo.com already exists.","in":"email"}],"status":"error","correlationId":"20188302-0078-4182-bd6f-a7131c81980d","category":"OBJECT_ALREADY_EXISTS","error":"CONTACT_EXISTS"}
Completed count:-776
Error at count:-777
URL:-https://api.hubapi.com/contacts/v1/contact/vid/{0}/profile?hapikey=962e8ce2-2314-4e7f-8dab-77b7f59c270c
URL:-https://api.hubapi.com/contacts/v1/contact/?hapikey=962e8ce2-2314-4e7f-8dab-77b7f59c270c
Response exception:System.Net.HttpWebResponse
Error records:-{"message":"Contact already exists","identityProfile":{"vid":55185451,"identity":[{"value":"elledone@hotmail.co.uk","type":"EMAIL","timestamp":1591978533605,"isPrimary":true},{"value":"c2e43d55-30e8-4aa1-b2ce-0ae9f9f96972","type":"LEAD_GUID","timestamp":1591978534231}],"linkedVid":[],"isContact":true,"savedAtTimestamp":1591978534234},"errors":[{"message":"A contact with email elledone@hotmail.co.uk already exists.","in":"email"}],"status":"error","correlationId":"dd480050-5e61-47bf-a552-21c4f2964c26","category":"OBJECT_ALREADY_EXISTS","error":"CONTACT_EXISTS"}
Completed count:-777
Completed count:-778
Completed count:-779
Completed count:-780
Error at count:-781
URL:-https://api.hubapi.com/contacts/v1/contact/vid/{0}/profile?hapikey=962e8ce2-2314-4e7f-8dab-77b7f59c270c
URL:-https://api.hubapi.com/contacts/v1/contact/?hapikey=962e8ce2-2314-4e7f-8dab-77b7f59c270c
Response exception:System.Net.HttpWebResponse
Error records:-{"message":"Contact already exists","identityProfile":{"vid":62819658,"identity":[{"value":"lilyaniholat@mail.ru","type":"EMAIL","timestamp":1593882903644,"isPrimary":true},{"value":"c28da771-b130-4b50-a4fd-fd81beb7d7b2","type":"LEAD_GUID","timestamp":1593882903653}],"linkedVid":[],"isContact":true,"savedAtTimestamp":1593882903656},"errors":[{"message":"A contact with email lilyaniholat@mail.ru already exists.","in":"email"}],"status":"error","correlationId":"04fcca53-6f38-43de-b620-748847204f27","category":"OBJECT_ALREADY_EXISTS","error":"CONTACT_EXISTS"}
Completed count:-781
Completed count:-782
Completed count:-783
Completed count:-784
Completed count:-785
Completed count:-786
Completed count:-787
Completed count:-788
Error at count:-789
URL:-https://api.hubapi.com/contacts/v1/contact/vid/{0}/profile?hapikey=962e8ce2-2314-4e7f-8dab-77b7f59c270c
URL:-https://api.hubapi.com/contacts/v1/contact/?hapikey=962e8ce2-2314-4e7f-8dab-77b7f59c270c
Response exception:System.Net.HttpWebResponse
Error records:-{"message":"Contact already exists","identityProfile":{"vid":62919407,"identity":[{"value":"alan1850@wp.pl","type":"EMAIL","timestamp":1593882973955,"isPrimary":true},{"value":"dc2d6378-b982-48a0-9580-27eb6e677160","type":"LEAD_GUID","timestamp":1593882973969}],"linkedVid":[],"isContact":true,"savedAtTimestamp":1593882973972},"errors":[{"message":"A contact with email alan1850@wp.pl already exists.","in":"email"}],"status":"error","correlationId":"34884f3b-8152-488e-8bfb-97d099cce55c","category":"OBJECT_ALREADY_EXISTS","error":"CONTACT_EXISTS"}
Completed count:-789
Completed count:-790
Completed count:-791
Completed count:-792
Error at count:-793
URL:-https://api.hubapi.com/contacts/v1/contact/vid/{0}/profile?hapikey=962e8ce2-2314-4e7f-8dab-77b7f59c270c
URL:-https://api.hubapi.com/contacts/v1/contact/?hapikey=962e8ce2-2314-4e7f-8dab-77b7f59c270c
Response exception:System.Net.HttpWebResponse
Error records:-{"message":"Contact already exists","identityProfile":{"vid":62883879,"identity":[{"value":"shivshankaraiwale@gmail.com","type":"EMAIL","timestamp":1593882947028,"isPrimary":true},{"value":"3483c52a-014a-41d3-bfd8-5bc5bc09196a","type":"LEAD_GUID","timestamp":1593882947036}],"linkedVid":[],"isContact":true,"savedAtTimestamp":1593882947038},"errors":[{"message":"A contact with email shivshankaraiwale@gmail.com already exists.","in":"email"}],"status":"error","correlationId":"14a2c2b8-6126-42c3-893a-5d2b32501a79","category":"OBJECT_ALREADY_EXISTS","error":"CONTACT_EXISTS"}
Completed count:-793
Error at count:-794
URL:-https://api.hubapi.com/contacts/v1/contact/vid/{0}/profile?hapikey=962e8ce2-2314-4e7f-8dab-77b7f59c270c
URL:-https://api.hubapi.com/contacts/v1/contact/?hapikey=962e8ce2-2314-4e7f-8dab-77b7f59c270c
Response exception:System.Net.HttpWebResponse
Error records:-{"message":"Contact already exists","identityProfile":{"vid":62973191,"identity":[{"value":"salmanmerchant546@gmail.com","type":"EMAIL","timestamp":1593883005458,"isPrimary":true},{"value":"752173f0-db16-4f7b-ad33-cbf09de4d9a0","type":"LEAD_GUID","timestamp":1593883005466}],"linkedVid":[],"isContact":true,"savedAtTimestamp":1593883005468},"errors":[{"message":"A contact with email salmanmerchant546@gmail.com already exists.","in":"email"}],"status":"error","correlationId":"a7207f83-9860-417a-b122-d1af612be5bd","category":"OBJECT_ALREADY_EXISTS","error":"CONTACT_EXISTS"}
Completed count:-794
Error at count:-795
URL:-https://api.hubapi.com/contacts/v1/contact/vid/{0}/profile?hapikey=962e8ce2-2314-4e7f-8dab-77b7f59c270c
URL:-https://api.hubapi.com/contacts/v1/contact/?hapikey=962e8ce2-2314-4e7f-8dab-77b7f59c270c
Response exception:System.Net.HttpWebResponse
Error records:-{"message":"Contact already exists","identityProfile":{"vid":74093501,"identity":[{"value":"barbara.tajti@gmail.com","type":"EMAIL","timestamp":1596525456621,"isPrimary":true},{"value":"6593300e-86f9-4a3d-a01d-a62e0cd85f4a","type":"LEAD_GUID","timestamp":1596525456648}],"linkedVid":[],"isContact":true,"savedAtTimestamp":1596525456652},"errors":[{"message":"A contact with email barbara.tajti@gmail.com already exists.","in":"email"}],"status":"error","correlationId":"ba6cdcfc-0d9c-458a-afdf-5174037f6c8f","category":"OBJECT_ALREADY_EXISTS","error":"CONTACT_EXISTS"}
Completed count:-795
Error at count:-796
URL:-https://api.hubapi.com/contacts/v1/contact/vid/{0}/profile?hapikey=962e8ce2-2314-4e7f-8dab-77b7f59c270c
URL:-https://api.hubapi.com/contacts/v1/contact/?hapikey=962e8ce2-2314-4e7f-8dab-77b7f59c270c
Response exception:System.Net.HttpWebResponse
Error records:-{"message":"Contact already exists","identityProfile":{"vid":36080651,"identity":[{"value":"ukguri65@gmail.com","type":"EMAIL","timestamp":1587226364640,"isPrimary":true},{"value":"f6680fd6-d674-4f38-b784-42f53e271a51","type":"LEAD_GUID","timestamp":1587226365462}],"linkedVid":[41171601,39616651,37962651,37963451],"isContact":true,"savedAtTimestamp":1588442477178},"errors":[{"message":"A contact with email ukguri65@gmail.com already exists.","in":"email"}],"status":"error","correlationId":"527ec45c-9b30-4e7c-a2cc-b4830d844353","category":"OBJECT_ALREADY_EXISTS","error":"CONTACT_EXISTS"}
Completed count:-796
Error at count:-797
URL:-https://api.hubapi.com/contacts/v1/contact/vid/{0}/profile?hapikey=962e8ce2-2314-4e7f-8dab-77b7f59c270c
URL:-https://api.hubapi.com/contacts/v1/contact/?hapikey=962e8ce2-2314-4e7f-8dab-77b7f59c270c
Response exception:System.Net.HttpWebResponse
Error records:-{"message":"Contact already exists","identityProfile":{"vid":84128002,"identity":[{"value":"usmansuleman487@gmail.com","type":"EMAIL","timestamp":1599038843829,"isPrimary":true},{"value":"b572666e-832a-4916-95ac-587f5eac410d","type":"LEAD_GUID","timestamp":1599038843843}],"linkedVid":[],"isContact":true,"savedAtTimestamp":1599038843845},"errors":[{"message":"A contact with email usmansuleman487@gmail.com already exists.","in":"email"}],"status":"error","correlationId":"bd5a1653-5d07-4c5b-ab32-88f81ace30f4","category":"OBJECT_ALREADY_EXISTS","error":"CONTACT_EXISTS"}
Completed count:-797
Error at count:-798
URL:-https://api.hubapi.com/contacts/v1/contact/vid/{0}/profile?hapikey=962e8ce2-2314-4e7f-8dab-77b7f59c270c
URL:-https://api.hubapi.com/contacts/v1/contact/?hapikey=962e8ce2-2314-4e7f-8dab-77b7f59c270c
Response exception:System.Net.HttpWebResponse
Error records:-{"message":"Contact already exists","identityProfile":{"vid":62863344,"identity":[{"value":"flor007827@hotmail.com","type":"EMAIL","timestamp":1593882929695,"isPrimary":true},{"value":"fad88f2f-5fbe-4001-b424-bc59bf90037d","type":"LEAD_GUID","timestamp":1593882929703}],"linkedVid":[],"isContact":true,"savedAtTimestamp":1593882929706},"errors":[{"message":"A contact with email flor007827@hotmail.com already exists.","in":"email"}],"status":"error","correlationId":"c3343eab-bca4-482d-b5ec-1b30227069a9","category":"OBJECT_ALREADY_EXISTS","error":"CONTACT_EXISTS"}
Completed count:-798
Error at count:-799
URL:-https://api.hubapi.com/contacts/v1/contact/vid/{0}/profile?hapikey=962e8ce2-2314-4e7f-8dab-77b7f59c270c
URL:-https://api.hubapi.com/contacts/v1/contact/?hapikey=962e8ce2-2314-4e7f-8dab-77b7f59c270c
Response exception:System.Net.HttpWebResponse
Error records:-{"message":"Contact already exists","identityProfile":{"vid":7181951,"identity":[{"value":"1e32595f-3ce4-4477-b1f7-f8e046fc222a","type":"LEAD_GUID","timestamp":1579085418813},{"value":"ministeruleducatieicercetarii@gmail.com","type":"EMAIL","timestamp":1593882940175,"isPrimary":true},{"value":"floruta_radu@yahoo.com","type":"EMAIL","timestamp":1579609076745,"isSecondary":true}],"linkedVid":[],"isContact":true,"savedAtTimestamp":1593882940218},"errors":[{"message":"A contact with email ministeruleducatieicercetarii@gmail.com already exists.","in":"email"}],"status":"error","correlationId":"61bafd3f-5b61-44fd-a0ca-10b416d1511e","category":"OBJECT_ALREADY_EXISTS","error":"CONTACT_EXISTS"}
Completed count:-799
Error at count:-800
URL:-https://api.hubapi.com/contacts/v1/contact/vid/{0}/profile?hapikey=962e8ce2-2314-4e7f-8dab-77b7f59c270c
URL:-https://api.hubapi.com/contacts/v1/contact/?hapikey=962e8ce2-2314-4e7f-8dab-77b7f59c270c
Response exception:System.Net.HttpWebResponse
Error records:-{"message":"Contact already exists","identityProfile":{"vid":436934,"identity":[{"value":"brizgar@gmail.com","type":"EMAIL","timestamp":1576130872909,"isPrimary":true},{"value":"b97a0fdd-e3f9-4ff0-8fd7-513cdd7ce013","type":"LEAD_GUID","timestamp":1576130872919}],"linkedVid":[63907433],"isContact":true,"savedAtTimestamp":1594127565979},"errors":[{"message":"A contact with email brizgar@gmail.com already exists.","in":"email"}],"status":"error","correlationId":"daca83df-88a9-43e2-9b24-c41cb17f02e6","category":"OBJECT_ALREADY_EXISTS","error":"CONTACT_EXISTS"}
Completed count:-800
Error at count:-801
URL:-https://api.hubapi.com/contacts/v1/contact/vid/{0}/profile?hapikey=962e8ce2-2314-4e7f-8dab-77b7f59c270c
URL:-https://api.hubapi.com/contacts/v1/contact/?hapikey=962e8ce2-2314-4e7f-8dab-77b7f59c270c
Response exception:System.Net.HttpWebResponse
Error records:-{"message":"Contact already exists","identityProfile":{"vid":62937716,"identity":[{"value":"22c86d37-b5b0-41ce-8579-facd70f755d1","type":"LEAD_GUID","timestamp":1593882981539},{"value":"lucky64@interia.pl","type":"EMAIL","timestamp":1599581901933,"isPrimary":true}],"linkedVid":[],"isContact":true,"createdWithoutEmail":true,"savedAtTimestamp":1599581901988,"promotedToContact":true},"errors":[{"message":"A contact with email lucky64@interia.pl already exists.","in":"email"}],"status":"error","correlationId":"8c32136d-ff25-4d1b-aa27-1a3f1f97efde","category":"OBJECT_ALREADY_EXISTS","error":"CONTACT_EXISTS"}
Completed count:-801
Error at count:-802
URL:-https://api.hubapi.com/contacts/v1/contact/vid/{0}/profile?hapikey=962e8ce2-2314-4e7f-8dab-77b7f59c270c
URL:-https://api.hubapi.com/contacts/v1/contact/?hapikey=962e8ce2-2314-4e7f-8dab-77b7f59c270c
Response exception:System.Net.HttpWebResponse
Error records:-{"message":"Contact already exists","identityProfile":{"vid":62839749,"identity":[{"value":"9e6b7f44-6b74-4985-a23c-89da9bc6b4f6","type":"LEAD_GUID","timestamp":1593882919049},{"value":"alicja.keskin@icloud.com","type":"EMAIL","timestamp":1598887118764,"isPrimary":true}],"linkedVid":[],"isContact":true,"savedAtTimestamp":1598887118806},"errors":[{"message":"A contact with email alicja.keskin@icloud.com already exists.","in":"email"}],"status":"error","correlationId":"bebd7432-8e1f-471c-a136-b2fd47678e31","category":"OBJECT_ALREADY_EXISTS","error":"CONTACT_EXISTS"}
Completed count:-802
Error at count:-803
URL:-https://api.hubapi.com/contacts/v1/contact/vid/{0}/profile?hapikey=962e8ce2-2314-4e7f-8dab-77b7f59c270c
URL:-https://api.hubapi.com/contacts/v1/contact/?hapikey=962e8ce2-2314-4e7f-8dab-77b7f59c270c
Response exception:System.Net.HttpWebResponse
Error records:-{"message":"Contact already exists","identityProfile":{"vid":62862247,"identity":[{"value":"davidleehunt1981@gmail.com","type":"EMAIL","timestamp":1593882929856,"isPrimary":true},{"value":"845bedb9-c7df-43b3-a171-0d72eeab7b86","type":"LEAD_GUID","timestamp":1593882929863}],"linkedVid":[],"isContact":true,"savedAtTimestamp":1593882929865},"errors":[{"message":"A contact with email davidleehunt1981@gmail.com already exists.","in":"email"}],"status":"error","correlationId":"c04baf68-4588-479b-b836-4c6bdfa4d948","category":"OBJECT_ALREADY_EXISTS","error":"CONTACT_EXISTS"}
Completed count:-803
Completed count:-804
Error at count:-805
URL:-https://api.hubapi.com/contacts/v1/contact/vid/{0}/profile?hapikey=962e8ce2-2314-4e7f-8dab-77b7f59c270c
URL:-https://api.hubapi.com/contacts/v1/contact/?hapikey=962e8ce2-2314-4e7f-8dab-77b7f59c270c
Response exception:System.Net.HttpWebResponse
Error records:-{"message":"Contact already exists","identityProfile":{"vid":87551,"identity":[{"value":"rabbanikhan2001@gmail.com","type":"EMAIL","timestamp":1575990121409,"isPrimary":true},{"value":"011758ca-f2f4-49df-a38c-79f3ffcd1b24","type":"LEAD_GUID","timestamp":1575990123664}],"linkedVid":[38036001,38035951,28131907,57792801,51070201,19575001,38042551,3530401,55730951,38035901,42496951],"isContact":true,"savedAtTimestamp":1592661040197},"errors":[{"message":"A contact with email rabbanikhan2001@gmail.com already exists.","in":"email"}],"status":"error","correlationId":"78ea5460-6a02-45e0-b054-a803cbf2cd33","category":"OBJECT_ALREADY_EXISTS","error":"CONTACT_EXISTS"}
Completed count:-805
Completed count:-806
Error at count:-807
URL:-https://api.hubapi.com/contacts/v1/contact/vid/{0}/profile?hapikey=962e8ce2-2314-4e7f-8dab-77b7f59c270c
URL:-https://api.hubapi.com/contacts/v1/contact/?hapikey=962e8ce2-2314-4e7f-8dab-77b7f59c270c
Response exception:System.Net.HttpWebResponse
Error records:-{"message":"Contact already exists","identityProfile":{"vid":62880568,"identity":[{"value":"robert.korus@btinternet.com","type":"EMAIL","timestamp":1593882938136,"isPrimary":true},{"value":"09091306-a2fd-4edd-b317-795575c4316e","type":"LEAD_GUID","timestamp":1593882938146}],"linkedVid":[],"isContact":true,"savedAtTimestamp":1593882938148},"errors":[{"message":"A contact with email robert.korus@btinternet.com already exists.","in":"email"}],"status":"error","correlationId":"881a8050-f20f-4af3-a393-0871da90efae","category":"OBJECT_ALREADY_EXISTS","error":"CONTACT_EXISTS"}
Completed count:-807
Error at count:-808
URL:-https://api.hubapi.com/contacts/v1/contact/vid/{0}/profile?hapikey=962e8ce2-2314-4e7f-8dab-77b7f59c270c
URL:-https://api.hubapi.com/contacts/v1/contact/?hapikey=962e8ce2-2314-4e7f-8dab-77b7f59c270c
Response exception:System.Net.HttpWebResponse
Error records:-{"message":"Contact already exists","identityProfile":{"vid":62962314,"identity":[{"value":"mrmoth2058@gmail.com","type":"EMAIL","timestamp":1593882992297,"isPrimary":true},{"value":"f63f2f12-65ad-4aae-9a59-e172e13d3c62","type":"LEAD_GUID","timestamp":1593882992306}],"linkedVid":[],"isContact":true,"savedAtTimestamp":1593882992309},"errors":[{"message":"A contact with email mrmoth2058@gmail.com already exists.","in":"email"}],"status":"error","correlationId":"9291df73-7608-41d3-91e0-1777d8b77a66","category":"OBJECT_ALREADY_EXISTS","error":"CONTACT_EXISTS"}
Completed count:-808
Error at count:-809
URL:-https://api.hubapi.com/contacts/v1/contact/vid/{0}/profile?hapikey=962e8ce2-2314-4e7f-8dab-77b7f59c270c
URL:-https://api.hubapi.com/contacts/v1/contact/?hapikey=962e8ce2-2314-4e7f-8dab-77b7f59c270c
Response exception:System.Net.HttpWebResponse
Error records:-{"message":"Contact already exists","identityProfile":{"vid":19180851,"identity":[{"value":"roger_tomlinson65@hotmail.com","type":"EMAIL","timestamp":1582763558655,"isPrimary":true},{"value":"6af6b6fd-3f1f-4f5b-85c7-b6a4447accd5","type":"LEAD_GUID","timestamp":1582763559158}],"linkedVid":[],"isContact":true,"savedAtTimestamp":1582763559161},"errors":[{"message":"A contact with email roger_tomlinson65@hotmail.com already exists.","in":"email"}],"status":"error","correlationId":"59499d9b-f0de-4a8a-9b77-26fb24f66d71","category":"OBJECT_ALREADY_EXISTS","error":"CONTACT_EXISTS"}
Completed count:-809
Error at count:-810
URL:-https://api.hubapi.com/contacts/v1/contact/vid/{0}/profile?hapikey=962e8ce2-2314-4e7f-8dab-77b7f59c270c
URL:-https://api.hubapi.com/contacts/v1/contact/?hapikey=962e8ce2-2314-4e7f-8dab-77b7f59c270c
Response exception:System.Net.HttpWebResponse
Error records:-{"message":"Contact already exists","identityProfile":{"vid":62866301,"identity":[{"value":"1c3f5a6c-7926-48c7-b260-1c603f9b6306","type":"LEAD_GUID","timestamp":1593882931500},{"value":"chowudhrylipol894@gmail.com","type":"EMAIL","timestamp":1599584776261,"isPrimary":true}],"linkedVid":[],"isContact":true,"savedAtTimestamp":1599584776366},"errors":[{"message":"A contact with email chowudhrylipol894@gmail.com already exists.","in":"email"}],"status":"error","correlationId":"2bc6da98-53c0-4ca6-b2bb-e4a992a8eb18","category":"OBJECT_ALREADY_EXISTS","error":"CONTACT_EXISTS"}
Completed count:-810
Error at count:-811
URL:-https://api.hubapi.com/contacts/v1/contact/vid/{0}/profile?hapikey=962e8ce2-2314-4e7f-8dab-77b7f59c270c
URL:-https://api.hubapi.com/contacts/v1/contact/?hapikey=962e8ce2-2314-4e7f-8dab-77b7f59c270c
Response exception:System.Net.HttpWebResponse
Error records:-{"message":"Contact already exists","identityProfile":{"vid":62142504,"identity":[{"value":"cdf43b24-f091-41d6-9b8a-db12b7647a8c","type":"LEAD_GUID","timestamp":1593710895630},{"value":"nfludder@gmail.com","type":"EMAIL","timestamp":1598887120078,"isPrimary":true}],"linkedVid":[89912801],"isContact":true,"savedAtTimestamp":1600285206340},"errors":[{"message":"A contact with email nfludder@gmail.com already exists.","in":"email"}],"status":"error","correlationId":"0dd2cea3-4032-447a-840f-edad27cc3e47","category":"OBJECT_ALREADY_EXISTS","error":"CONTACT_EXISTS"}
Completed count:-811
Completed count:-812
Error at count:-813
URL:-https://api.hubapi.com/contacts/v1/contact/vid/{0}/profile?hapikey=962e8ce2-2314-4e7f-8dab-77b7f59c270c
URL:-https://api.hubapi.com/contacts/v1/contact/?hapikey=962e8ce2-2314-4e7f-8dab-77b7f59c270c
Response exception:System.Net.HttpWebResponse
Error records:-{"message":"Contact already exists","identityProfile":{"vid":62850152,"identity":[{"value":"ahmedroky24@yahoo.com","type":"EMAIL","timestamp":1593882925519,"isPrimary":true},{"value":"c08b9fdf-0e1f-4556-90fe-f78cee585228","type":"LEAD_GUID","timestamp":1593882925529}],"linkedVid":[],"isContact":true,"savedAtTimestamp":1593882925531},"errors":[{"message":"A contact with email ahmedroky24@yahoo.com already exists.","in":"email"}],"status":"error","correlationId":"8cf8085a-640d-4591-b63a-dec6b4dc3fe5","category":"OBJECT_ALREADY_EXISTS","error":"CONTACT_EXISTS"}
Completed count:-813
Error at count:-814
URL:-https://api.hubapi.com/contacts/v1/contact/vid/{0}/profile?hapikey=962e8ce2-2314-4e7f-8dab-77b7f59c270c
URL:-https://api.hubapi.com/contacts/v1/contact/?hapikey=962e8ce2-2314-4e7f-8dab-77b7f59c270c
Response exception:System.Net.HttpWebResponse
Error records:-{"message":"Contact already exists","identityProfile":{"vid":41598951,"identity":[{"value":"plamen.ivanoff@gmail.com","type":"EMAIL","timestamp":1588575200211,"isPrimary":true},{"value":"743cc3ff-6e8b-491c-8c2c-732272a65241","type":"LEAD_GUID","timestamp":1588575201089}],"linkedVid":[54387451],"isContact":true,"savedAtTimestamp":1591774622957},"errors":[{"message":"A contact with email plamen.ivanoff@gmail.com already exists.","in":"email"}],"status":"error","correlationId":"6f21ed71-31e8-49c9-acc3-f418f1135050","category":"OBJECT_ALREADY_EXISTS","error":"CONTACT_EXISTS"}
Completed count:-814
Error at count:-815
URL:-https://api.hubapi.com/contacts/v1/contact/vid/{0}/profile?hapikey=962e8ce2-2314-4e7f-8dab-77b7f59c270c
URL:-https://api.hubapi.com/contacts/v1/contact/?hapikey=962e8ce2-2314-4e7f-8dab-77b7f59c270c
Response exception:System.Net.HttpWebResponse
Error records:-{"message":"Contact already exists","identityProfile":{"vid":62914647,"identity":[{"value":"didzejprzemo@gmail.com","type":"EMAIL","timestamp":1593882968964,"isPrimary":true},{"value":"76785286-0611-4b52-9dfd-a467defcd4d1","type":"LEAD_GUID","timestamp":1593882968970}],"linkedVid":[64073302],"isContact":true,"savedAtTimestamp":1594140699376},"errors":[{"message":"A contact with email didzejprzemo@gmail.com already exists.","in":"email"}],"status":"error","correlationId":"eb5ee5a4-40fc-4b8b-8e51-b25993ad1758","category":"OBJECT_ALREADY_EXISTS","error":"CONTACT_EXISTS"}
Completed count:-815
Error at count:-816
URL:-https://api.hubapi.com/contacts/v1/contact/vid/{0}/profile?hapikey=962e8ce2-2314-4e7f-8dab-77b7f59c270c
URL:-https://api.hubapi.com/contacts/v1/contact/?hapikey=962e8ce2-2314-4e7f-8dab-77b7f59c270c
Response exception:System.Net.HttpWebResponse
Error records:-{"message":"Contact already exists","identityProfile":{"vid":86512201,"identity":[{"value":"p.lodzinski@yahoo.co.uk","type":"EMAIL","timestamp":1599584990284,"isPrimary":true},{"value":"81739c56-fa37-44c4-9c55-2abe631c755b","type":"LEAD_GUID","timestamp":1599584990311}],"linkedVid":[],"isContact":true,"savedAtTimestamp":1599584990316},"errors":[{"message":"A contact with email p.lodzinski@yahoo.co.uk already exists.","in":"email"}],"status":"error","correlationId":"e7f29c59-7f1e-4d0f-86f2-37e8b429ef75","category":"OBJECT_ALREADY_EXISTS","error":"CONTACT_EXISTS"}
Completed count:-816
Error at count:-817
URL:-https://api.hubapi.com/contacts/v1/contact/vid/{0}/profile?hapikey=962e8ce2-2314-4e7f-8dab-77b7f59c270c
URL:-https://api.hubapi.com/contacts/v1/contact/?hapikey=962e8ce2-2314-4e7f-8dab-77b7f59c270c
Response exception:System.Net.HttpWebResponse
Error records:-{"message":"Contact already exists","identityProfile":{"vid":62864652,"identity":[{"value":"ewada_5792003@yahoo.co.uk","type":"EMAIL","timestamp":1593882930071,"isPrimary":true},{"value":"2f8fe59d-6a6e-456a-84ab-7d5e98b53c2b","type":"LEAD_GUID","timestamp":1593882930082}],"linkedVid":[],"isContact":true,"savedAtTimestamp":1593882930084},"errors":[{"message":"A contact with email ewada_5792003@yahoo.co.uk already exists.","in":"email"}],"status":"error","correlationId":"5acda03b-028c-4826-8481-a84b84ff0b86","category":"OBJECT_ALREADY_EXISTS","error":"CONTACT_EXISTS"}
Completed count:-817
Completed count:-818
Error at count:-819
URL:-https://api.hubapi.com/contacts/v1/contact/vid/{0}/profile?hapikey=962e8ce2-2314-4e7f-8dab-77b7f59c270c
URL:-https://api.hubapi.com/contacts/v1/contact/?hapikey=962e8ce2-2314-4e7f-8dab-77b7f59c270c
Response exception:System.Net.HttpWebResponse
Error records:-{"message":"Contact already exists","identityProfile":{"vid":62969708,"identity":[{"value":"rukeshppatel@gmail.com","type":"EMAIL","timestamp":1593882998740,"isPrimary":true},{"value":"742029b9-b5b3-46f1-81a1-ec331a3a78f3","type":"LEAD_GUID","timestamp":1593882998752}],"linkedVid":[],"isContact":true,"savedAtTimestamp":1593882998754},"errors":[{"message":"A contact with email rukeshppatel@gmail.com already exists.","in":"email"}],"status":"error","correlationId":"4e8dbb40-4b29-4889-bf35-2977df2bb89e","category":"OBJECT_ALREADY_EXISTS","error":"CONTACT_EXISTS"}
Completed count:-819
Completed count:-820
Completed count:-821
Error at count:-822
URL:-https://api.hubapi.com/contacts/v1/contact/vid/{0}/profile?hapikey=962e8ce2-2314-4e7f-8dab-77b7f59c270c
URL:-https://api.hubapi.com/contacts/v1/contact/?hapikey=962e8ce2-2314-4e7f-8dab-77b7f59c270c
Response exception:System.Net.HttpWebResponse
Error records:-{"message":"Contact already exists","identityProfile":{"vid":62882438,"identity":[{"value":"nafihaazad971@gmail.com","type":"EMAIL","timestamp":1593882942051,"isPrimary":true},{"value":"dd1d1db8-ce35-4dbf-99f8-5990b96a9e55","type":"LEAD_GUID","timestamp":1593882942063}],"linkedVid":[],"isContact":true,"savedAtTimestamp":1593882942066},"errors":[{"message":"A contact with email nafihaazad971@gmail.com already exists.","in":"email"}],"status":"error","correlationId":"3e7840a5-3c71-4b3f-b832-029e1c2e1d81","category":"OBJECT_ALREADY_EXISTS","error":"CONTACT_EXISTS"}
Completed count:-822
Error at count:-823
URL:-https://api.hubapi.com/contacts/v1/contact/vid/{0}/profile?hapikey=962e8ce2-2314-4e7f-8dab-77b7f59c270c
URL:-https://api.hubapi.com/contacts/v1/contact/?hapikey=962e8ce2-2314-4e7f-8dab-77b7f59c270c
Response exception:System.Net.HttpWebResponse
Error records:-{"message":"Contact already exists","identityProfile":{"vid":62877416,"identity":[{"value":"5a1b5dd4-7395-47cc-bcc9-85e97ea38a04","type":"LEAD_GUID","timestamp":1593882936903},{"value":"aneeanees90@gmail.com","type":"EMAIL","timestamp":1598887119373,"isPrimary":true}],"linkedVid":[],"isContact":true,"savedAtTimestamp":1598887119411},"errors":[{"message":"A contact with email aneeanees90@gmail.com already exists.","in":"email"}],"status":"error","correlationId":"b7eb414d-b0c0-4644-a68b-50830fc4b566","category":"OBJECT_ALREADY_EXISTS","error":"CONTACT_EXISTS"}
Completed count:-823
Completed count:-824
Error at count:-825
URL:-https://api.hubapi.com/contacts/v1/contact/vid/{0}/profile?hapikey=962e8ce2-2314-4e7f-8dab-77b7f59c270c
URL:-https://api.hubapi.com/contacts/v1/contact/?hapikey=962e8ce2-2314-4e7f-8dab-77b7f59c270c
Response exception:System.Net.HttpWebResponse
Error records:-{"message":"Contact already exists","identityProfile":{"vid":62908616,"identity":[{"value":"beharbrati@hotmail.co.uk","type":"EMAIL","timestamp":1593882962790,"isPrimary":true},{"value":"35697558-4ac9-41ab-8ed6-f1fe9bd68b5e","type":"LEAD_GUID","timestamp":1593882962802}],"linkedVid":[],"isContact":true,"savedAtTimestamp":1593882962805},"errors":[{"message":"A contact with email beharbrati@hotmail.co.uk already exists.","in":"email"}],"status":"error","correlationId":"fbe89536-04c7-4b01-9f12-c5a9cf86d6ff","category":"OBJECT_ALREADY_EXISTS","error":"CONTACT_EXISTS"}
Completed count:-825
Error at count:-826
URL:-https://api.hubapi.com/contacts/v1/contact/vid/{0}/profile?hapikey=962e8ce2-2314-4e7f-8dab-77b7f59c270c
URL:-https://api.hubapi.com/contacts/v1/contact/?hapikey=962e8ce2-2314-4e7f-8dab-77b7f59c270c
Response exception:System.Net.HttpWebResponse
Error records:-{"message":"Contact already exists","identityProfile":{"vid":62842027,"identity":[{"value":"rafzter02124@gmail.com","type":"EMAIL","timestamp":1593882920548,"isPrimary":true},{"value":"4a6fd7ed-14e8-4919-bdfa-76071b26472f","type":"LEAD_GUID","timestamp":1593882920560}],"linkedVid":[],"isContact":true,"savedAtTimestamp":1593882920562},"errors":[{"message":"A contact with email rafzter02124@gmail.com already exists.","in":"email"}],"status":"error","correlationId":"64d46065-05b7-418c-b3d3-20d39e24a7c9","category":"OBJECT_ALREADY_EXISTS","error":"CONTACT_EXISTS"}
Completed count:-826
Completed count:-827
Error at count:-828
URL:-https://api.hubapi.com/contacts/v1/contact/vid/{0}/profile?hapikey=962e8ce2-2314-4e7f-8dab-77b7f59c270c
URL:-https://api.hubapi.com/contacts/v1/contact/?hapikey=962e8ce2-2314-4e7f-8dab-77b7f59c270c
Response exception:System.Net.HttpWebResponse
Error records:-{"message":"Contact already exists","identityProfile":{"vid":62960775,"identity":[{"value":"e8ff4e1b-9d79-4bf9-a626-33ca2641bf32","type":"LEAD_GUID","timestamp":1593882990360},{"value":"ewa6922@wp.pl","type":"EMAIL","timestamp":1599586331716,"isPrimary":true}],"linkedVid":[],"isContact":true,"savedAtTimestamp":1599586331803},"errors":[{"message":"A contact with email ewa6922@wp.pl already exists.","in":"email"}],"status":"error","correlationId":"c920f00c-704d-4033-87b1-14d49073d138","category":"OBJECT_ALREADY_EXISTS","error":"CONTACT_EXISTS"}
