Error at count:-4420
URL:-https://api.hubapi.com/contacts/v1/contact/vid/{0}/profile?hapikey=962e8ce2-2314-4e7f-8dab-77b7f59c270c
URL:-https://api.hubapi.com/contacts/v1/contact/?hapikey=962e8ce2-2314-4e7f-8dab-77b7f59c270c
Response exception:System.Net.HttpWebResponse
Error records:-{"message":"Contact already exists","identityProfile":{"vid":62961990,"identity":[{"value":"42c5d355-2c7c-4de0-aa09-e90636947878","type":"LEAD_GUID","timestamp":1593882992454},{"value":"dzichta1968@gmail.com","type":"EMAIL","timestamp":1598890819237,"isPrimary":true}],"linkedVid":[],"isContact":true,"savedAtTimestamp":1598890819279},"errors":[{"message":"A contact with email dzichta1968@gmail.com already exists.","in":"email"}],"status":"error","correlationId":"98864f69-3234-4250-994d-4b43a1d71ad8","category":"OBJECT_ALREADY_EXISTS","error":"CONTACT_EXISTS"}
Completed count:-4420
Error at count:-4421
URL:-https://api.hubapi.com/contacts/v1/contact/vid/{0}/profile?hapikey=962e8ce2-2314-4e7f-8dab-77b7f59c270c
URL:-https://api.hubapi.com/contacts/v1/contact/?hapikey=962e8ce2-2314-4e7f-8dab-77b7f59c270c
Response exception:System.Net.HttpWebResponse
Error records:-{"message":"Contact already exists","identityProfile":{"vid":62894952,"identity":[{"value":"8a6eb37f-395d-4078-831b-b236b13e6738","type":"LEAD_GUID","timestamp":1593882952588},{"value":"jakstysfamily@icloud.com","type":"EMAIL","timestamp":1598890816467,"isPrimary":true}],"linkedVid":[],"isContact":true,"savedAtTimestamp":1598890816512},"errors":[{"message":"A contact with email jakstysfamily@icloud.com already exists.","in":"email"}],"status":"error","correlationId":"6899a20e-f5cd-43ac-9d82-973f6ebba2ec","category":"OBJECT_ALREADY_EXISTS","error":"CONTACT_EXISTS"}
Completed count:-4421
Completed count:-4422
Error at count:-4423
URL:-https://api.hubapi.com/contacts/v1/contact/vid/{0}/profile?hapikey=962e8ce2-2314-4e7f-8dab-77b7f59c270c
URL:-https://api.hubapi.com/contacts/v1/contact/?hapikey=962e8ce2-2314-4e7f-8dab-77b7f59c270c
Response exception:System.Net.HttpWebResponse
Error records:-{"message":"Contact already exists","identityProfile":{"vid":2470751,"identity":[{"value":"susanakinremi@yahoo.co.uk","type":"EMAIL","timestamp":1576953517214,"isPrimary":true},{"value":"927db1c7-01da-44d9-9451-6ce9034d8177","type":"LEAD_GUID","timestamp":1576953518609}],"linkedVid":[4002901],"isContact":true,"savedAtTimestamp":1577684707659},"errors":[{"message":"A contact with email susanakinremi@yahoo.co.uk already exists.","in":"email"}],"status":"error","correlationId":"cad9ed32-35ac-4943-ac63-d0af2e7ea068","category":"OBJECT_ALREADY_EXISTS","error":"CONTACT_EXISTS"}
Completed count:-4423
Error at count:-4424
URL:-https://api.hubapi.com/contacts/v1/contact/vid/{0}/profile?hapikey=962e8ce2-2314-4e7f-8dab-77b7f59c270c
URL:-https://api.hubapi.com/contacts/v1/contact/?hapikey=962e8ce2-2314-4e7f-8dab-77b7f59c270c
Response exception:System.Net.HttpWebResponse
Error records:-{"message":"Contact already exists","identityProfile":{"vid":2055753,"identity":[{"value":"tiny_james@hotmail.com","type":"EMAIL","timestamp":1576773701777,"isPrimary":true},{"value":"23621759-0bd2-4d57-bda5-351012f056f8","type":"LEAD_GUID","timestamp":1576773701791}],"linkedVid":[],"isContact":true,"savedAtTimestamp":1576773701793},"errors":[{"message":"A contact with email tiny_james@hotmail.com already exists.","in":"email"}],"status":"error","correlationId":"8f48fb34-ae9e-44dc-87aa-255ab56d82f3","category":"OBJECT_ALREADY_EXISTS","error":"CONTACT_EXISTS"}
Completed count:-4424
Completed count:-4425
Completed count:-4426
Error at count:-4427
URL:-https://api.hubapi.com/contacts/v1/contact/vid/{0}/profile?hapikey=962e8ce2-2314-4e7f-8dab-77b7f59c270c
URL:-https://api.hubapi.com/contacts/v1/contact/?hapikey=962e8ce2-2314-4e7f-8dab-77b7f59c270c
Response exception:System.Net.HttpWebResponse
Error records:-{"message":"Contact already exists","identityProfile":{"vid":63946319,"identity":[{"value":"0a872f68-0bbe-42a0-b9c6-1fb797409b1d","type":"LEAD_GUID","timestamp":1594132387429},{"value":"mohammedanwarjavid@gmail.com","type":"EMAIL","timestamp":1599593490385,"isPrimary":true}],"linkedVid":[],"isContact":true,"createdWithoutEmail":true,"savedAtTimestamp":1599593490429,"promotedToContact":true},"errors":[{"message":"A contact with email mohammedanwarjavid@gmail.com already exists.","in":"email"}],"status":"error","correlationId":"ceff64ad-3a43-457f-a31b-4b1cc7a46a78","category":"OBJECT_ALREADY_EXISTS","error":"CONTACT_EXISTS"}
Completed count:-4427
Completed count:-4428
Error at count:-4429
URL:-https://api.hubapi.com/contacts/v1/contact/vid/{0}/profile?hapikey=962e8ce2-2314-4e7f-8dab-77b7f59c270c
URL:-https://api.hubapi.com/contacts/v1/contact/?hapikey=962e8ce2-2314-4e7f-8dab-77b7f59c270c
Response exception:System.Net.HttpWebResponse
Error records:-{"message":"Contact already exists","identityProfile":{"vid":62881486,"identity":[{"value":"jenishdhanani33711@gmail.com","type":"EMAIL","timestamp":1593882939814,"isPrimary":true},{"value":"5257a642-af0e-4081-88ce-eb91ea30d62b","type":"LEAD_GUID","timestamp":1593882939826}],"linkedVid":[],"isContact":true,"savedAtTimestamp":1593882939827},"errors":[{"message":"A contact with email jenishdhanani33711@gmail.com already exists.","in":"email"}],"status":"error","correlationId":"63729186-2d77-4a4c-86ed-e50a6461e706","category":"OBJECT_ALREADY_EXISTS","error":"CONTACT_EXISTS"}
Completed count:-4429
Error at count:-4430
URL:-https://api.hubapi.com/contacts/v1/contact/vid/{0}/profile?hapikey=962e8ce2-2314-4e7f-8dab-77b7f59c270c
URL:-https://api.hubapi.com/contacts/v1/contact/?hapikey=962e8ce2-2314-4e7f-8dab-77b7f59c270c
Response exception:System.Net.HttpWebResponse
Error records:-{"message":"Contact already exists","identityProfile":{"vid":670701,"identity":[{"value":"steven88673@gmail.com","type":"EMAIL","timestamp":1576230987082,"isPrimary":true},{"value":"ee7f10f2-cdb4-4018-ae3c-f79e627a8b86","type":"LEAD_GUID","timestamp":1576230989302}],"linkedVid":[],"isContact":true,"savedAtTimestamp":1576230989306},"errors":[{"message":"A contact with email steven88673@gmail.com already exists.","in":"email"}],"status":"error","correlationId":"c28b62a4-365b-4395-a18f-fbba0d19c3df","category":"OBJECT_ALREADY_EXISTS","error":"CONTACT_EXISTS"}
Completed count:-4430
Error at count:-4431
URL:-https://api.hubapi.com/contacts/v1/contact/vid/{0}/profile?hapikey=962e8ce2-2314-4e7f-8dab-77b7f59c270c
URL:-https://api.hubapi.com/contacts/v1/contact/?hapikey=962e8ce2-2314-4e7f-8dab-77b7f59c270c
Response exception:System.Net.HttpWebResponse
Error records:-{"message":"Contact already exists","identityProfile":{"vid":62877122,"identity":[{"value":"jubayedsylbd@yahoo.com","type":"EMAIL","timestamp":1593882936312,"isPrimary":true},{"value":"6e91f37c-88a2-4f9f-acd4-129882877ff7","type":"LEAD_GUID","timestamp":1593882936326}],"linkedVid":[],"isContact":true,"savedAtTimestamp":1593882936328},"errors":[{"message":"A contact with email jubayedsylbd@yahoo.com already exists.","in":"email"}],"status":"error","correlationId":"3125eaef-661c-46f1-a0fa-da770c9015a6","category":"OBJECT_ALREADY_EXISTS","error":"CONTACT_EXISTS"}
Completed count:-4431
Completed count:-4432
Completed count:-4433
Completed count:-4434
Completed count:-4435
Completed count:-4436
Error at count:-4437
URL:-https://api.hubapi.com/contacts/v1/contact/vid/{0}/profile?hapikey=962e8ce2-2314-4e7f-8dab-77b7f59c270c
URL:-https://api.hubapi.com/contacts/v1/contact/?hapikey=962e8ce2-2314-4e7f-8dab-77b7f59c270c
Response exception:System.Net.HttpWebResponse
Error records:-{"message":"Contact already exists","identityProfile":{"vid":9767601,"identity":[{"value":"deepamalviya11@gmail.com","type":"EMAIL","timestamp":1579814363798,"isPrimary":true},{"value":"b852ab22-4abb-4bb4-90de-59e42c664598","type":"LEAD_GUID","timestamp":1579814365592}],"linkedVid":[10055151,17725401,10228451],"isContact":true,"savedAtTimestamp":1582705583366},"errors":[{"message":"A contact with email deepamalviya11@gmail.com already exists.","in":"email"}],"status":"error","correlationId":"a93678d2-5eab-4a9f-aeb2-d93421493401","category":"OBJECT_ALREADY_EXISTS","error":"CONTACT_EXISTS"}
Completed count:-4437
Error at count:-4438
URL:-https://api.hubapi.com/contacts/v1/contact/vid/{0}/profile?hapikey=962e8ce2-2314-4e7f-8dab-77b7f59c270c
URL:-https://api.hubapi.com/contacts/v1/contact/?hapikey=962e8ce2-2314-4e7f-8dab-77b7f59c270c
Response exception:System.Net.HttpWebResponse
Error records:-{"message":"Contact already exists","identityProfile":{"vid":62918939,"identity":[{"value":"juliux_24@yahoo.com","type":"EMAIL","timestamp":1593882974172,"isPrimary":true},{"value":"6e741f66-84cc-45a3-ae2a-c8ee44bfb60b","type":"LEAD_GUID","timestamp":1593882974180}],"linkedVid":[],"isContact":true,"savedAtTimestamp":1593882974181},"errors":[{"message":"A contact with email juliux_24@yahoo.com already exists.","in":"email"}],"status":"error","correlationId":"dcb6ea5e-3f84-4527-a1bd-c62ecdd4871c","category":"OBJECT_ALREADY_EXISTS","error":"CONTACT_EXISTS"}
Completed count:-4438
Error at count:-4439
URL:-https://api.hubapi.com/contacts/v1/contact/vid/{0}/profile?hapikey=962e8ce2-2314-4e7f-8dab-77b7f59c270c
URL:-https://api.hubapi.com/contacts/v1/contact/?hapikey=962e8ce2-2314-4e7f-8dab-77b7f59c270c
Response exception:System.Net.HttpWebResponse
Error records:-{"message":"Contact already exists","identityProfile":{"vid":62141738,"identity":[{"value":"manjit_gur@yahoo.co.in","type":"EMAIL","timestamp":1593710895250,"isPrimary":true},{"value":"7b190431-2d5b-4c07-83bc-2e3809d090d5","type":"LEAD_GUID","timestamp":1593710895257}],"linkedVid":[],"isContact":true,"savedAtTimestamp":1593710895260},"errors":[{"message":"A contact with email manjit_gur@yahoo.co.in already exists.","in":"email"}],"status":"error","correlationId":"0ae1104f-19e6-4e01-8be0-e0b9547f4b58","category":"OBJECT_ALREADY_EXISTS","error":"CONTACT_EXISTS"}
Completed count:-4439
Error at count:-4440
URL:-https://api.hubapi.com/contacts/v1/contact/vid/{0}/profile?hapikey=962e8ce2-2314-4e7f-8dab-77b7f59c270c
URL:-https://api.hubapi.com/contacts/v1/contact/?hapikey=962e8ce2-2314-4e7f-8dab-77b7f59c270c
Response exception:System.Net.HttpWebResponse
Error records:-{"message":"Contact already exists","identityProfile":{"vid":63995279,"identity":[{"value":"360fc91d-b20f-4adf-8091-b16b75e0af97","type":"LEAD_GUID","timestamp":1594132396007},{"value":"gezim2000@hotmail.com","type":"EMAIL","timestamp":1598890818843,"isPrimary":true}],"linkedVid":[],"isContact":true,"createdWithoutEmail":true,"savedAtTimestamp":1598890818879,"promotedToContact":true},"errors":[{"message":"A contact with email gezim2000@hotmail.com already exists.","in":"email"}],"status":"error","correlationId":"764f0f7f-013d-4f8a-b35d-bd482a93f53d","category":"OBJECT_ALREADY_EXISTS","error":"CONTACT_EXISTS"}
Completed count:-4440
Completed count:-4441
Error at count:-4442
URL:-https://api.hubapi.com/contacts/v1/contact/vid/{0}/profile?hapikey=962e8ce2-2314-4e7f-8dab-77b7f59c270c
URL:-https://api.hubapi.com/contacts/v1/contact/?hapikey=962e8ce2-2314-4e7f-8dab-77b7f59c270c
Response exception:System.Net.HttpWebResponse
Error records:-{"message":"Contact already exists","identityProfile":{"vid":62881209,"identity":[{"value":"sarfrazahmed@ikasleak.floreaga.com","type":"EMAIL","timestamp":1593882937972,"isPrimary":true},{"value":"dacf3b1c-e772-40d4-8b50-142127b778a2","type":"LEAD_GUID","timestamp":1593882937980}],"linkedVid":[],"isContact":true,"savedAtTimestamp":1593882937982},"errors":[{"message":"A contact with email sarfrazahmed@ikasleak.floreaga.com already exists.","in":"email"}],"status":"error","correlationId":"0046d789-b0f4-405e-a493-96bd455f5464","category":"OBJECT_ALREADY_EXISTS","error":"CONTACT_EXISTS"}
Completed count:-4442
Completed count:-4443
Error at count:-4444
URL:-https://api.hubapi.com/contacts/v1/contact/vid/{0}/profile?hapikey=962e8ce2-2314-4e7f-8dab-77b7f59c270c
URL:-https://api.hubapi.com/contacts/v1/contact/?hapikey=962e8ce2-2314-4e7f-8dab-77b7f59c270c
Response exception:System.Net.HttpWebResponse
Error records:-{"message":"Contact already exists","identityProfile":{"vid":62876971,"identity":[{"value":"mikejc14@gmail.com","type":"EMAIL","timestamp":1593882935973,"isPrimary":true},{"value":"94ef70b3-b6ff-4ac3-bfd1-502a1e1038fc","type":"LEAD_GUID","timestamp":1593882935983}],"linkedVid":[],"isContact":true,"savedAtTimestamp":1593882935986},"errors":[{"message":"A contact with email mikejc14@gmail.com already exists.","in":"email"}],"status":"error","correlationId":"7ae3e51d-008a-4024-b99d-f4a2775800c5","category":"OBJECT_ALREADY_EXISTS","error":"CONTACT_EXISTS"}
Completed count:-4444
Error at count:-4445
URL:-https://api.hubapi.com/contacts/v1/contact/vid/{0}/profile?hapikey=962e8ce2-2314-4e7f-8dab-77b7f59c270c
URL:-https://api.hubapi.com/contacts/v1/contact/?hapikey=962e8ce2-2314-4e7f-8dab-77b7f59c270c
Response exception:System.Net.HttpWebResponse
Error records:-{"message":"Contact already exists","identityProfile":{"vid":62900055,"identity":[{"value":"hedzielskikrzysztof@gmail.com","type":"EMAIL","timestamp":1593882956178,"isPrimary":true},{"value":"e6473cfc-6e94-46d0-a83c-01d53925981d","type":"LEAD_GUID","timestamp":1593882956184}],"linkedVid":[],"isContact":true,"savedAtTimestamp":1593882956186},"errors":[{"message":"A contact with email hedzielskikrzysztof@gmail.com already exists.","in":"email"}],"status":"error","correlationId":"f98100e0-6d4b-45d4-92b4-0e2b7dc0bfbf","category":"OBJECT_ALREADY_EXISTS","error":"CONTACT_EXISTS"}
Completed count:-4445
Completed count:-4446
Completed count:-4447
Completed count:-4448
Error at count:-4449
URL:-https://api.hubapi.com/contacts/v1/contact/vid/{0}/profile?hapikey=962e8ce2-2314-4e7f-8dab-77b7f59c270c
URL:-https://api.hubapi.com/contacts/v1/contact/?hapikey=962e8ce2-2314-4e7f-8dab-77b7f59c270c
Response exception:System.Net.HttpWebResponse
Error records:-{"message":"Contact already exists","identityProfile":{"vid":62957569,"identity":[{"value":"dav.lee@outlook.com","type":"EMAIL","timestamp":1593882987563,"isPrimary":true},{"value":"1b856cbd-61f5-4ef2-84c9-9c75534221d0","type":"LEAD_GUID","timestamp":1593882987570}],"linkedVid":[],"isContact":true,"savedAtTimestamp":1593882987572},"errors":[{"message":"A contact with email dav.lee@outlook.com already exists.","in":"email"}],"status":"error","correlationId":"a1997137-f784-4021-b028-b57f1f5fd914","category":"OBJECT_ALREADY_EXISTS","error":"CONTACT_EXISTS"}
Completed count:-4449
Completed count:-4450
Completed count:-4451
Error at count:-4452
URL:-https://api.hubapi.com/contacts/v1/contact/vid/{0}/profile?hapikey=962e8ce2-2314-4e7f-8dab-77b7f59c270c
URL:-https://api.hubapi.com/contacts/v1/contact/?hapikey=962e8ce2-2314-4e7f-8dab-77b7f59c270c
Response exception:System.Net.HttpWebResponse
Error records:-{"message":"Contact already exists","identityProfile":{"vid":440153,"identity":[{"value":"jagodajablonska06@gmail.com","type":"EMAIL","timestamp":1576130878548,"isPrimary":true},{"value":"e41db759-0bb6-4271-807d-9b863064b322","type":"LEAD_GUID","timestamp":1576130878556}],"linkedVid":[65154051,448651],"isContact":true,"savedAtTimestamp":1594360821659},"errors":[{"message":"A contact with email jagodajablonska06@gmail.com already exists.","in":"email"}],"status":"error","correlationId":"c18c681c-6b4e-4196-98d0-16a842f71d1f","category":"OBJECT_ALREADY_EXISTS","error":"CONTACT_EXISTS"}
Completed count:-4452
Error at count:-4453
URL:-https://api.hubapi.com/contacts/v1/contact/vid/{0}/profile?hapikey=962e8ce2-2314-4e7f-8dab-77b7f59c270c
URL:-https://api.hubapi.com/contacts/v1/contact/?hapikey=962e8ce2-2314-4e7f-8dab-77b7f59c270c
Response exception:System.Net.HttpWebResponse
Error records:-{"message":"Contact already exists","identityProfile":{"vid":62970564,"identity":[{"value":"a45985b5-9e0e-4390-b32f-61842b570adc","type":"LEAD_GUID","timestamp":1593883000441},{"value":"anetam86@o2.pl","type":"EMAIL","timestamp":1599597131170,"isPrimary":true}],"linkedVid":[],"isContact":true,"savedAtTimestamp":1599597131241},"errors":[{"message":"A contact with email anetam86@o2.pl already exists.","in":"email"}],"status":"error","correlationId":"905cfe33-8eeb-4e4b-a6dc-18cd400595d9","category":"OBJECT_ALREADY_EXISTS","error":"CONTACT_EXISTS"}
Completed count:-4453
Completed count:-4454
Completed count:-4455
Error at count:-4456
URL:-https://api.hubapi.com/contacts/v1/contact/vid/{0}/profile?hapikey=962e8ce2-2314-4e7f-8dab-77b7f59c270c
URL:-https://api.hubapi.com/contacts/v1/contact/?hapikey=962e8ce2-2314-4e7f-8dab-77b7f59c270c
Response exception:System.Net.HttpWebResponse
Error records:-{"message":"Contact already exists","identityProfile":{"vid":63963561,"identity":[{"value":"e85c8fcf-2d8e-4f07-bddf-b4b72cc26a5c","type":"LEAD_GUID","timestamp":1594132389739},{"value":"yashabejaz@yahoo.co.uk","type":"EMAIL","timestamp":1599597107641,"isPrimary":true}],"linkedVid":[],"isContact":true,"savedAtTimestamp":1599597107700},"errors":[{"message":"A contact with email yashabejaz@yahoo.co.uk already exists.","in":"email"}],"status":"error","correlationId":"8d8b0d51-39c6-4bb7-8429-251ca5d9bb6f","category":"OBJECT_ALREADY_EXISTS","error":"CONTACT_EXISTS"}
Completed count:-4456
Error at count:-4457
URL:-https://api.hubapi.com/contacts/v1/contact/vid/{0}/profile?hapikey=962e8ce2-2314-4e7f-8dab-77b7f59c270c
URL:-https://api.hubapi.com/contacts/v1/contact/?hapikey=962e8ce2-2314-4e7f-8dab-77b7f59c270c
Response exception:System.Net.HttpWebResponse
Error records:-{"message":"Contact already exists","identityProfile":{"vid":3234501,"identity":[{"value":"megbadol@yahoo.co.uk","type":"EMAIL","timestamp":1577323023001,"isPrimary":true},{"value":"745f7e5d-2428-44ad-ad58-c3570b06b7d9","type":"LEAD_GUID","timestamp":1577323024109}],"linkedVid":[26878251,56658801,56657251,21314401,64685551,38249601,58807801,18394851,5111601,10169301],"isContact":true,"savedAtTimestamp":1594250222757},"errors":[{"message":"A contact with email megbadol@yahoo.co.uk already exists.","in":"email"}],"status":"error","correlationId":"df218d9a-4627-4087-b7ed-9cb0a57bfa5f","category":"OBJECT_ALREADY_EXISTS","error":"CONTACT_EXISTS"}
Completed count:-4457
Completed count:-4458
Completed count:-4459
Error at count:-4460
URL:-https://api.hubapi.com/contacts/v1/contact/vid/{0}/profile?hapikey=962e8ce2-2314-4e7f-8dab-77b7f59c270c
URL:-https://api.hubapi.com/contacts/v1/contact/?hapikey=962e8ce2-2314-4e7f-8dab-77b7f59c270c
Response exception:System.Net.HttpWebResponse
Error records:-{"message":"Contact already exists","identityProfile":{"vid":33279451,"identity":[{"value":"d7d232dd-89e9-4093-930d-624d32c95bbe","type":"LEAD_GUID","timestamp":1586576164420},{"value":"ivanschan@gmail.com","type":"EMAIL","timestamp":1600366486231,"isPrimary":true}],"linkedVid":[33279751],"isContact":true,"savedAtTimestamp":1600366486315},"errors":[{"message":"A contact with email ivanschan@gmail.com already exists.","in":"email"}],"status":"error","correlationId":"11476507-c9a6-490a-ad83-6115fad533ef","category":"OBJECT_ALREADY_EXISTS","error":"CONTACT_EXISTS"}
Completed count:-4460
Error at count:-4461
URL:-https://api.hubapi.com/contacts/v1/contact/vid/{0}/profile?hapikey=962e8ce2-2314-4e7f-8dab-77b7f59c270c
URL:-https://api.hubapi.com/contacts/v1/contact/?hapikey=962e8ce2-2314-4e7f-8dab-77b7f59c270c
Response exception:System.Net.HttpWebResponse
Error records:-{"message":"Contact already exists","identityProfile":{"vid":62877554,"identity":[{"value":"amanaislam05@gmail.com","type":"EMAIL","timestamp":1593882936891,"isPrimary":true},{"value":"2ba85a5d-db68-4e69-8567-b316a450d0da","type":"LEAD_GUID","timestamp":1593882936899}],"linkedVid":[],"isContact":true,"savedAtTimestamp":1593882937346},"errors":[{"message":"A contact with email amanaislam05@gmail.com already exists.","in":"email"}],"status":"error","correlationId":"bac43c02-82f7-42e5-824a-e584af7baa5f","category":"OBJECT_ALREADY_EXISTS","error":"CONTACT_EXISTS"}
Completed count:-4461
Completed count:-4462
Completed count:-4463
Completed count:-4464
Completed count:-4465
Error at count:-4466
URL:-https://api.hubapi.com/contacts/v1/contact/vid/{0}/profile?hapikey=962e8ce2-2314-4e7f-8dab-77b7f59c270c
URL:-https://api.hubapi.com/contacts/v1/contact/?hapikey=962e8ce2-2314-4e7f-8dab-77b7f59c270c
Response exception:System.Net.HttpWebResponse
Error records:-{"message":"Contact already exists","identityProfile":{"vid":62972801,"identity":[{"value":"ljeffrey1980@hotmail.co.uk","type":"EMAIL","timestamp":1593883002922,"isPrimary":true},{"value":"5ed1e1fe-280b-4a4b-831f-806ecb22edc7","type":"LEAD_GUID","timestamp":1593883002930}],"linkedVid":[],"isContact":true,"savedAtTimestamp":1593883002936},"errors":[{"message":"A contact with email ljeffrey1980@hotmail.co.uk already exists.","in":"email"}],"status":"error","correlationId":"2bf492be-49d2-4a7a-a0f8-6b9497042c26","category":"OBJECT_ALREADY_EXISTS","error":"CONTACT_EXISTS"}
Completed count:-4466
Error at count:-4467
URL:-https://api.hubapi.com/contacts/v1/contact/vid/{0}/profile?hapikey=962e8ce2-2314-4e7f-8dab-77b7f59c270c
URL:-https://api.hubapi.com/contacts/v1/contact/?hapikey=962e8ce2-2314-4e7f-8dab-77b7f59c270c
Response exception:System.Net.HttpWebResponse
Error records:-{"message":"Contact already exists","identityProfile":{"vid":76700901,"identity":[{"value":"mail2akpobo@yahoo.com","type":"EMAIL","timestamp":1597171772397,"isPrimary":true},{"value":"2e8cbd33-7240-4355-a985-6bd11c6acbfd","type":"LEAD_GUID","timestamp":1597171772428}],"linkedVid":[],"isContact":true,"savedAtTimestamp":1597171772435},"errors":[{"message":"A contact with email mail2akpobo@yahoo.com already exists.","in":"email"}],"status":"error","correlationId":"7d818f5b-853f-4979-a958-9368bcc7f987","category":"OBJECT_ALREADY_EXISTS","error":"CONTACT_EXISTS"}
Completed count:-4467
Completed count:-4468
Error at count:-4469
URL:-https://api.hubapi.com/contacts/v1/contact/vid/{0}/profile?hapikey=962e8ce2-2314-4e7f-8dab-77b7f59c270c
URL:-https://api.hubapi.com/contacts/v1/contact/?hapikey=962e8ce2-2314-4e7f-8dab-77b7f59c270c
Response exception:System.Net.HttpWebResponse
Error records:-{"message":"Contact already exists","identityProfile":{"vid":62138346,"identity":[{"value":"nasemary13@gmail.com","type":"EMAIL","timestamp":1593710889873,"isPrimary":true},{"value":"39ce12d6-c7dd-4bcf-8f0b-6d952cf923f7","type":"LEAD_GUID","timestamp":1593710889882}],"linkedVid":[],"isContact":true,"savedAtTimestamp":1593710889884},"errors":[{"message":"A contact with email nasemary13@gmail.com already exists.","in":"email"}],"status":"error","correlationId":"cca33d07-0aaa-4db6-b293-c659ba8bef29","category":"OBJECT_ALREADY_EXISTS","error":"CONTACT_EXISTS"}
Completed count:-4469
Completed count:-4470
Error at count:-4471
URL:-https://api.hubapi.com/contacts/v1/contact/vid/{0}/profile?hapikey=962e8ce2-2314-4e7f-8dab-77b7f59c270c
URL:-https://api.hubapi.com/contacts/v1/contact/?hapikey=962e8ce2-2314-4e7f-8dab-77b7f59c270c
Response exception:System.Net.HttpWebResponse
Error records:-{"message":"Contact already exists","identityProfile":{"vid":439751,"identity":[{"value":"abdul.wahaab.pt@gmail.com","type":"EMAIL","timestamp":1576130877258,"isPrimary":true},{"value":"4a46ca29-0b67-4a5c-a65f-39d7aa595162","type":"LEAD_GUID","timestamp":1576130877268}],"linkedVid":[],"isContact":true,"savedAtTimestamp":1576130877273},"errors":[{"message":"A contact with email abdul.wahaab.pt@gmail.com already exists.","in":"email"}],"status":"error","correlationId":"e1e00538-e5ed-4647-b89e-5bea60bc5876","category":"OBJECT_ALREADY_EXISTS","error":"CONTACT_EXISTS"}
Completed count:-4471
Completed count:-4472
Error at count:-4473
URL:-https://api.hubapi.com/contacts/v1/contact/vid/{0}/profile?hapikey=962e8ce2-2314-4e7f-8dab-77b7f59c270c
URL:-https://api.hubapi.com/contacts/v1/contact/?hapikey=962e8ce2-2314-4e7f-8dab-77b7f59c270c
Response exception:System.Net.HttpWebResponse
Error records:-{"message":"Contact already exists","identityProfile":{"vid":63997954,"identity":[{"value":"e664d753-6be9-480c-9002-45340215145d","type":"LEAD_GUID","timestamp":1594132394883},{"value":"hrisetovtueorgui@yahoo.co.uk","type":"EMAIL","timestamp":1600441251378,"isPrimary":true}],"linkedVid":[],"isContact":true,"createdWithoutEmail":true,"savedAtTimestamp":1600441252183,"promotedToContact":true},"errors":[{"message":"A contact with email hrisetovtueorgui@yahoo.co.uk already exists.","in":"email"}],"status":"error","correlationId":"c5547dd0-5b4c-4cc3-bb6f-d84a790e6d87","category":"OBJECT_ALREADY_EXISTS","error":"CONTACT_EXISTS"}
Completed count:-4473
Error at count:-4474
URL:-https://api.hubapi.com/contacts/v1/contact/vid/{0}/profile?hapikey=962e8ce2-2314-4e7f-8dab-77b7f59c270c
URL:-https://api.hubapi.com/contacts/v1/contact/?hapikey=962e8ce2-2314-4e7f-8dab-77b7f59c270c
Response exception:System.Net.HttpWebResponse
Error records:-{"message":"Contact already exists","identityProfile":{"vid":62142551,"identity":[{"value":"6cdf82af-fb9e-4d97-bd4b-ae3d2d102b17","type":"LEAD_GUID","timestamp":1593710895473},{"value":"mara67@wp.pl","type":"EMAIL","timestamp":1599596511661,"isPrimary":true}],"linkedVid":[],"isContact":true,"savedAtTimestamp":1599596511711},"errors":[{"message":"A contact with email mara67@wp.pl already exists.","in":"email"}],"status":"error","correlationId":"cc851659-4bbb-4d2a-98ea-10d3bf8299a4","category":"OBJECT_ALREADY_EXISTS","error":"CONTACT_EXISTS"}
Completed count:-4474
Error at count:-4475
URL:-https://api.hubapi.com/contacts/v1/contact/vid/{0}/profile?hapikey=962e8ce2-2314-4e7f-8dab-77b7f59c270c
URL:-https://api.hubapi.com/contacts/v1/contact/?hapikey=962e8ce2-2314-4e7f-8dab-77b7f59c270c
Response exception:System.Net.HttpWebResponse
Error records:-{"message":"Contact already exists","identityProfile":{"vid":62142384,"identity":[{"value":"safykoky04@gmail.com","type":"EMAIL","timestamp":1593710896718,"isPrimary":true},{"value":"f50ef5c7-eb46-4142-87cc-092863be1a26","type":"LEAD_GUID","timestamp":1593710896727}],"linkedVid":[],"isContact":true,"savedAtTimestamp":1593710896730},"errors":[{"message":"A contact with email safykoky04@gmail.com already exists.","in":"email"}],"status":"error","correlationId":"94f321ca-0359-41bc-8216-7f7c09ddbe93","category":"OBJECT_ALREADY_EXISTS","error":"CONTACT_EXISTS"}
Completed count:-4475
Error at count:-4476
URL:-https://api.hubapi.com/contacts/v1/contact/vid/{0}/profile?hapikey=962e8ce2-2314-4e7f-8dab-77b7f59c270c
URL:-https://api.hubapi.com/contacts/v1/contact/?hapikey=962e8ce2-2314-4e7f-8dab-77b7f59c270c
Response exception:System.Net.HttpWebResponse
Error records:-{"message":"Contact already exists","identityProfile":{"vid":3940151,"identity":[{"value":"e07a9d21-89f0-41e4-ba1f-b533cbfc78e7","type":"LEAD_GUID","timestamp":1577990734504},{"value":"0092iftikhar@gmail.com","type":"EMAIL","timestamp":1596045906381,"isPrimary":true},{"value":"iftakhar1979@yahoo.com","type":"EMAIL","timestamp":1594154516791,"isSecondary":true}],"linkedVid":[10607401,10607051],"isContact":true,"savedAtTimestamp":1596045906434},"errors":[{"message":"A contact with email 0092iftikhar@gmail.com already exists.","in":"email"}],"status":"error","correlationId":"17eb3933-4cd8-4dde-b534-31a800bc6ad0","category":"OBJECT_ALREADY_EXISTS","error":"CONTACT_EXISTS"}
Completed count:-4476
Error at count:-4477
URL:-https://api.hubapi.com/contacts/v1/contact/vid/{0}/profile?hapikey=962e8ce2-2314-4e7f-8dab-77b7f59c270c
URL:-https://api.hubapi.com/contacts/v1/contact/?hapikey=962e8ce2-2314-4e7f-8dab-77b7f59c270c
Response exception:System.Net.HttpWebResponse
Error records:-{"message":"Contact already exists","identityProfile":{"vid":84263516,"identity":[{"value":"waqaskhan78617@gmail.com","type":"EMAIL","timestamp":1599059613627,"isPrimary":true},{"value":"b41b15f0-5931-4af1-825c-bf9463b14044","type":"LEAD_GUID","timestamp":1599059613640}],"linkedVid":[],"isContact":true,"savedAtTimestamp":1599059613642},"errors":[{"message":"A contact with email waqaskhan78617@gmail.com already exists.","in":"email"}],"status":"error","correlationId":"87a6976c-c2d8-4867-840a-3c27f5d24e6a","category":"OBJECT_ALREADY_EXISTS","error":"CONTACT_EXISTS"}
Completed count:-4477
Completed count:-4478
Completed count:-4479
Completed count:-4480
Error at count:-4481
URL:-https://api.hubapi.com/contacts/v1/contact/vid/{0}/profile?hapikey=962e8ce2-2314-4e7f-8dab-77b7f59c270c
URL:-https://api.hubapi.com/contacts/v1/contact/?hapikey=962e8ce2-2314-4e7f-8dab-77b7f59c270c
Response exception:System.Net.HttpWebResponse
Error records:-{"message":"Contact already exists","identityProfile":{"vid":62881115,"identity":[{"value":"info@alaynacosmetics.co.uk","type":"EMAIL","timestamp":1593882938053,"isPrimary":true},{"value":"4523359c-a7ef-4965-aae4-46f9b4c66395","type":"LEAD_GUID","timestamp":1593882938062}],"linkedVid":[],"isContact":true,"savedAtTimestamp":1593882938063},"errors":[{"message":"A contact with email info@alaynacosmetics.co.uk already exists.","in":"email"}],"status":"error","correlationId":"690378d3-7102-4c44-8683-a14321bae081","category":"OBJECT_ALREADY_EXISTS","error":"CONTACT_EXISTS"}
Completed count:-4481
Error at count:-4482
URL:-https://api.hubapi.com/contacts/v1/contact/vid/{0}/profile?hapikey=962e8ce2-2314-4e7f-8dab-77b7f59c270c
URL:-https://api.hubapi.com/contacts/v1/contact/?hapikey=962e8ce2-2314-4e7f-8dab-77b7f59c270c
Response exception:System.Net.HttpWebResponse
Error records:-{"message":"Contact already exists","identityProfile":{"vid":3090901,"identity":[{"value":"kullah9@gmail.com","type":"EMAIL","timestamp":1577267147358,"isPrimary":true},{"value":"daff276c-034c-42ed-b245-c950a5854308","type":"LEAD_GUID","timestamp":1577267148861}],"linkedVid":[10131401],"isContact":true,"savedAtTimestamp":1579902227941},"errors":[{"message":"A contact with email kullah9@gmail.com already exists.","in":"email"}],"status":"error","correlationId":"3ff6b02f-1a37-4c82-be87-00b29e50dc9b","category":"OBJECT_ALREADY_EXISTS","error":"CONTACT_EXISTS"}
Completed count:-4482
Completed count:-4483
Completed count:-4484
Completed count:-4485
Completed count:-4486
Completed count:-4487
Error at count:-4488
URL:-https://api.hubapi.com/contacts/v1/contact/vid/{0}/profile?hapikey=962e8ce2-2314-4e7f-8dab-77b7f59c270c
URL:-https://api.hubapi.com/contacts/v1/contact/?hapikey=962e8ce2-2314-4e7f-8dab-77b7f59c270c
Response exception:System.Net.HttpWebResponse
Error records:-{"message":"Contact already exists","identityProfile":{"vid":62881956,"identity":[{"value":"amin720-@outlook.com","type":"EMAIL","timestamp":1593882939982,"isPrimary":true},{"value":"fcef2640-51e5-46bc-8485-ce32488336af","type":"LEAD_GUID","timestamp":1593882939994}],"linkedVid":[],"isContact":true,"savedAtTimestamp":1593882939996},"errors":[{"message":"A contact with email amin720-@outlook.com already exists.","in":"email"}],"status":"error","correlationId":"e645ba33-0281-4725-a088-d04e6dae1c4f","category":"OBJECT_ALREADY_EXISTS","error":"CONTACT_EXISTS"}
Completed count:-4488
Completed count:-4489
Completed count:-4490
Error at count:-4491
URL:-https://api.hubapi.com/contacts/v1/contact/vid/{0}/profile?hapikey=962e8ce2-2314-4e7f-8dab-77b7f59c270c
URL:-https://api.hubapi.com/contacts/v1/contact/?hapikey=962e8ce2-2314-4e7f-8dab-77b7f59c270c
Response exception:System.Net.HttpWebResponse
Error records:-{"message":"Contact already exists","identityProfile":{"vid":40998301,"identity":[{"value":"piusibra@gmail.com","type":"EMAIL","timestamp":1588404031936,"isPrimary":true},{"value":"fad161ad-af4f-421c-a452-b08810139a4e","type":"LEAD_GUID","timestamp":1588404032773}],"linkedVid":[],"isContact":true,"savedAtTimestamp":1588404032776},"errors":[{"message":"A contact with email piusibra@gmail.com already exists.","in":"email"}],"status":"error","correlationId":"1b85fe32-4d24-4fc3-9ce6-72d21763395f","category":"OBJECT_ALREADY_EXISTS","error":"CONTACT_EXISTS"}
Completed count:-4491
Completed count:-4492
Completed count:-4493
Completed count:-4494
Error at count:-4495
URL:-https://api.hubapi.com/contacts/v1/contact/vid/{0}/profile?hapikey=962e8ce2-2314-4e7f-8dab-77b7f59c270c
URL:-https://api.hubapi.com/contacts/v1/contact/?hapikey=962e8ce2-2314-4e7f-8dab-77b7f59c270c
Response exception:System.Net.HttpWebResponse
Error records:-{"message":"Contact already exists","identityProfile":{"vid":440434,"identity":[{"value":"dianadavison555@gmail.com","type":"EMAIL","timestamp":1576130880209,"isPrimary":true},{"value":"313f1790-3186-46fb-8636-e0177a42a6a8","type":"LEAD_GUID","timestamp":1576130880216}],"linkedVid":[19196401,64063814],"isContact":true,"savedAtTimestamp":1594139599428},"errors":[{"message":"A contact with email dianadavison555@gmail.com already exists.","in":"email"}],"status":"error","correlationId":"285fd474-84c8-46fc-bf31-851ef6053a58","category":"OBJECT_ALREADY_EXISTS","error":"CONTACT_EXISTS"}
Completed count:-4495
Error at count:-4496
URL:-https://api.hubapi.com/contacts/v1/contact/vid/{0}/profile?hapikey=962e8ce2-2314-4e7f-8dab-77b7f59c270c
URL:-https://api.hubapi.com/contacts/v1/contact/?hapikey=962e8ce2-2314-4e7f-8dab-77b7f59c270c
Response exception:System.Net.HttpWebResponse
Error records:-{"message":"Contact already exists","identityProfile":{"vid":62972123,"identity":[{"value":"jakub.slusarski1994psk@gmail.com","type":"EMAIL","timestamp":1593883002119,"isPrimary":true},{"value":"6c903d96-a498-4415-9ff5-49d52794e57a","type":"LEAD_GUID","timestamp":1593883002125}],"linkedVid":[],"isContact":true,"savedAtTimestamp":1593883002127},"errors":[{"message":"A contact with email jakub.slusarski1994psk@gmail.com already exists.","in":"email"}],"status":"error","correlationId":"34e27e3a-a41b-4a43-ae58-594427805c22","category":"OBJECT_ALREADY_EXISTS","error":"CONTACT_EXISTS"}
Completed count:-4496
Error at count:-4497
URL:-https://api.hubapi.com/contacts/v1/contact/vid/{0}/profile?hapikey=962e8ce2-2314-4e7f-8dab-77b7f59c270c
URL:-https://api.hubapi.com/contacts/v1/contact/?hapikey=962e8ce2-2314-4e7f-8dab-77b7f59c270c
Response exception:System.Net.HttpWebResponse
Error records:-{"message":"Contact already exists","identityProfile":{"vid":439809,"identity":[{"value":"tadi123@op.pl","type":"EMAIL","timestamp":1576130877785,"isPrimary":true},{"value":"209e6bfe-3264-42cb-8e5f-47d459a74491","type":"LEAD_GUID","timestamp":1576130877793}],"linkedVid":[],"isContact":true,"savedAtTimestamp":1576130877795},"errors":[{"message":"A contact with email tadi123@op.pl already exists.","in":"email"}],"status":"error","correlationId":"5eccb461-8650-4e33-8fc3-b97aae41a00f","category":"OBJECT_ALREADY_EXISTS","error":"CONTACT_EXISTS"}
Completed count:-4497
Error at count:-4498
URL:-https://api.hubapi.com/contacts/v1/contact/vid/{0}/profile?hapikey=962e8ce2-2314-4e7f-8dab-77b7f59c270c
URL:-https://api.hubapi.com/contacts/v1/contact/?hapikey=962e8ce2-2314-4e7f-8dab-77b7f59c270c
Response exception:System.Net.HttpWebResponse
Error records:-{"message":"Contact already exists","identityProfile":{"vid":62972527,"identity":[{"value":"hanith_adam@hotmail.com","type":"EMAIL","timestamp":1593883002990,"isPrimary":true},{"value":"76d9947a-f94e-4dd0-b5e2-30f2b59704cb","type":"LEAD_GUID","timestamp":1593883003000}],"linkedVid":[],"isContact":true,"savedAtTimestamp":1593883003002},"errors":[{"message":"A contact with email hanith_adam@hotmail.com already exists.","in":"email"}],"status":"error","correlationId":"9cedf95e-9a9f-453d-8154-0e6097822461","category":"OBJECT_ALREADY_EXISTS","error":"CONTACT_EXISTS"}
Completed count:-4498
Completed count:-4499
Completed count:-4500
Error at count:-4501
URL:-https://api.hubapi.com/contacts/v1/contact/vid/{0}/profile?hapikey=962e8ce2-2314-4e7f-8dab-77b7f59c270c
URL:-https://api.hubapi.com/contacts/v1/contact/?hapikey=962e8ce2-2314-4e7f-8dab-77b7f59c270c
Response exception:System.Net.HttpWebResponse
Error records:-{"message":"Contact already exists","identityProfile":{"vid":62824633,"identity":[{"value":"keibob@hotmail.co.uk","type":"EMAIL","timestamp":1593882907666,"isPrimary":true},{"value":"52fcb483-3edc-4562-ae67-bc3bbfd7434a","type":"LEAD_GUID","timestamp":1593882907676}],"linkedVid":[],"isContact":true,"savedAtTimestamp":1593882907679},"errors":[{"message":"A contact with email keibob@hotmail.co.uk already exists.","in":"email"}],"status":"error","correlationId":"82fbb018-a8d4-4200-8db0-aa88bb75115d","category":"OBJECT_ALREADY_EXISTS","error":"CONTACT_EXISTS"}
Completed count:-4501
Completed count:-4502
Completed count:-4503
Completed count:-4504
Completed count:-4505
Completed count:-4506
Completed count:-4507
Completed count:-4508
Completed count:-4509
Error at count:-4510
URL:-https://api.hubapi.com/contacts/v1/contact/vid/{0}/profile?hapikey=962e8ce2-2314-4e7f-8dab-77b7f59c270c
URL:-https://api.hubapi.com/contacts/v1/contact/?hapikey=962e8ce2-2314-4e7f-8dab-77b7f59c270c
Response exception:System.Net.HttpWebResponse
Error records:-{"message":"Contact already exists","identityProfile":{"vid":1634151,"identity":[{"value":"abbaswaljee@gmail.com","type":"EMAIL","timestamp":1576602849998,"isPrimary":true},{"value":"86b3f487-6952-4edb-afc0-5a65745e4418","type":"LEAD_GUID","timestamp":1576602850838}],"linkedVid":[56106251,46546401],"isContact":true,"savedAtTimestamp":1592240369315},"errors":[{"message":"A contact with email abbaswaljee@gmail.com already exists.","in":"email"}],"status":"error","correlationId":"beb0d97a-0625-4b47-866b-abf1924d6f76","category":"OBJECT_ALREADY_EXISTS","error":"CONTACT_EXISTS"}
Completed count:-4510
Completed count:-4511
Completed count:-4512
Error at count:-4513
URL:-https://api.hubapi.com/contacts/v1/contact/vid/{0}/profile?hapikey=962e8ce2-2314-4e7f-8dab-77b7f59c270c
URL:-https://api.hubapi.com/contacts/v1/contact/?hapikey=962e8ce2-2314-4e7f-8dab-77b7f59c270c
Response exception:System.Net.HttpWebResponse
Error records:-{"message":"Contact already exists","identityProfile":{"vid":84263451,"identity":[{"value":"dani91919119@gmail.com","type":"EMAIL","timestamp":1599059612495,"isPrimary":true},{"value":"bf500961-08ef-419e-86fe-e6051b69ec28","type":"LEAD_GUID","timestamp":1599059612502}],"linkedVid":[],"isContact":true,"savedAtTimestamp":1599059612893},"errors":[{"message":"A contact with email dani91919119@gmail.com already exists.","in":"email"}],"status":"error","correlationId":"e8e6662d-cffc-4b59-8b45-6f83ef4d7339","category":"OBJECT_ALREADY_EXISTS","error":"CONTACT_EXISTS"}
Completed count:-4513
Completed count:-4514
Error at count:-4515
URL:-https://api.hubapi.com/contacts/v1/contact/vid/{0}/profile?hapikey=962e8ce2-2314-4e7f-8dab-77b7f59c270c
URL:-https://api.hubapi.com/contacts/v1/contact/?hapikey=962e8ce2-2314-4e7f-8dab-77b7f59c270c
Response exception:System.Net.HttpWebResponse
Error records:-{"message":"Contact already exists","identityProfile":{"vid":439021,"identity":[{"value":"alutkapik@wp.pl","type":"EMAIL","timestamp":1576130876345,"isPrimary":true},{"value":"7db355cf-2802-4f67-b75b-1f92cf8176e1","type":"LEAD_GUID","timestamp":1576130876353}],"linkedVid":[5647351,5640451,5640353,5300201,13426551],"isContact":true,"savedAtTimestamp":1581089248743},"errors":[{"message":"A contact with email alutkapik@wp.pl already exists.","in":"email"}],"status":"error","correlationId":"d5041340-f11b-4a86-a86a-4bf4f09a40ff","category":"OBJECT_ALREADY_EXISTS","error":"CONTACT_EXISTS"}
Completed count:-4515
Error at count:-4516
URL:-https://api.hubapi.com/contacts/v1/contact/vid/{0}/profile?hapikey=962e8ce2-2314-4e7f-8dab-77b7f59c270c
URL:-https://api.hubapi.com/contacts/v1/contact/?hapikey=962e8ce2-2314-4e7f-8dab-77b7f59c270c
Response exception:System.Net.HttpWebResponse
Error records:-{"message":"Contact already exists","identityProfile":{"vid":62880595,"identity":[{"value":"266e2daf-806e-4f67-9625-c49e85a0c895","type":"LEAD_GUID","timestamp":1593882938488},{"value":"tamjeed.al@gmail.com","type":"EMAIL","timestamp":1599148192783,"isPrimary":true}],"linkedVid":[],"isContact":true,"savedAtTimestamp":1599148192823},"errors":[{"message":"A contact with email tamjeed.al@gmail.com already exists.","in":"email"}],"status":"error","correlationId":"899d87be-02b8-4459-bf77-a7b6190e1cb0","category":"OBJECT_ALREADY_EXISTS","error":"CONTACT_EXISTS"}
Completed count:-4516
Error at count:-4517
URL:-https://api.hubapi.com/contacts/v1/contact/vid/{0}/profile?hapikey=962e8ce2-2314-4e7f-8dab-77b7f59c270c
URL:-https://api.hubapi.com/contacts/v1/contact/?hapikey=962e8ce2-2314-4e7f-8dab-77b7f59c270c
Response exception:System.Net.HttpWebResponse
Error records:-{"message":"Contact already exists","identityProfile":{"vid":62990045,"identity":[{"value":"rigelnt@gmail.com","type":"EMAIL","timestamp":1593883023988,"isPrimary":true},{"value":"81057229-a5be-45bf-a733-e19c9d05a823","type":"LEAD_GUID","timestamp":1593883023996}],"linkedVid":[],"isContact":true,"savedAtTimestamp":1593883023998},"errors":[{"message":"A contact with email rigelnt@gmail.com already exists.","in":"email"}],"status":"error","correlationId":"5f8b91c7-704c-4f80-b314-daebd0553bb9","category":"OBJECT_ALREADY_EXISTS","error":"CONTACT_EXISTS"}
Completed count:-4517
Error at count:-4518
URL:-https://api.hubapi.com/contacts/v1/contact/vid/{0}/profile?hapikey=962e8ce2-2314-4e7f-8dab-77b7f59c270c
URL:-https://api.hubapi.com/contacts/v1/contact/?hapikey=962e8ce2-2314-4e7f-8dab-77b7f59c270c
Response exception:System.Net.HttpWebResponse
Error records:-{"message":"Contact already exists","identityProfile":{"vid":13547901,"identity":[{"value":"qazino@hotmail.com","type":"EMAIL","timestamp":1581120790826,"isPrimary":true},{"value":"00b558c0-507b-4c78-98ff-63c855c47845","type":"LEAD_GUID","timestamp":1581120792810}],"linkedVid":[64331701],"isContact":true,"savedAtTimestamp":1594193071111},"errors":[{"message":"A contact with email qazino@hotmail.com already exists.","in":"email"}],"status":"error","correlationId":"0c45e395-8e34-4117-b2d6-6ccf5625649b","category":"OBJECT_ALREADY_EXISTS","error":"CONTACT_EXISTS"}
Completed count:-4518
Completed count:-4519
Error at count:-4520
URL:-https://api.hubapi.com/contacts/v1/contact/vid/{0}/profile?hapikey=962e8ce2-2314-4e7f-8dab-77b7f59c270c
URL:-https://api.hubapi.com/contacts/v1/contact/?hapikey=962e8ce2-2314-4e7f-8dab-77b7f59c270c
Response exception:System.Net.HttpWebResponse
Error records:-{"message":"Contact already exists","identityProfile":{"vid":440559,"identity":[{"value":"darek@sky.com","type":"EMAIL","timestamp":1576130879346,"isPrimary":true},{"value":"600e542f-4586-4faf-868a-f6f7918050d7","type":"LEAD_GUID","timestamp":1576130879395}],"linkedVid":[],"isContact":true,"savedAtTimestamp":1576130879396},"errors":[{"message":"A contact with email darek@sky.com already exists.","in":"email"}],"status":"error","correlationId":"c77142a4-28f8-48af-ae58-8aa8d7f5204c","category":"OBJECT_ALREADY_EXISTS","error":"CONTACT_EXISTS"}
Completed count:-4520
Error at count:-4521
URL:-https://api.hubapi.com/contacts/v1/contact/vid/{0}/profile?hapikey=962e8ce2-2314-4e7f-8dab-77b7f59c270c
URL:-https://api.hubapi.com/contacts/v1/contact/?hapikey=962e8ce2-2314-4e7f-8dab-77b7f59c270c
Response exception:System.Net.HttpWebResponse
Error records:-{"message":"Contact already exists","identityProfile":{"vid":62972708,"identity":[{"value":"blessangeorge80@gmail.com","type":"EMAIL","timestamp":1593883002663,"isPrimary":true},{"value":"e55f3bd9-6beb-4c15-9277-d3f89cb2e158","type":"LEAD_GUID","timestamp":1593883002673}],"linkedVid":[64772401],"isContact":true,"savedAtTimestamp":1594281786580},"errors":[{"message":"A contact with email blessangeorge80@gmail.com already exists.","in":"email"}],"status":"error","correlationId":"e5b13aab-6854-4ac4-8335-3a9324f1a1bd","category":"OBJECT_ALREADY_EXISTS","error":"CONTACT_EXISTS"}
Completed count:-4521
Error at count:-4522
URL:-https://api.hubapi.com/contacts/v1/contact/vid/{0}/profile?hapikey=962e8ce2-2314-4e7f-8dab-77b7f59c270c
URL:-https://api.hubapi.com/contacts/v1/contact/?hapikey=962e8ce2-2314-4e7f-8dab-77b7f59c270c
Response exception:System.Net.HttpWebResponse
Error records:-{"message":"Contact already exists","identityProfile":{"vid":62826892,"identity":[{"value":"biconi@abv.bg","type":"EMAIL","timestamp":1593882910902,"isPrimary":true},{"value":"6cd5e119-05b0-4a4a-a9db-3544c68cb63a","type":"LEAD_GUID","timestamp":1593882910910}],"linkedVid":[],"isContact":true,"savedAtTimestamp":1593882910912},"errors":[{"message":"A contact with email biconi@abv.bg already exists.","in":"email"}],"status":"error","correlationId":"dfaecd1e-a3f1-4a25-85d1-ae1fa6b1d146","category":"OBJECT_ALREADY_EXISTS","error":"CONTACT_EXISTS"}
Completed count:-4522
Completed count:-4523
Error at count:-4524
URL:-https://api.hubapi.com/contacts/v1/contact/vid/{0}/profile?hapikey=962e8ce2-2314-4e7f-8dab-77b7f59c270c
URL:-https://api.hubapi.com/contacts/v1/contact/?hapikey=962e8ce2-2314-4e7f-8dab-77b7f59c270c
Response exception:System.Net.HttpWebResponse
Error records:-{"message":"Contact already exists","identityProfile":{"vid":62918279,"identity":[{"value":"jaiminho@hotmail.co.uk","type":"EMAIL","timestamp":1593882972843,"isPrimary":true},{"value":"9ee2d7b4-60f9-448c-bccc-c2edda62e2a0","type":"LEAD_GUID","timestamp":1593882972853}],"linkedVid":[],"isContact":true,"savedAtTimestamp":1593882972855},"errors":[{"message":"A contact with email jaiminho@hotmail.co.uk already exists.","in":"email"}],"status":"error","correlationId":"34b5e584-7b77-425a-991a-a8985ddb81ee","category":"OBJECT_ALREADY_EXISTS","error":"CONTACT_EXISTS"}
Completed count:-4524
Completed count:-4525
Error at count:-4526
URL:-https://api.hubapi.com/contacts/v1/contact/vid/{0}/profile?hapikey=962e8ce2-2314-4e7f-8dab-77b7f59c270c
URL:-https://api.hubapi.com/contacts/v1/contact/?hapikey=962e8ce2-2314-4e7f-8dab-77b7f59c270c
Response exception:System.Net.HttpWebResponse
Error records:-{"message":"Contact already exists","identityProfile":{"vid":1868801,"identity":[{"value":"boloabrilaguirre@gmail.com","type":"EMAIL","timestamp":1576695390890,"isPrimary":true},{"value":"7442e2f4-7f87-4aff-96d2-05b99a96bba4","type":"LEAD_GUID","timestamp":1576695391886}],"linkedVid":[],"isContact":true,"savedAtTimestamp":1576695391889},"errors":[{"message":"A contact with email boloabrilaguirre@gmail.com already exists.","in":"email"}],"status":"error","correlationId":"25f0a3a4-4733-4e9e-b284-44b7db92302b","category":"OBJECT_ALREADY_EXISTS","error":"CONTACT_EXISTS"}
Completed count:-4526
Completed count:-4527
Error at count:-4528
URL:-https://api.hubapi.com/contacts/v1/contact/vid/{0}/profile?hapikey=962e8ce2-2314-4e7f-8dab-77b7f59c270c
URL:-https://api.hubapi.com/contacts/v1/contact/?hapikey=962e8ce2-2314-4e7f-8dab-77b7f59c270c
Response exception:System.Net.HttpWebResponse
Error records:-{"message":"Contact already exists","identityProfile":{"vid":62912196,"identity":[{"value":"ninja320@wp.pl","type":"EMAIL","timestamp":1593882965803,"isPrimary":true},{"value":"5d4a7bdd-3a50-45a7-8ca4-5435179e4110","type":"LEAD_GUID","timestamp":1593882965812}],"linkedVid":[],"isContact":true,"savedAtTimestamp":1593882965814},"errors":[{"message":"A contact with email ninja320@wp.pl already exists.","in":"email"}],"status":"error","correlationId":"c94795cd-1011-4105-a0fa-1f3326f8b945","category":"OBJECT_ALREADY_EXISTS","error":"CONTACT_EXISTS"}
Completed count:-4528
Completed count:-4529
Completed count:-4530
Error at count:-4531
URL:-https://api.hubapi.com/contacts/v1/contact/vid/{0}/profile?hapikey=962e8ce2-2314-4e7f-8dab-77b7f59c270c
URL:-https://api.hubapi.com/contacts/v1/contact/?hapikey=962e8ce2-2314-4e7f-8dab-77b7f59c270c
Response exception:System.Net.HttpWebResponse
Error records:-{"message":"Contact already exists","identityProfile":{"vid":440504,"identity":[{"value":"lukaszbet@wp.pl","type":"EMAIL","timestamp":1576130879254,"isPrimary":true},{"value":"f4871f68-ed92-4b6a-b152-b9d9dfea1fd7","type":"LEAD_GUID","timestamp":1576130879265}],"linkedVid":[],"isContact":true,"savedAtTimestamp":1576130879281},"errors":[{"message":"A contact with email lukaszbet@wp.pl already exists.","in":"email"}],"status":"error","correlationId":"0aa34de5-f770-4342-8766-eccdf256c1ea","category":"OBJECT_ALREADY_EXISTS","error":"CONTACT_EXISTS"}
Completed count:-4531
Completed count:-4532
Completed count:-4533
Completed count:-4534
Error at count:-4535
URL:-https://api.hubapi.com/contacts/v1/contact/vid/{0}/profile?hapikey=962e8ce2-2314-4e7f-8dab-77b7f59c270c
URL:-https://api.hubapi.com/contacts/v1/contact/?hapikey=962e8ce2-2314-4e7f-8dab-77b7f59c270c
Response exception:System.Net.HttpWebResponse
Error records:-{"message":"Contact already exists","identityProfile":{"vid":440906,"identity":[{"value":"rizwanakiani@hotmail.com","type":"EMAIL","timestamp":1576130879470,"isPrimary":true},{"value":"1f958130-32f0-4cfb-ac89-f2038ae6f626","type":"LEAD_GUID","timestamp":1576130879482}],"linkedVid":[],"isContact":true,"savedAtTimestamp":1576130879494},"errors":[{"message":"A contact with email rizwanakiani@hotmail.com already exists.","in":"email"}],"status":"error","correlationId":"5d6af9fe-d6ac-45b0-ae6f-9ee58b8bd117","category":"OBJECT_ALREADY_EXISTS","error":"CONTACT_EXISTS"}
Completed count:-4535
Completed count:-4536
Error at count:-4537
URL:-https://api.hubapi.com/contacts/v1/contact/vid/{0}/profile?hapikey=962e8ce2-2314-4e7f-8dab-77b7f59c270c
URL:-https://api.hubapi.com/contacts/v1/contact/?hapikey=962e8ce2-2314-4e7f-8dab-77b7f59c270c
Response exception:System.Net.HttpWebResponse
Error records:-{"message":"Contact already exists","identityProfile":{"vid":62824499,"identity":[{"value":"mariuszakas@ymail.com","type":"EMAIL","timestamp":1593882907724,"isPrimary":true},{"value":"859b0acf-264d-4417-b82e-03ee1d23bb22","type":"LEAD_GUID","timestamp":1593882907732}],"linkedVid":[],"isContact":true,"savedAtTimestamp":1593882907733},"errors":[{"message":"A contact with email mariuszakas@ymail.com already exists.","in":"email"}],"status":"error","correlationId":"d6fc53e6-183c-4173-bb89-52f32a952507","category":"OBJECT_ALREADY_EXISTS","error":"CONTACT_EXISTS"}
Completed count:-4537
Completed count:-4538
Completed count:-4539
Completed count:-4540
Error at count:-4541
URL:-https://api.hubapi.com/contacts/v1/contact/vid/{0}/profile?hapikey=962e8ce2-2314-4e7f-8dab-77b7f59c270c
URL:-https://api.hubapi.com/contacts/v1/contact/?hapikey=962e8ce2-2314-4e7f-8dab-77b7f59c270c
Response exception:System.Net.HttpWebResponse
Error records:-{"message":"Contact already exists","identityProfile":{"vid":2055552,"identity":[{"value":"szi.m.rita@gmail.com","type":"EMAIL","timestamp":1576773701775,"isPrimary":true},{"value":"ac8aa61e-4940-4d3d-88d1-0563b8c95adf","type":"LEAD_GUID","timestamp":1576773701785}],"linkedVid":[37190551,37912201],"isContact":true,"savedAtTimestamp":1590493625265},"errors":[{"message":"A contact with email szi.m.rita@gmail.com already exists.","in":"email"}],"status":"error","correlationId":"a65e82ab-cd8a-4ad4-b661-e291576caecf","category":"OBJECT_ALREADY_EXISTS","error":"CONTACT_EXISTS"}
Completed count:-4541
Completed count:-4542
Completed count:-4543
Error at count:-4544
URL:-https://api.hubapi.com/contacts/v1/contact/vid/{0}/profile?hapikey=962e8ce2-2314-4e7f-8dab-77b7f59c270c
URL:-https://api.hubapi.com/contacts/v1/contact/?hapikey=962e8ce2-2314-4e7f-8dab-77b7f59c270c
Response exception:System.Net.HttpWebResponse
Error records:-{"message":"Contact already exists","identityProfile":{"vid":62877211,"identity":[{"value":"aniger180@googlemail.com","type":"EMAIL","timestamp":1593882936613,"isPrimary":true},{"value":"7bb874ab-9384-4375-8840-b5d0a5ce39cd","type":"LEAD_GUID","timestamp":1593882936621}],"linkedVid":[],"isContact":true,"savedAtTimestamp":1593882936622},"errors":[{"message":"A contact with email aniger180@googlemail.com already exists.","in":"email"}],"status":"error","correlationId":"793538fe-bebd-49ec-baf6-ee87d5cfee8a","category":"OBJECT_ALREADY_EXISTS","error":"CONTACT_EXISTS"}
Completed count:-4544
Error at count:-4545
URL:-https://api.hubapi.com/contacts/v1/contact/vid/{0}/profile?hapikey=962e8ce2-2314-4e7f-8dab-77b7f59c270c
URL:-https://api.hubapi.com/contacts/v1/contact/?hapikey=962e8ce2-2314-4e7f-8dab-77b7f59c270c
Response exception:System.Net.HttpWebResponse
Error records:-{"message":"Contact already exists","identityProfile":{"vid":64018607,"identity":[{"value":"8c007577-0453-4662-a76f-4ac103c0dabb","type":"LEAD_GUID","timestamp":1594132399159},{"value":"nicolaemarian930913@gmail.com","type":"EMAIL","timestamp":1599597256058,"isPrimary":true}],"linkedVid":[],"isContact":true,"createdWithoutEmail":true,"savedAtTimestamp":1599597256107,"promotedToContact":true},"errors":[{"message":"A contact with email nicolaemarian930913@gmail.com already exists.","in":"email"}],"status":"error","correlationId":"ca1e0179-a630-42eb-971f-9b1be11e345a","category":"OBJECT_ALREADY_EXISTS","error":"CONTACT_EXISTS"}
Completed count:-4545
Completed count:-4546
Error at count:-4547
URL:-https://api.hubapi.com/contacts/v1/contact/vid/{0}/profile?hapikey=962e8ce2-2314-4e7f-8dab-77b7f59c270c
URL:-https://api.hubapi.com/contacts/v1/contact/?hapikey=962e8ce2-2314-4e7f-8dab-77b7f59c270c
Response exception:System.Net.HttpWebResponse
Error records:-{"message":"Contact already exists","identityProfile":{"vid":37355351,"identity":[{"value":"mariusz251986@interia.pl","type":"EMAIL","timestamp":1587518355171,"isPrimary":true},{"value":"d55ea086-3747-40c1-ad36-23421dcf7038","type":"LEAD_GUID","timestamp":1587518355869}],"linkedVid":[37355451,42692201,42691951],"isContact":true,"savedAtTimestamp":1588814413414},"errors":[{"message":"A contact with email mariusz251986@interia.pl already exists.","in":"email"}],"status":"error","correlationId":"21cd4be9-5d62-4302-a4de-a7d0378cbcd7","category":"OBJECT_ALREADY_EXISTS","error":"CONTACT_EXISTS"}
Completed count:-4547
Completed count:-4548
Error at count:-4549
URL:-https://api.hubapi.com/contacts/v1/contact/vid/{0}/profile?hapikey=962e8ce2-2314-4e7f-8dab-77b7f59c270c
URL:-https://api.hubapi.com/contacts/v1/contact/?hapikey=962e8ce2-2314-4e7f-8dab-77b7f59c270c
Response exception:System.Net.HttpWebResponse
Error records:-{"message":"Contact already exists","identityProfile":{"vid":62970350,"identity":[{"value":"dhavz09@gmail.com","type":"EMAIL","timestamp":1593883000433,"isPrimary":true},{"value":"d20ef170-9534-471c-8617-10208c51722c","type":"LEAD_GUID","timestamp":1593883000441}],"linkedVid":[],"isContact":true,"savedAtTimestamp":1593883000443},"errors":[{"message":"A contact with email dhavz09@gmail.com already exists.","in":"email"}],"status":"error","correlationId":"5d71f881-9f25-4111-9019-d145ad73f4ea","category":"OBJECT_ALREADY_EXISTS","error":"CONTACT_EXISTS"}
Completed count:-4549
Completed count:-4550
Completed count:-4551
Completed count:-4552
Completed count:-4553
Completed count:-4554
Completed count:-4555
Completed count:-4556
Completed count:-4557
Completed count:-4558
Error at count:-4559
URL:-https://api.hubapi.com/contacts/v1/contact/vid/{0}/profile?hapikey=962e8ce2-2314-4e7f-8dab-77b7f59c270c
URL:-https://api.hubapi.com/contacts/v1/contact/?hapikey=962e8ce2-2314-4e7f-8dab-77b7f59c270c
Response exception:System.Net.HttpWebResponse
Error records:-{"message":"Contact already exists","identityProfile":{"vid":10311451,"identity":[{"value":"9cccb8df-9cac-4c96-a8d5-6fa660afc78a","type":"LEAD_GUID","timestamp":1580492658106},{"value":"manpreet1335@yahoo.com","type":"EMAIL","timestamp":1599594250513,"isPrimary":true}],"linkedVid":[],"isContact":true,"savedAtTimestamp":1599594250637},"errors":[{"message":"A contact with email manpreet1335@yahoo.com already exists.","in":"email"}],"status":"error","correlationId":"f2bf9a5d-40bc-4161-8e80-4bbd01fad2e8","category":"OBJECT_ALREADY_EXISTS","error":"CONTACT_EXISTS"}
Completed count:-4559
Completed count:-4560
Completed count:-4561
Completed count:-4562
Error at count:-4563
URL:-https://api.hubapi.com/contacts/v1/contact/vid/{0}/profile?hapikey=962e8ce2-2314-4e7f-8dab-77b7f59c270c
URL:-https://api.hubapi.com/contacts/v1/contact/?hapikey=962e8ce2-2314-4e7f-8dab-77b7f59c270c
Response exception:System.Net.HttpWebResponse
Error records:-{"message":"Contact already exists","identityProfile":{"vid":576701,"identity":[{"value":"b5c88241-0080-475f-84e5-431267ea72d6","type":"LEAD_GUID","timestamp":1576412367131},{"value":"re323e122@yahoo.com","type":"EMAIL","timestamp":1599663066589,"isPrimary":true}],"linkedVid":[58148151,58149401],"isContact":true,"savedAtTimestamp":1599663066637},"errors":[{"message":"A contact with email re323e122@yahoo.com already exists.","in":"email"}],"status":"error","correlationId":"7bb2a5ee-107f-49d1-8ad3-6cf0090f65bd","category":"OBJECT_ALREADY_EXISTS","error":"CONTACT_EXISTS"}
Completed count:-4563
Completed count:-4564
Completed count:-4565
Completed count:-4566
Error at count:-4567
URL:-https://api.hubapi.com/contacts/v1/contact/vid/{0}/profile?hapikey=962e8ce2-2314-4e7f-8dab-77b7f59c270c
URL:-https://api.hubapi.com/contacts/v1/contact/?hapikey=962e8ce2-2314-4e7f-8dab-77b7f59c270c
Response exception:System.Net.HttpWebResponse
Error records:-{"message":"Contact already exists","identityProfile":{"vid":417051,"identity":[{"value":"17b83485-c8e2-449c-8bc5-a4313a36d37d","type":"LEAD_GUID","timestamp":1576109831465},{"value":"shadab_ansari@johnlewis.co.uk","type":"EMAIL","timestamp":1599664161555,"isPrimary":true}],"linkedVid":[6983951,20077001],"isContact":true,"savedAtTimestamp":1599664161620},"errors":[{"message":"A contact with email shadab_ansari@johnlewis.co.uk already exists.","in":"email"}],"status":"error","correlationId":"8ee8d559-1b33-46a7-b0d7-428b6aedf379","category":"OBJECT_ALREADY_EXISTS","error":"CONTACT_EXISTS"}
Completed count:-4567
Completed count:-4568
Completed count:-4569
Completed count:-4570
Error at count:-4571
URL:-https://api.hubapi.com/contacts/v1/contact/vid/{0}/profile?hapikey=962e8ce2-2314-4e7f-8dab-77b7f59c270c
URL:-https://api.hubapi.com/contacts/v1/contact/?hapikey=962e8ce2-2314-4e7f-8dab-77b7f59c270c
Response exception:System.Net.HttpWebResponse
Error records:-{"message":"Contact already exists","identityProfile":{"vid":16781101,"identity":[{"value":"mocanuraluca8@gmail.com","type":"EMAIL","timestamp":1582090774618,"isPrimary":true},{"value":"886d666a-33fe-4753-b942-1296b244b905","type":"LEAD_GUID","timestamp":1582090776300}],"linkedVid":[18049601,48444951,48463751,48457301,48462501,48454651],"isContact":true,"savedAtTimestamp":1590244209643},"errors":[{"message":"A contact with email mocanuraluca8@gmail.com already exists.","in":"email"}],"status":"error","correlationId":"c1966c95-56f8-4789-b500-a75be5fcbbd6","category":"OBJECT_ALREADY_EXISTS","error":"CONTACT_EXISTS"}
Completed count:-4571
Completed count:-4572
Error at count:-4573
URL:-https://api.hubapi.com/contacts/v1/contact/vid/{0}/profile?hapikey=962e8ce2-2314-4e7f-8dab-77b7f59c270c
URL:-https://api.hubapi.com/contacts/v1/contact/?hapikey=962e8ce2-2314-4e7f-8dab-77b7f59c270c
Response exception:System.Net.HttpWebResponse
Error records:-{"message":"Contact already exists","identityProfile":{"vid":62873230,"identity":[{"value":"talat@kktc.co.uk","type":"EMAIL","timestamp":1593882933965,"isPrimary":true},{"value":"4aa3dec4-8d7c-4c0f-94e9-d7cb991cef7b","type":"LEAD_GUID","timestamp":1593882933976}],"linkedVid":[],"isContact":true,"savedAtTimestamp":1593882933978},"errors":[{"message":"A contact with email talat@kktc.co.uk already exists.","in":"email"}],"status":"error","correlationId":"d340253d-d052-4dcb-95c2-2aec3be95f18","category":"OBJECT_ALREADY_EXISTS","error":"CONTACT_EXISTS"}
Completed count:-4573
Completed count:-4574
Error at count:-4575
URL:-https://api.hubapi.com/contacts/v1/contact/vid/{0}/profile?hapikey=962e8ce2-2314-4e7f-8dab-77b7f59c270c
URL:-https://api.hubapi.com/contacts/v1/contact/?hapikey=962e8ce2-2314-4e7f-8dab-77b7f59c270c
Response exception:System.Net.HttpWebResponse
Error records:-{"message":"Contact already exists","identityProfile":{"vid":62972738,"identity":[{"value":"a9cfb343-719f-44e2-a809-9d326df9dbd9","type":"LEAD_GUID","timestamp":1593883003825},{"value":"w.stano@btinternet.com","type":"EMAIL","timestamp":1598890821481,"isPrimary":true}],"linkedVid":[],"isContact":true,"savedAtTimestamp":1598890821520},"errors":[{"message":"A contact with email w.stano@btinternet.com already exists.","in":"email"}],"status":"error","correlationId":"014a422f-fd83-43c1-9ad3-09ed5e7a54b5","category":"OBJECT_ALREADY_EXISTS","error":"CONTACT_EXISTS"}
Completed count:-4575
Error at count:-4576
URL:-https://api.hubapi.com/contacts/v1/contact/vid/{0}/profile?hapikey=962e8ce2-2314-4e7f-8dab-77b7f59c270c
URL:-https://api.hubapi.com/contacts/v1/contact/?hapikey=962e8ce2-2314-4e7f-8dab-77b7f59c270c
Response exception:System.Net.HttpWebResponse
Error records:-{"message":"Contact already exists","identityProfile":{"vid":62848393,"identity":[{"value":"dancho.ani40@abv.bg","type":"EMAIL","timestamp":1593882925198,"isPrimary":true},{"value":"14d85ea1-2b2b-44e5-aa07-309e0fbd9bc4","type":"LEAD_GUID","timestamp":1593882925206}],"linkedVid":[88502801],"isContact":true,"savedAtTimestamp":1600010005567},"errors":[{"message":"A contact with email dancho.ani40@abv.bg already exists.","in":"email"}],"status":"error","correlationId":"f395aea8-b9f6-4c72-b86a-514ca73628a3","category":"OBJECT_ALREADY_EXISTS","error":"CONTACT_EXISTS"}
Completed count:-4576
Error at count:-4577
URL:-https://api.hubapi.com/contacts/v1/contact/vid/{0}/profile?hapikey=962e8ce2-2314-4e7f-8dab-77b7f59c270c
URL:-https://api.hubapi.com/contacts/v1/contact/?hapikey=962e8ce2-2314-4e7f-8dab-77b7f59c270c
Response exception:System.Net.HttpWebResponse
Error records:-{"message":"Contact already exists","identityProfile":{"vid":62825966,"identity":[{"value":"joannakusek@yahoo.com","type":"EMAIL","timestamp":1593882909565,"isPrimary":true},{"value":"e60e09d1-1ebc-4a36-b226-452ab7f47c78","type":"LEAD_GUID","timestamp":1593882909574}],"linkedVid":[],"isContact":true,"savedAtTimestamp":1593882909576},"errors":[{"message":"A contact with email joannakusek@yahoo.com already exists.","in":"email"}],"status":"error","correlationId":"4641b9c7-13e0-483c-a178-628a2faca96f","category":"OBJECT_ALREADY_EXISTS","error":"CONTACT_EXISTS"}
Completed count:-4577
Error at count:-4578
URL:-https://api.hubapi.com/contacts/v1/contact/vid/{0}/profile?hapikey=962e8ce2-2314-4e7f-8dab-77b7f59c270c
URL:-https://api.hubapi.com/contacts/v1/contact/?hapikey=962e8ce2-2314-4e7f-8dab-77b7f59c270c
Response exception:System.Net.HttpWebResponse
Error records:-{"message":"Contact already exists","identityProfile":{"vid":63936438,"identity":[{"value":"7a64c2ce-346a-4689-ba62-08d9b121f5de","type":"LEAD_GUID","timestamp":1594132386231},{"value":"ausruitaly@yahoo.com","type":"EMAIL","timestamp":1598890818472,"isPrimary":true}],"linkedVid":[],"isContact":true,"createdWithoutEmail":true,"savedAtTimestamp":1598890818512,"promotedToContact":true},"errors":[{"message":"A contact with email ausruitaly@yahoo.com already exists.","in":"email"}],"status":"error","correlationId":"d5f27af4-05e3-4d09-a9d7-bd81b789e6b1","category":"OBJECT_ALREADY_EXISTS","error":"CONTACT_EXISTS"}
Completed count:-4578
Error at count:-4579
URL:-https://api.hubapi.com/contacts/v1/contact/vid/{0}/profile?hapikey=962e8ce2-2314-4e7f-8dab-77b7f59c270c
URL:-https://api.hubapi.com/contacts/v1/contact/?hapikey=962e8ce2-2314-4e7f-8dab-77b7f59c270c
Response exception:System.Net.HttpWebResponse
Error records:-{"message":"Contact already exists","identityProfile":{"vid":62976394,"identity":[{"value":"51161d24-504d-4a64-9d2b-a4befbb430b4","type":"LEAD_GUID","timestamp":1593883015541},{"value":"kennethralston380@yahoo.co.uk","type":"EMAIL","timestamp":1599592313596,"isPrimary":true}],"linkedVid":[],"isContact":true,"savedAtTimestamp":1599592313644},"errors":[{"message":"A contact with email kennethralston380@yahoo.co.uk already exists.","in":"email"}],"status":"error","correlationId":"cfda7323-4cfc-49ba-9dae-39f0a91af90c","category":"OBJECT_ALREADY_EXISTS","error":"CONTACT_EXISTS"}
Completed count:-4579
Completed count:-4580
Error at count:-4581
URL:-https://api.hubapi.com/contacts/v1/contact/vid/{0}/profile?hapikey=962e8ce2-2314-4e7f-8dab-77b7f59c270c
URL:-https://api.hubapi.com/contacts/v1/contact/?hapikey=962e8ce2-2314-4e7f-8dab-77b7f59c270c
Response exception:System.Net.HttpWebResponse
Error records:-{"message":"Contact already exists","identityProfile":{"vid":62988883,"identity":[{"value":"darelijus.lt@googlemail.com","type":"EMAIL","timestamp":1593883020732,"isPrimary":true},{"value":"97cfdb5d-76ba-480e-b174-a92bf7ce8de6","type":"LEAD_GUID","timestamp":1593883020744}],"linkedVid":[],"isContact":true,"savedAtTimestamp":1593883020747},"errors":[{"message":"A contact with email darelijus.lt@googlemail.com already exists.","in":"email"}],"status":"error","correlationId":"18c0da46-498e-48be-b535-9bd15ef973f9","category":"OBJECT_ALREADY_EXISTS","error":"CONTACT_EXISTS"}
Completed count:-4581
Completed count:-4582
Completed count:-4583
Error at count:-4584
URL:-https://api.hubapi.com/contacts/v1/contact/vid/{0}/profile?hapikey=962e8ce2-2314-4e7f-8dab-77b7f59c270c
URL:-https://api.hubapi.com/contacts/v1/contact/?hapikey=962e8ce2-2314-4e7f-8dab-77b7f59c270c
Response exception:System.Net.HttpWebResponse
Error records:-{"message":"Contact already exists","identityProfile":{"vid":2002401,"identity":[{"value":"ac56cc59-19ab-401e-8599-fb23c4ffe982","type":"LEAD_GUID","timestamp":1576757820808},{"value":"kemi.oyaboade@gmail.com","type":"EMAIL","timestamp":1589823979969,"isSecondary":true},{"value":"satowoseni@gmail.com","type":"EMAIL","timestamp":1599602060130,"isPrimary":true},{"value":"kemi.oyeboade@gmail.com","type":"EMAIL","timestamp":1599059612483,"isSecondary":true}],"linkedVid":[2544801,10138301,2013801,20597101,35189359,6464651,30311201],"isContact":true,"savedAtTimestamp":1599602060176},"errors":[{"message":"A contact with email satowoseni@gmail.com already exists.","in":"email"}],"status":"error","correlationId":"88ef24a7-560b-4234-9210-a2855df0cf09","category":"OBJECT_ALREADY_EXISTS","error":"CONTACT_EXISTS"}
Completed count:-4584
Completed count:-4585
Completed count:-4586
Completed count:-4587
Completed count:-4588
Completed count:-4589
Completed count:-4590
Completed count:-4591
Completed count:-4592
Completed count:-4593
Completed count:-4594
Error at count:-4595
URL:-https://api.hubapi.com/contacts/v1/contact/vid/{0}/profile?hapikey=962e8ce2-2314-4e7f-8dab-77b7f59c270c
URL:-https://api.hubapi.com/contacts/v1/contact/?hapikey=962e8ce2-2314-4e7f-8dab-77b7f59c270c
Response exception:System.Net.HttpWebResponse
Error records:-{"message":"Contact already exists","identityProfile":{"vid":62863821,"identity":[{"value":"ranaimtiaz1@gmail.com","type":"EMAIL","timestamp":1593882929776,"isPrimary":true},{"value":"1f57e7a2-666a-4deb-87e4-36ff5502a4c0","type":"LEAD_GUID","timestamp":1593882929786}],"linkedVid":[],"isContact":true,"savedAtTimestamp":1593882929788},"errors":[{"message":"A contact with email ranaimtiaz1@gmail.com already exists.","in":"email"}],"status":"error","correlationId":"9c0c06be-c044-4a9e-88c0-2af4bb240da5","category":"OBJECT_ALREADY_EXISTS","error":"CONTACT_EXISTS"}
Completed count:-4595
Completed count:-4596
Completed count:-4597
Error at count:-4598
URL:-https://api.hubapi.com/contacts/v1/contact/vid/{0}/profile?hapikey=962e8ce2-2314-4e7f-8dab-77b7f59c270c
URL:-https://api.hubapi.com/contacts/v1/contact/?hapikey=962e8ce2-2314-4e7f-8dab-77b7f59c270c
Response exception:System.Net.HttpWebResponse
Error records:-{"message":"Contact already exists","identityProfile":{"vid":62824935,"identity":[{"value":"noneemail@hotmail.com","type":"EMAIL","timestamp":1593882908493,"isPrimary":true},{"value":"7a5aa3e8-5567-46c8-a27f-1669cb3c240a","type":"LEAD_GUID","timestamp":1593882908500}],"linkedVid":[],"isContact":true,"savedAtTimestamp":1593882908502},"errors":[{"message":"A contact with email noneemail@hotmail.com already exists.","in":"email"}],"status":"error","correlationId":"352a07ca-d212-47f7-afb7-1126481d26e4","category":"OBJECT_ALREADY_EXISTS","error":"CONTACT_EXISTS"}
Completed count:-4598
Error at count:-4599
URL:-https://api.hubapi.com/contacts/v1/contact/vid/{0}/profile?hapikey=962e8ce2-2314-4e7f-8dab-77b7f59c270c
URL:-https://api.hubapi.com/contacts/v1/contact/?hapikey=962e8ce2-2314-4e7f-8dab-77b7f59c270c
Response exception:System.Net.HttpWebResponse
Error records:-{"message":"Contact already exists","identityProfile":{"vid":62824492,"identity":[{"value":"mario260573@yahoo.co.uk","type":"EMAIL","timestamp":1593882907587,"isPrimary":true},{"value":"c25004f3-a69e-4656-a8f1-c3156a1a077b","type":"LEAD_GUID","timestamp":1593882907597}],"linkedVid":[],"isContact":true,"savedAtTimestamp":1593882907598},"errors":[{"message":"A contact with email mario260573@yahoo.co.uk already exists.","in":"email"}],"status":"error","correlationId":"9d361491-2247-4a3d-a290-f51ace3da6fc","category":"OBJECT_ALREADY_EXISTS","error":"CONTACT_EXISTS"}
Completed count:-4599
Completed count:-4600
Completed count:-4601
Completed count:-4602
Completed count:-4603
Error at count:-4604
URL:-https://api.hubapi.com/contacts/v1/contact/vid/{0}/profile?hapikey=962e8ce2-2314-4e7f-8dab-77b7f59c270c
URL:-https://api.hubapi.com/contacts/v1/contact/?hapikey=962e8ce2-2314-4e7f-8dab-77b7f59c270c
Response exception:System.Net.HttpWebResponse
Error records:-{"message":"Contact already exists","identityProfile":{"vid":440555,"identity":[{"value":"aida.thiam@mail.com","type":"EMAIL","timestamp":1576130879344,"isPrimary":true},{"value":"a8b1d39b-363c-4a17-a6db-cccf330c0364","type":"LEAD_GUID","timestamp":1576130879352}],"linkedVid":[],"isContact":true,"savedAtTimestamp":1576130879353},"errors":[{"message":"A contact with email aida.thiam@mail.com already exists.","in":"email"}],"status":"error","correlationId":"7e20a737-8dbb-4837-a728-6376b42a45f6","category":"OBJECT_ALREADY_EXISTS","error":"CONTACT_EXISTS"}
Completed count:-4604
Completed count:-4605
Completed count:-4606
Completed count:-4607
Error at count:-4608
URL:-https://api.hubapi.com/contacts/v1/contact/vid/{0}/profile?hapikey=962e8ce2-2314-4e7f-8dab-77b7f59c270c
URL:-https://api.hubapi.com/contacts/v1/contact/?hapikey=962e8ce2-2314-4e7f-8dab-77b7f59c270c
Response exception:System.Net.HttpWebResponse
Error records:-{"message":"Contact already exists","identityProfile":{"vid":63978001,"identity":[{"value":"2f980e9f-fada-4e2b-a45f-6ce3b885dcd5","type":"LEAD_GUID","timestamp":1594132393409},{"value":"ch.ranjha@live.com","type":"EMAIL","timestamp":1598890820187,"isPrimary":true}],"linkedVid":[],"isContact":true,"createdWithoutEmail":true,"savedAtTimestamp":1598890820227,"promotedToContact":true},"errors":[{"message":"A contact with email ch.ranjha@live.com already exists.","in":"email"}],"status":"error","correlationId":"d82a30a4-b1ce-4fc5-9d05-7971c8e0cafa","category":"OBJECT_ALREADY_EXISTS","error":"CONTACT_EXISTS"}
Completed count:-4608
Completed count:-4609
Error at count:-4610
URL:-https://api.hubapi.com/contacts/v1/contact/vid/{0}/profile?hapikey=962e8ce2-2314-4e7f-8dab-77b7f59c270c
URL:-https://api.hubapi.com/contacts/v1/contact/?hapikey=962e8ce2-2314-4e7f-8dab-77b7f59c270c
Response exception:System.Net.HttpWebResponse
Error records:-{"message":"Contact already exists","identityProfile":{"vid":62880581,"identity":[{"value":"brooklynreanna@gmail.com","type":"EMAIL","timestamp":1593882938313,"isPrimary":true},{"value":"a4db9343-4e79-4669-902b-3ffbd7accaab","type":"LEAD_GUID","timestamp":1593882938320}],"linkedVid":[],"isContact":true,"savedAtTimestamp":1593882938323},"errors":[{"message":"A contact with email brooklynreanna@gmail.com already exists.","in":"email"}],"status":"error","correlationId":"6ecb9879-e492-4b72-8634-c4d12b82f9cb","category":"OBJECT_ALREADY_EXISTS","error":"CONTACT_EXISTS"}
