Error at count:-3432
URL:-https://api.hubapi.com/contacts/v1/contact/vid/{0}/profile?hapikey=962e8ce2-2314-4e7f-8dab-77b7f59c270c
URL:-https://api.hubapi.com/contacts/v1/contact/?hapikey=962e8ce2-2314-4e7f-8dab-77b7f59c270c
Response exception:System.Net.HttpWebResponse
Error records:-{"message":"Contact already exists","identityProfile":{"vid":62139102,"identity":[{"value":"gsv12000@hotmail.com","type":"EMAIL","timestamp":1593710890403,"isPrimary":true},{"value":"69e044fa-20d3-4916-b643-6381cf041292","type":"LEAD_GUID","timestamp":1593710890412}],"linkedVid":[],"isContact":true,"savedAtTimestamp":1593710890414},"errors":[{"message":"A contact with email gsv12000@hotmail.com already exists.","in":"email"}],"status":"error","correlationId":"679edf84-7efb-4183-8412-a80068dddc42","category":"OBJECT_ALREADY_EXISTS","error":"CONTACT_EXISTS"}
Completed count:-3432
Error at count:-3433
URL:-https://api.hubapi.com/contacts/v1/contact/vid/{0}/profile?hapikey=962e8ce2-2314-4e7f-8dab-77b7f59c270c
URL:-https://api.hubapi.com/contacts/v1/contact/?hapikey=962e8ce2-2314-4e7f-8dab-77b7f59c270c
Response exception:System.Net.HttpWebResponse
Error records:-{"message":"Contact already exists","identityProfile":{"vid":64022010,"identity":[{"value":"6cc2ff71-4d61-401f-9b4f-96ae9eb93e13","type":"LEAD_GUID","timestamp":1594132399466},{"value":"kausarfarzana522@gmail.com","type":"EMAIL","timestamp":1598890821483,"isPrimary":true}],"linkedVid":[],"isContact":true,"createdWithoutEmail":true,"savedAtTimestamp":1598890821536,"promotedToContact":true},"errors":[{"message":"A contact with email kausarfarzana522@gmail.com already exists.","in":"email"}],"status":"error","correlationId":"e1f44b53-88f8-4ce1-937e-8d8baa98dd90","category":"OBJECT_ALREADY_EXISTS","error":"CONTACT_EXISTS"}
Completed count:-3433
Error at count:-3434
URL:-https://api.hubapi.com/contacts/v1/contact/vid/{0}/profile?hapikey=962e8ce2-2314-4e7f-8dab-77b7f59c270c
URL:-https://api.hubapi.com/contacts/v1/contact/?hapikey=962e8ce2-2314-4e7f-8dab-77b7f59c270c
Response exception:System.Net.HttpWebResponse
Error records:-{"message":"Contact already exists","identityProfile":{"vid":438096,"identity":[{"value":"crystallovesajmadden2015@outlook.com","type":"EMAIL","timestamp":1576130875663,"isPrimary":true},{"value":"39855799-7dbd-483a-94c2-8787d0814e48","type":"LEAD_GUID","timestamp":1576130875674}],"linkedVid":[],"isContact":true,"savedAtTimestamp":1576130875677},"errors":[{"message":"A contact with email crystallovesajmadden2015@outlook.com already exists.","in":"email"}],"status":"error","correlationId":"50826999-4c45-4e5a-b7a2-8ce29ecf1549","category":"OBJECT_ALREADY_EXISTS","error":"CONTACT_EXISTS"}
Completed count:-3434
Completed count:-3435
Completed count:-3436
Error at count:-3437
URL:-https://api.hubapi.com/contacts/v1/contact/vid/{0}/profile?hapikey=962e8ce2-2314-4e7f-8dab-77b7f59c270c
URL:-https://api.hubapi.com/contacts/v1/contact/?hapikey=962e8ce2-2314-4e7f-8dab-77b7f59c270c
Response exception:System.Net.HttpWebResponse
Error records:-{"message":"Contact already exists","identityProfile":{"vid":19359901,"identity":[{"value":"betixitrum@yahoo.com","type":"EMAIL","timestamp":1582825134985,"isPrimary":true},{"value":"9c5b3968-de64-47c5-89d0-f6702a565c93","type":"LEAD_GUID","timestamp":1582825135002}],"linkedVid":[],"isContact":true,"savedAtTimestamp":1582825135007},"errors":[{"message":"A contact with email betixitrum@yahoo.com already exists.","in":"email"}],"status":"error","correlationId":"aa2547ad-60d1-4200-af76-e9bb830dbbb3","category":"OBJECT_ALREADY_EXISTS","error":"CONTACT_EXISTS"}
Completed count:-3437
Error at count:-3438
URL:-https://api.hubapi.com/contacts/v1/contact/vid/{0}/profile?hapikey=962e8ce2-2314-4e7f-8dab-77b7f59c270c
URL:-https://api.hubapi.com/contacts/v1/contact/?hapikey=962e8ce2-2314-4e7f-8dab-77b7f59c270c
Response exception:System.Net.HttpWebResponse
Error records:-{"message":"Contact already exists","identityProfile":{"vid":62970467,"identity":[{"value":"4fdc484b-d8d0-41a9-b8d9-a7af8d530aea","type":"LEAD_GUID","timestamp":1593882999910},{"value":"hutanumadalinaiuliana@gmail.com","type":"EMAIL","timestamp":1598890819593,"isPrimary":true}],"linkedVid":[],"isContact":true,"savedAtTimestamp":1598890819639},"errors":[{"message":"A contact with email hutanumadalinaiuliana@gmail.com already exists.","in":"email"}],"status":"error","correlationId":"cac28c12-50cd-4a16-a281-8665cd850791","category":"OBJECT_ALREADY_EXISTS","error":"CONTACT_EXISTS"}
Completed count:-3438
Completed count:-3439
Error at count:-3440
URL:-https://api.hubapi.com/contacts/v1/contact/vid/{0}/profile?hapikey=962e8ce2-2314-4e7f-8dab-77b7f59c270c
URL:-https://api.hubapi.com/contacts/v1/contact/?hapikey=962e8ce2-2314-4e7f-8dab-77b7f59c270c
Response exception:System.Net.HttpWebResponse
Error records:-{"message":"Contact already exists","identityProfile":{"vid":64014103,"identity":[{"value":"bd6601bd-bf74-4b46-bf2b-1fceab08299f","type":"LEAD_GUID","timestamp":1594132398621},{"value":"sam197610@gmail.com","type":"EMAIL","timestamp":1598890819562,"isPrimary":true}],"linkedVid":[],"isContact":true,"createdWithoutEmail":true,"savedAtTimestamp":1598890819606,"promotedToContact":true},"errors":[{"message":"A contact with email sam197610@gmail.com already exists.","in":"email"}],"status":"error","correlationId":"8a05cbf4-4fa2-4d53-ae01-9e308e9143da","category":"OBJECT_ALREADY_EXISTS","error":"CONTACT_EXISTS"}
Completed count:-3440
Completed count:-3441
Completed count:-3442
Completed count:-3443
Error at count:-3444
URL:-https://api.hubapi.com/contacts/v1/contact/vid/{0}/profile?hapikey=962e8ce2-2314-4e7f-8dab-77b7f59c270c
URL:-https://api.hubapi.com/contacts/v1/contact/?hapikey=962e8ce2-2314-4e7f-8dab-77b7f59c270c
Response exception:System.Net.HttpWebResponse
Error records:-{"message":"Contact already exists","identityProfile":{"vid":32363502,"identity":[{"value":"dryclean.aqua@gmail.com","type":"EMAIL","timestamp":1586357006944,"isPrimary":true},{"value":"9d95c6b8-dfdb-4933-89ab-a0356a030165","type":"LEAD_GUID","timestamp":1586357006959}],"linkedVid":[],"isContact":true,"savedAtTimestamp":1586357006961},"errors":[{"message":"A contact with email dryclean.aqua@gmail.com already exists.","in":"email"}],"status":"error","correlationId":"6ac1d026-2312-4fef-83d4-114556ef8a3a","category":"OBJECT_ALREADY_EXISTS","error":"CONTACT_EXISTS"}
Completed count:-3444
Completed count:-3445
Completed count:-3446
Completed count:-3447
Completed count:-3448
Completed count:-3449
Error at count:-3450
URL:-https://api.hubapi.com/contacts/v1/contact/vid/{0}/profile?hapikey=962e8ce2-2314-4e7f-8dab-77b7f59c270c
URL:-https://api.hubapi.com/contacts/v1/contact/?hapikey=962e8ce2-2314-4e7f-8dab-77b7f59c270c
Response exception:System.Net.HttpWebResponse
Error records:-{"message":"Contact already exists","identityProfile":{"vid":62896695,"identity":[{"value":"laima65@live.co.uk","type":"EMAIL","timestamp":1593882954618,"isPrimary":true},{"value":"780c8fd4-2dbe-44e5-985b-81891710e806","type":"LEAD_GUID","timestamp":1593882954627}],"linkedVid":[],"isContact":true,"savedAtTimestamp":1593882954630},"errors":[{"message":"A contact with email laima65@live.co.uk already exists.","in":"email"}],"status":"error","correlationId":"babdd0d4-2544-4329-92cd-ccfac8a50c14","category":"OBJECT_ALREADY_EXISTS","error":"CONTACT_EXISTS"}
Completed count:-3450
Error at count:-3451
URL:-https://api.hubapi.com/contacts/v1/contact/vid/{0}/profile?hapikey=962e8ce2-2314-4e7f-8dab-77b7f59c270c
URL:-https://api.hubapi.com/contacts/v1/contact/?hapikey=962e8ce2-2314-4e7f-8dab-77b7f59c270c
Response exception:System.Net.HttpWebResponse
Error records:-{"message":"Contact already exists","identityProfile":{"vid":62828625,"identity":[{"value":"111b3ff2-7b29-47d4-8e02-88b6bc1b313a","type":"LEAD_GUID","timestamp":1593882911959},{"value":"jenlacdao@yahoo.co.uk","type":"EMAIL","timestamp":1599664284351,"isPrimary":true}],"linkedVid":[],"isContact":true,"savedAtTimestamp":1599664284406},"errors":[{"message":"A contact with email jenlacdao@yahoo.co.uk already exists.","in":"email"}],"status":"error","correlationId":"45d43c77-f203-4240-856f-6d2a9036ad61","category":"OBJECT_ALREADY_EXISTS","error":"CONTACT_EXISTS"}
Completed count:-3451
Completed count:-3452
Error at count:-3453
URL:-https://api.hubapi.com/contacts/v1/contact/vid/{0}/profile?hapikey=962e8ce2-2314-4e7f-8dab-77b7f59c270c
URL:-https://api.hubapi.com/contacts/v1/contact/?hapikey=962e8ce2-2314-4e7f-8dab-77b7f59c270c
Response exception:System.Net.HttpWebResponse
Error records:-{"message":"Contact already exists","identityProfile":{"vid":62133030,"identity":[{"value":"robailmamuktar@gmail.com","type":"EMAIL","timestamp":1593710886195,"isPrimary":true},{"value":"11009926-c75f-434e-9dba-dc9d17873a3f","type":"LEAD_GUID","timestamp":1593710886202}],"linkedVid":[],"isContact":true,"savedAtTimestamp":1593710886205},"errors":[{"message":"A contact with email robailmamuktar@gmail.com already exists.","in":"email"}],"status":"error","correlationId":"a0b373f4-64df-492a-a18a-8ede9db6e8ad","category":"OBJECT_ALREADY_EXISTS","error":"CONTACT_EXISTS"}
Completed count:-3453
Error at count:-3454
URL:-https://api.hubapi.com/contacts/v1/contact/vid/{0}/profile?hapikey=962e8ce2-2314-4e7f-8dab-77b7f59c270c
URL:-https://api.hubapi.com/contacts/v1/contact/?hapikey=962e8ce2-2314-4e7f-8dab-77b7f59c270c
Response exception:System.Net.HttpWebResponse
Error records:-{"message":"Contact already exists","identityProfile":{"vid":5822251,"identity":[{"value":"ppr8104@gmail.com","type":"EMAIL","timestamp":1578404635226,"isPrimary":true},{"value":"9da867f3-5e85-41c8-94ce-6ecf9b74c42b","type":"LEAD_GUID","timestamp":1578404637312}],"linkedVid":[6034201,5820101],"isContact":true,"savedAtTimestamp":1578517955640},"errors":[{"message":"A contact with email ppr8104@gmail.com already exists.","in":"email"}],"status":"error","correlationId":"513dd416-0ad3-4395-9b1f-2c75ff82b134","category":"OBJECT_ALREADY_EXISTS","error":"CONTACT_EXISTS"}
Completed count:-3454
Error at count:-3455
URL:-https://api.hubapi.com/contacts/v1/contact/vid/{0}/profile?hapikey=962e8ce2-2314-4e7f-8dab-77b7f59c270c
URL:-https://api.hubapi.com/contacts/v1/contact/?hapikey=962e8ce2-2314-4e7f-8dab-77b7f59c270c
Response exception:System.Net.HttpWebResponse
Error records:-{"message":"Contact already exists","identityProfile":{"vid":2934471,"identity":[{"value":"d7ef858c-afda-4f43-a9ff-e780c017008f","type":"LEAD_GUID","timestamp":1578944359027},{"value":"alamk2006@gmail.com","type":"EMAIL","timestamp":1580029968573,"isPrimary":true},{"value":"alamk2006@yahoo.com","type":"EMAIL","timestamp":1578944357179,"isSecondary":true}],"linkedVid":[],"isContact":true,"savedAtTimestamp":1580029970481},"errors":[{"message":"A contact with email alamk2006@gmail.com already exists.","in":"email"}],"status":"error","correlationId":"4ad2bb65-db98-40cf-99b5-87016d5892c5","category":"OBJECT_ALREADY_EXISTS","error":"CONTACT_EXISTS"}
Completed count:-3455
Completed count:-3456
Completed count:-3457
Completed count:-3458
Completed count:-3459
Completed count:-3460
Completed count:-3461
Completed count:-3462
Completed count:-3463
Completed count:-3464
Error at count:-3465
URL:-https://api.hubapi.com/contacts/v1/contact/vid/{0}/profile?hapikey=962e8ce2-2314-4e7f-8dab-77b7f59c270c
URL:-https://api.hubapi.com/contacts/v1/contact/?hapikey=962e8ce2-2314-4e7f-8dab-77b7f59c270c
Response exception:System.Net.HttpWebResponse
Error records:-{"message":"Contact already exists","identityProfile":{"vid":62896723,"identity":[{"value":"elaiedek@op.pl","type":"EMAIL","timestamp":1593882954105,"isPrimary":true},{"value":"9615a5e0-4796-4312-864a-70476cc03ad7","type":"LEAD_GUID","timestamp":1593882954119}],"linkedVid":[],"isContact":true,"savedAtTimestamp":1593882954122},"errors":[{"message":"A contact with email elaiedek@op.pl already exists.","in":"email"}],"status":"error","correlationId":"b9492501-64c5-48d5-9228-395eebbbc801","category":"OBJECT_ALREADY_EXISTS","error":"CONTACT_EXISTS"}
Completed count:-3465
Completed count:-3466
Completed count:-3467
Error at count:-3468
URL:-https://api.hubapi.com/contacts/v1/contact/vid/{0}/profile?hapikey=962e8ce2-2314-4e7f-8dab-77b7f59c270c
URL:-https://api.hubapi.com/contacts/v1/contact/?hapikey=962e8ce2-2314-4e7f-8dab-77b7f59c270c
Response exception:System.Net.HttpWebResponse
Error records:-{"message":"Contact already exists","identityProfile":{"vid":62972430,"identity":[{"value":"rowickiartur86@gmail.com","type":"EMAIL","timestamp":1593883002855,"isPrimary":true},{"value":"f4325c2b-f4d1-437f-a1ad-c02362b69804","type":"LEAD_GUID","timestamp":1593883002867}],"linkedVid":[],"isContact":true,"savedAtTimestamp":1593883002869},"errors":[{"message":"A contact with email rowickiartur86@gmail.com already exists.","in":"email"}],"status":"error","correlationId":"ce86db09-a745-4935-97b6-0274cad5435a","category":"OBJECT_ALREADY_EXISTS","error":"CONTACT_EXISTS"}
Completed count:-3468
Completed count:-3469
Error at count:-3470
URL:-https://api.hubapi.com/contacts/v1/contact/vid/{0}/profile?hapikey=962e8ce2-2314-4e7f-8dab-77b7f59c270c
URL:-https://api.hubapi.com/contacts/v1/contact/?hapikey=962e8ce2-2314-4e7f-8dab-77b7f59c270c
Response exception:System.Net.HttpWebResponse
Error records:-{"message":"Contact already exists","identityProfile":{"vid":62915801,"identity":[{"value":"jessa80@wp.pl","type":"EMAIL","timestamp":1593882969065,"isPrimary":true},{"value":"67a802df-5819-410c-8347-67094745719a","type":"LEAD_GUID","timestamp":1593882969072}],"linkedVid":[],"isContact":true,"savedAtTimestamp":1593882969077},"errors":[{"message":"A contact with email jessa80@wp.pl already exists.","in":"email"}],"status":"error","correlationId":"e8985155-d354-485c-b7de-80250614f18b","category":"OBJECT_ALREADY_EXISTS","error":"CONTACT_EXISTS"}
Completed count:-3470
Completed count:-3471
Completed count:-3472
Completed count:-3473
Completed count:-3474
Completed count:-3475
Completed count:-3476
Error at count:-3477
URL:-https://api.hubapi.com/contacts/v1/contact/vid/{0}/profile?hapikey=962e8ce2-2314-4e7f-8dab-77b7f59c270c
URL:-https://api.hubapi.com/contacts/v1/contact/?hapikey=962e8ce2-2314-4e7f-8dab-77b7f59c270c
Response exception:System.Net.HttpWebResponse
Error records:-{"message":"Contact already exists","identityProfile":{"vid":62885296,"identity":[{"value":"gtrefft@yahoo.com","type":"EMAIL","timestamp":1593882948784,"isPrimary":true},{"value":"7eeb8d02-be5d-462f-9783-587e8dc9d487","type":"LEAD_GUID","timestamp":1593882948792}],"linkedVid":[],"isContact":true,"savedAtTimestamp":1593882948795},"errors":[{"message":"A contact with email gtrefft@yahoo.com already exists.","in":"email"}],"status":"error","correlationId":"2321e372-3cbd-4aff-99be-fff383e88c69","category":"OBJECT_ALREADY_EXISTS","error":"CONTACT_EXISTS"}
Completed count:-3477
Completed count:-3478
Completed count:-3479
Completed count:-3480
Error at count:-3481
URL:-https://api.hubapi.com/contacts/v1/contact/vid/{0}/profile?hapikey=962e8ce2-2314-4e7f-8dab-77b7f59c270c
URL:-https://api.hubapi.com/contacts/v1/contact/?hapikey=962e8ce2-2314-4e7f-8dab-77b7f59c270c
Response exception:System.Net.HttpWebResponse
Error records:-{"message":"Contact already exists","identityProfile":{"vid":62143102,"identity":[{"value":"imtiazahmad6195@gmail.com","type":"EMAIL","timestamp":1593710896159,"isPrimary":true},{"value":"717e2f47-9047-4d42-bff9-d023421f629f","type":"LEAD_GUID","timestamp":1593710896168}],"linkedVid":[63911244],"isContact":true,"savedAtTimestamp":1594128266273},"errors":[{"message":"A contact with email imtiazahmad6195@gmail.com already exists.","in":"email"}],"status":"error","correlationId":"c1623b5d-c3e1-44fa-9745-4b65ea1e9d5f","category":"OBJECT_ALREADY_EXISTS","error":"CONTACT_EXISTS"}
Completed count:-3481
Completed count:-3482
Completed count:-3483
Error at count:-3484
URL:-https://api.hubapi.com/contacts/v1/contact/vid/{0}/profile?hapikey=962e8ce2-2314-4e7f-8dab-77b7f59c270c
URL:-https://api.hubapi.com/contacts/v1/contact/?hapikey=962e8ce2-2314-4e7f-8dab-77b7f59c270c
Response exception:System.Net.HttpWebResponse
Error records:-{"message":"Contact already exists","identityProfile":{"vid":440513,"identity":[{"value":"u.ali82@yahoo.co.uk","type":"EMAIL","timestamp":1576130879487,"isPrimary":true},{"value":"16865312-07ef-463f-b384-0de385d408e6","type":"LEAD_GUID","timestamp":1576130879497}],"linkedVid":[],"isContact":true,"savedAtTimestamp":1576130879513},"errors":[{"message":"A contact with email u.ali82@yahoo.co.uk already exists.","in":"email"}],"status":"error","correlationId":"24993715-ea46-4e9c-98a0-08c157a70a54","category":"OBJECT_ALREADY_EXISTS","error":"CONTACT_EXISTS"}
Completed count:-3484
Completed count:-3485
Completed count:-3486
Completed count:-3487
Completed count:-3488
Completed count:-3489
Error at count:-3490
URL:-https://api.hubapi.com/contacts/v1/contact/vid/{0}/profile?hapikey=962e8ce2-2314-4e7f-8dab-77b7f59c270c
URL:-https://api.hubapi.com/contacts/v1/contact/?hapikey=962e8ce2-2314-4e7f-8dab-77b7f59c270c
Response exception:System.Net.HttpWebResponse
Error records:-{"message":"Contact already exists","identityProfile":{"vid":62959644,"identity":[{"value":"marinataylor881@yahoo.com","type":"EMAIL","timestamp":1593882989390,"isPrimary":true},{"value":"5569e81b-6965-4a49-8c35-a0a8cf73c055","type":"LEAD_GUID","timestamp":1593882989404}],"linkedVid":[],"isContact":true,"savedAtTimestamp":1593882989407},"errors":[{"message":"A contact with email marinataylor881@yahoo.com already exists.","in":"email"}],"status":"error","correlationId":"a8cc5eb3-ce70-46c8-b862-fbae4a62e44f","category":"OBJECT_ALREADY_EXISTS","error":"CONTACT_EXISTS"}
Completed count:-3490
Error at count:-3491
URL:-https://api.hubapi.com/contacts/v1/contact/vid/{0}/profile?hapikey=962e8ce2-2314-4e7f-8dab-77b7f59c270c
URL:-https://api.hubapi.com/contacts/v1/contact/?hapikey=962e8ce2-2314-4e7f-8dab-77b7f59c270c
Response exception:System.Net.HttpWebResponse
Error records:-{"message":"Contact already exists","identityProfile":{"vid":62142513,"identity":[{"value":"razyah@hotmail.com","type":"EMAIL","timestamp":1593710895962,"isPrimary":true},{"value":"b0541948-2631-4e8d-9b91-f006f239c5ff","type":"LEAD_GUID","timestamp":1593710895971}],"linkedVid":[],"isContact":true,"savedAtTimestamp":1593710895974},"errors":[{"message":"A contact with email razyah@hotmail.com already exists.","in":"email"}],"status":"error","correlationId":"2d99640c-332d-4c41-8667-555722494c66","category":"OBJECT_ALREADY_EXISTS","error":"CONTACT_EXISTS"}
Completed count:-3491
Error at count:-3492
URL:-https://api.hubapi.com/contacts/v1/contact/vid/{0}/profile?hapikey=962e8ce2-2314-4e7f-8dab-77b7f59c270c
URL:-https://api.hubapi.com/contacts/v1/contact/?hapikey=962e8ce2-2314-4e7f-8dab-77b7f59c270c
Response exception:System.Net.HttpWebResponse
Error records:-{"message":"Contact already exists","identityProfile":{"vid":62825165,"identity":[{"value":"danyal94@live.co.uk","type":"EMAIL","timestamp":1593882908278,"isPrimary":true},{"value":"f14f5784-b975-4018-bb1a-f5360ab0d519","type":"LEAD_GUID","timestamp":1593882908286}],"linkedVid":[],"isContact":true,"savedAtTimestamp":1593882908289},"errors":[{"message":"A contact with email danyal94@live.co.uk already exists.","in":"email"}],"status":"error","correlationId":"e4a61612-f433-4336-9535-84625d634ba3","category":"OBJECT_ALREADY_EXISTS","error":"CONTACT_EXISTS"}
Completed count:-3492
Error at count:-3493
URL:-https://api.hubapi.com/contacts/v1/contact/vid/{0}/profile?hapikey=962e8ce2-2314-4e7f-8dab-77b7f59c270c
URL:-https://api.hubapi.com/contacts/v1/contact/?hapikey=962e8ce2-2314-4e7f-8dab-77b7f59c270c
Response exception:System.Net.HttpWebResponse
Error records:-{"message":"Contact already exists","identityProfile":{"vid":50666651,"identity":[{"value":"c68a3f92-95ff-472c-a737-3d588e8a7223","type":"LEAD_GUID","timestamp":1590832985771},{"value":"natasha_davis_91@hotmail.com","type":"EMAIL","timestamp":1598890817855,"isPrimary":true}],"linkedVid":[50667401],"isContact":true,"savedAtTimestamp":1598890817929},"errors":[{"message":"A contact with email natasha_davis_91@hotmail.com already exists.","in":"email"}],"status":"error","correlationId":"d9fc9f57-3346-4614-ab2f-6ef941c7b68b","category":"OBJECT_ALREADY_EXISTS","error":"CONTACT_EXISTS"}
Completed count:-3493
Completed count:-3494
Error at count:-3495
URL:-https://api.hubapi.com/contacts/v1/contact/vid/{0}/profile?hapikey=962e8ce2-2314-4e7f-8dab-77b7f59c270c
URL:-https://api.hubapi.com/contacts/v1/contact/?hapikey=962e8ce2-2314-4e7f-8dab-77b7f59c270c
Response exception:System.Net.HttpWebResponse
Error records:-{"message":"Contact already exists","identityProfile":{"vid":62939449,"identity":[{"value":"curtains393@wp.pl","type":"EMAIL","timestamp":1593882982701,"isPrimary":true},{"value":"cfe3e77b-1229-4877-b5e5-26557d91d451","type":"LEAD_GUID","timestamp":1593882982712}],"linkedVid":[],"isContact":true,"savedAtTimestamp":1593882982714},"errors":[{"message":"A contact with email curtains393@wp.pl already exists.","in":"email"}],"status":"error","correlationId":"f116cca3-29ab-4c67-b6da-989709e33c2f","category":"OBJECT_ALREADY_EXISTS","error":"CONTACT_EXISTS"}
Completed count:-3495
Error at count:-3496
URL:-https://api.hubapi.com/contacts/v1/contact/vid/{0}/profile?hapikey=962e8ce2-2314-4e7f-8dab-77b7f59c270c
URL:-https://api.hubapi.com/contacts/v1/contact/?hapikey=962e8ce2-2314-4e7f-8dab-77b7f59c270c
Response exception:System.Net.HttpWebResponse
Error records:-{"message":"Contact already exists","identityProfile":{"vid":62896827,"identity":[{"value":"mahma433@gmail.com","type":"EMAIL","timestamp":1593882954260,"isPrimary":true},{"value":"9969d15b-13df-4ef4-a26b-13d323797949","type":"LEAD_GUID","timestamp":1593882954273}],"linkedVid":[],"isContact":true,"savedAtTimestamp":1593882954276},"errors":[{"message":"A contact with email mahma433@gmail.com already exists.","in":"email"}],"status":"error","correlationId":"a1025e34-fa8a-4c3e-b30c-5a6a80a6045d","category":"OBJECT_ALREADY_EXISTS","error":"CONTACT_EXISTS"}
Completed count:-3496
Error at count:-3497
URL:-https://api.hubapi.com/contacts/v1/contact/vid/{0}/profile?hapikey=962e8ce2-2314-4e7f-8dab-77b7f59c270c
URL:-https://api.hubapi.com/contacts/v1/contact/?hapikey=962e8ce2-2314-4e7f-8dab-77b7f59c270c
Response exception:System.Net.HttpWebResponse
Error records:-{"message":"Contact already exists","identityProfile":{"vid":62840591,"identity":[{"value":"9d2d21e7-51a2-4d4c-9646-5f098e0c2e4e","type":"LEAD_GUID","timestamp":1593882919618},{"value":"apple.save@gmail.com","type":"EMAIL","timestamp":1598887126427,"isPrimary":true}],"linkedVid":[],"isContact":true,"savedAtTimestamp":1598887126543},"errors":[{"message":"A contact with email apple.save@gmail.com already exists.","in":"email"}],"status":"error","correlationId":"04e3b8cf-b9a3-4562-9bd3-1036e41be1db","category":"OBJECT_ALREADY_EXISTS","error":"CONTACT_EXISTS"}
Completed count:-3497
Completed count:-3498
Error at count:-3499
URL:-https://api.hubapi.com/contacts/v1/contact/vid/{0}/profile?hapikey=962e8ce2-2314-4e7f-8dab-77b7f59c270c
URL:-https://api.hubapi.com/contacts/v1/contact/?hapikey=962e8ce2-2314-4e7f-8dab-77b7f59c270c
Response exception:System.Net.HttpWebResponse
Error records:-{"message":"Contact already exists","identityProfile":{"vid":62905137,"identity":[{"value":"sngparul@gmail.com","type":"EMAIL","timestamp":1593882959549,"isPrimary":true},{"value":"c13e01da-032c-42fe-8537-649c39605127","type":"LEAD_GUID","timestamp":1593882959561}],"linkedVid":[],"isContact":true,"savedAtTimestamp":1593882959564},"errors":[{"message":"A contact with email sngparul@gmail.com already exists.","in":"email"}],"status":"error","correlationId":"0adbdac0-3d61-48b8-b12b-1e582fd6e9ba","category":"OBJECT_ALREADY_EXISTS","error":"CONTACT_EXISTS"}
Completed count:-3499
Completed count:-3500
Error at count:-3501
URL:-https://api.hubapi.com/contacts/v1/contact/vid/{0}/profile?hapikey=962e8ce2-2314-4e7f-8dab-77b7f59c270c
URL:-https://api.hubapi.com/contacts/v1/contact/?hapikey=962e8ce2-2314-4e7f-8dab-77b7f59c270c
Response exception:System.Net.HttpWebResponse
Error records:-{"message":"Contact already exists","identityProfile":{"vid":62973177,"identity":[{"value":"shadowglass4517.rs@gmail.com","type":"EMAIL","timestamp":1593883005144,"isPrimary":true},{"value":"c5191e40-a6da-4de4-8e66-f38bc3203244","type":"LEAD_GUID","timestamp":1593883005151}],"linkedVid":[],"isContact":true,"savedAtTimestamp":1593883005154},"errors":[{"message":"A contact with email shadowglass4517.rs@gmail.com already exists.","in":"email"}],"status":"error","correlationId":"cfe7d927-2fc0-4bf3-aa1d-d06816b3240b","category":"OBJECT_ALREADY_EXISTS","error":"CONTACT_EXISTS"}
Completed count:-3501
Completed count:-3502
Completed count:-3503
Completed count:-3504
Error at count:-3505
URL:-https://api.hubapi.com/contacts/v1/contact/vid/{0}/profile?hapikey=962e8ce2-2314-4e7f-8dab-77b7f59c270c
URL:-https://api.hubapi.com/contacts/v1/contact/?hapikey=962e8ce2-2314-4e7f-8dab-77b7f59c270c
Response exception:System.Net.HttpWebResponse
Error records:-{"message":"Contact already exists","identityProfile":{"vid":62959924,"identity":[{"value":"73cd208d-c5c2-46f8-8dcf-1b8d9871ac56","type":"LEAD_GUID","timestamp":1593882989332},{"value":"ozzyscarwash@gmail.com","type":"EMAIL","timestamp":1599592943344,"isPrimary":true}],"linkedVid":[],"isContact":true,"savedAtTimestamp":1599592943395},"errors":[{"message":"A contact with email ozzyscarwash@gmail.com already exists.","in":"email"}],"status":"error","correlationId":"b4a7e3c4-62b2-4625-8e6a-8eb1fd7722d6","category":"OBJECT_ALREADY_EXISTS","error":"CONTACT_EXISTS"}
Completed count:-3505
Error at count:-3506
URL:-https://api.hubapi.com/contacts/v1/contact/vid/{0}/profile?hapikey=962e8ce2-2314-4e7f-8dab-77b7f59c270c
URL:-https://api.hubapi.com/contacts/v1/contact/?hapikey=962e8ce2-2314-4e7f-8dab-77b7f59c270c
Response exception:System.Net.HttpWebResponse
Error records:-{"message":"Contact already exists","identityProfile":{"vid":62864189,"identity":[{"value":"hellodrpk@yahoo.com","type":"EMAIL","timestamp":1593882930223,"isPrimary":true},{"value":"a20cfa42-52a5-4579-a4eb-12cdda2a6016","type":"LEAD_GUID","timestamp":1593882930231}],"linkedVid":[],"isContact":true,"savedAtTimestamp":1593882930233},"errors":[{"message":"A contact with email hellodrpk@yahoo.com already exists.","in":"email"}],"status":"error","correlationId":"fbcba64c-fc7a-4264-becc-209cb667d550","category":"OBJECT_ALREADY_EXISTS","error":"CONTACT_EXISTS"}
Completed count:-3506
Error at count:-3507
URL:-https://api.hubapi.com/contacts/v1/contact/vid/{0}/profile?hapikey=962e8ce2-2314-4e7f-8dab-77b7f59c270c
URL:-https://api.hubapi.com/contacts/v1/contact/?hapikey=962e8ce2-2314-4e7f-8dab-77b7f59c270c
Response exception:System.Net.HttpWebResponse
Error records:-{"message":"Contact already exists","identityProfile":{"vid":62970131,"identity":[{"value":"jagkaur313@gmail.com","type":"EMAIL","timestamp":1593882999765,"isPrimary":true},{"value":"b4bd9384-0c75-4efe-b2e6-3e295a0bcdf8","type":"LEAD_GUID","timestamp":1593882999774}],"linkedVid":[],"isContact":true,"savedAtTimestamp":1593882999777},"errors":[{"message":"A contact with email jagkaur313@gmail.com already exists.","in":"email"}],"status":"error","correlationId":"848d47eb-c072-4aeb-b67b-6d2af1f18b98","category":"OBJECT_ALREADY_EXISTS","error":"CONTACT_EXISTS"}
Completed count:-3507
Error at count:-3508
URL:-https://api.hubapi.com/contacts/v1/contact/vid/{0}/profile?hapikey=962e8ce2-2314-4e7f-8dab-77b7f59c270c
URL:-https://api.hubapi.com/contacts/v1/contact/?hapikey=962e8ce2-2314-4e7f-8dab-77b7f59c270c
Response exception:System.Net.HttpWebResponse
Error records:-{"message":"Contact already exists","identityProfile":{"vid":14557801,"identity":[{"value":"thana.hussain@gmail.com","type":"EMAIL","timestamp":1581466258244,"isPrimary":true},{"value":"224256e3-896e-41b9-8288-a248d7bd2c85","type":"LEAD_GUID","timestamp":1581466258268}],"linkedVid":[24148401,14879654],"isContact":true,"savedAtTimestamp":1584434548879},"errors":[{"message":"A contact with email thana.hussain@gmail.com already exists.","in":"email"}],"status":"error","correlationId":"5245a9ec-c49a-4e53-8e7c-1d78de19cb93","category":"OBJECT_ALREADY_EXISTS","error":"CONTACT_EXISTS"}
Completed count:-3508
Error at count:-3509
URL:-https://api.hubapi.com/contacts/v1/contact/vid/{0}/profile?hapikey=962e8ce2-2314-4e7f-8dab-77b7f59c270c
URL:-https://api.hubapi.com/contacts/v1/contact/?hapikey=962e8ce2-2314-4e7f-8dab-77b7f59c270c
Response exception:System.Net.HttpWebResponse
Error records:-{"message":"Contact already exists","identityProfile":{"vid":62962693,"identity":[{"value":"innusiki@hotmail.com","type":"EMAIL","timestamp":1593882993537,"isPrimary":true},{"value":"765750ef-036b-4deb-85ee-5b9999df0699","type":"LEAD_GUID","timestamp":1593882993545}],"linkedVid":[3161451],"isContact":true,"savedAtTimestamp":1594233598769},"errors":[{"message":"A contact with email innusiki@hotmail.com already exists.","in":"email"}],"status":"error","correlationId":"eb13b1ca-bd01-4349-b494-889096231ab4","category":"OBJECT_ALREADY_EXISTS","error":"CONTACT_EXISTS"}
Completed count:-3509
Completed count:-3510
Completed count:-3511
Completed count:-3512
Error at count:-3513
URL:-https://api.hubapi.com/contacts/v1/contact/vid/{0}/profile?hapikey=962e8ce2-2314-4e7f-8dab-77b7f59c270c
URL:-https://api.hubapi.com/contacts/v1/contact/?hapikey=962e8ce2-2314-4e7f-8dab-77b7f59c270c
Response exception:System.Net.HttpWebResponse
Error records:-{"message":"Contact already exists","identityProfile":{"vid":63982551,"identity":[{"value":"05ce048b-1f24-48cf-9554-6171cb2ae1ae","type":"LEAD_GUID","timestamp":1594132393686},{"value":"kkonasiuk@gmail.com","type":"EMAIL","timestamp":1599596388510,"isPrimary":true}],"linkedVid":[],"isContact":true,"savedAtTimestamp":1599596388572},"errors":[{"message":"A contact with email kkonasiuk@gmail.com already exists.","in":"email"}],"status":"error","correlationId":"87546be4-2f93-459a-8c8e-d20076f167c6","category":"OBJECT_ALREADY_EXISTS","error":"CONTACT_EXISTS"}
Completed count:-3513
Completed count:-3514
Error at count:-3515
URL:-https://api.hubapi.com/contacts/v1/contact/vid/{0}/profile?hapikey=962e8ce2-2314-4e7f-8dab-77b7f59c270c
URL:-https://api.hubapi.com/contacts/v1/contact/?hapikey=962e8ce2-2314-4e7f-8dab-77b7f59c270c
Response exception:System.Net.HttpWebResponse
Error records:-{"message":"Contact already exists","identityProfile":{"vid":62825281,"identity":[{"value":"msaher691@gmail.com","type":"EMAIL","timestamp":1593882908937,"isPrimary":true},{"value":"66bb381f-b310-4217-a942-54b646cbbe2f","type":"LEAD_GUID","timestamp":1593882908946}],"linkedVid":[],"isContact":true,"savedAtTimestamp":1593882908949},"errors":[{"message":"A contact with email msaher691@gmail.com already exists.","in":"email"}],"status":"error","correlationId":"1640b7ab-fc0b-477c-bf1f-735656d50658","category":"OBJECT_ALREADY_EXISTS","error":"CONTACT_EXISTS"}
Completed count:-3515
Completed count:-3516
Error at count:-3517
URL:-https://api.hubapi.com/contacts/v1/contact/vid/{0}/profile?hapikey=962e8ce2-2314-4e7f-8dab-77b7f59c270c
URL:-https://api.hubapi.com/contacts/v1/contact/?hapikey=962e8ce2-2314-4e7f-8dab-77b7f59c270c
Response exception:System.Net.HttpWebResponse
Error records:-{"message":"Contact already exists","identityProfile":{"vid":86587101,"identity":[{"value":"luci1834@yahoo.co.uk","type":"EMAIL","timestamp":1599594487621,"isPrimary":true},{"value":"50899639-b99d-4d05-996f-d0ba88a139b7","type":"LEAD_GUID","timestamp":1599594487641}],"linkedVid":[],"isContact":true,"savedAtTimestamp":1599594487693},"errors":[{"message":"A contact with email luci1834@yahoo.co.uk already exists.","in":"email"}],"status":"error","correlationId":"34a885b1-f380-4067-9911-ffcb9b24b977","category":"OBJECT_ALREADY_EXISTS","error":"CONTACT_EXISTS"}
Completed count:-3517
Error at count:-3518
URL:-https://api.hubapi.com/contacts/v1/contact/vid/{0}/profile?hapikey=962e8ce2-2314-4e7f-8dab-77b7f59c270c
URL:-https://api.hubapi.com/contacts/v1/contact/?hapikey=962e8ce2-2314-4e7f-8dab-77b7f59c270c
Response exception:System.Net.HttpWebResponse
Error records:-{"message":"Contact already exists","identityProfile":{"vid":62898233,"identity":[{"value":"ramunas.juskevicius36@gmail.com","type":"EMAIL","timestamp":1593882955972,"isPrimary":true},{"value":"f70d1e6e-a026-495a-a5da-7ca2d848d93b","type":"LEAD_GUID","timestamp":1593882955981}],"linkedVid":[],"isContact":true,"savedAtTimestamp":1593882955983},"errors":[{"message":"A contact with email ramunas.juskevicius36@gmail.com already exists.","in":"email"}],"status":"error","correlationId":"bcca714c-b111-4f2b-8f31-1474bf9b0426","category":"OBJECT_ALREADY_EXISTS","error":"CONTACT_EXISTS"}
Completed count:-3518
Completed count:-3519
Completed count:-3520
Error at count:-3521
URL:-https://api.hubapi.com/contacts/v1/contact/vid/{0}/profile?hapikey=962e8ce2-2314-4e7f-8dab-77b7f59c270c
URL:-https://api.hubapi.com/contacts/v1/contact/?hapikey=962e8ce2-2314-4e7f-8dab-77b7f59c270c
Response exception:System.Net.HttpWebResponse
Error records:-{"message":"Contact already exists","identityProfile":{"vid":62134747,"identity":[{"value":"manu88tudor@yahoo.com","type":"EMAIL","timestamp":1593710888501,"isPrimary":true},{"value":"734d1945-0e97-4440-8b96-20e7c17f4b61","type":"LEAD_GUID","timestamp":1593710888510}],"linkedVid":[],"isContact":true,"savedAtTimestamp":1593710888513},"errors":[{"message":"A contact with email manu88tudor@yahoo.com already exists.","in":"email"}],"status":"error","correlationId":"f5b6a346-5946-4a95-996b-3ce60ff8b9e6","category":"OBJECT_ALREADY_EXISTS","error":"CONTACT_EXISTS"}
Completed count:-3521
Error at count:-3522
URL:-https://api.hubapi.com/contacts/v1/contact/vid/{0}/profile?hapikey=962e8ce2-2314-4e7f-8dab-77b7f59c270c
URL:-https://api.hubapi.com/contacts/v1/contact/?hapikey=962e8ce2-2314-4e7f-8dab-77b7f59c270c
Response exception:System.Net.HttpWebResponse
Error records:-{"message":"Contact already exists","identityProfile":{"vid":439040,"identity":[{"value":"ghitamarius300@yahoo.com","type":"EMAIL","timestamp":1576130877201,"isPrimary":true},{"value":"b9fac43a-be35-4382-9f8d-c83c0c0ef9b9","type":"LEAD_GUID","timestamp":1576130877209}],"linkedVid":[2807201],"isContact":true,"savedAtTimestamp":1577123626770},"errors":[{"message":"A contact with email ghitamarius300@yahoo.com already exists.","in":"email"}],"status":"error","correlationId":"5af61300-a456-4152-87e9-6b457a7d6162","category":"OBJECT_ALREADY_EXISTS","error":"CONTACT_EXISTS"}
Completed count:-3522
Completed count:-3523
Error at count:-3524
URL:-https://api.hubapi.com/contacts/v1/contact/vid/{0}/profile?hapikey=962e8ce2-2314-4e7f-8dab-77b7f59c270c
URL:-https://api.hubapi.com/contacts/v1/contact/?hapikey=962e8ce2-2314-4e7f-8dab-77b7f59c270c
Response exception:System.Net.HttpWebResponse
Error records:-{"message":"Contact already exists","identityProfile":{"vid":62940515,"identity":[{"value":"ankurmittal14dec@rediffmail.com","type":"EMAIL","timestamp":1593882982755,"isPrimary":true},{"value":"3f1e7fbe-1040-47d0-ba2e-31f919d99b58","type":"LEAD_GUID","timestamp":1593882982764}],"linkedVid":[],"isContact":true,"savedAtTimestamp":1593882982766},"errors":[{"message":"A contact with email ankurmittal14dec@rediffmail.com already exists.","in":"email"}],"status":"error","correlationId":"7c725e76-dda1-4003-badf-92b1271aa416","category":"OBJECT_ALREADY_EXISTS","error":"CONTACT_EXISTS"}
Completed count:-3524
Completed count:-3525
Completed count:-3526
Error at count:-3527
URL:-https://api.hubapi.com/contacts/v1/contact/vid/{0}/profile?hapikey=962e8ce2-2314-4e7f-8dab-77b7f59c270c
URL:-https://api.hubapi.com/contacts/v1/contact/?hapikey=962e8ce2-2314-4e7f-8dab-77b7f59c270c
Response exception:System.Net.HttpWebResponse
Error records:-{"message":"Contact already exists","identityProfile":{"vid":62135441,"identity":[{"value":"firuzal.amin@gmail.com","type":"EMAIL","timestamp":1593710889316,"isPrimary":true},{"value":"b0452817-9a8d-494d-ae21-a0933929808c","type":"LEAD_GUID","timestamp":1593710889325}],"linkedVid":[],"isContact":true,"savedAtTimestamp":1593710889327},"errors":[{"message":"A contact with email firuzal.amin@gmail.com already exists.","in":"email"}],"status":"error","correlationId":"1da6f7a2-7343-4794-b78c-c8501a3d66b8","category":"OBJECT_ALREADY_EXISTS","error":"CONTACT_EXISTS"}
Completed count:-3527
Error at count:-3528
URL:-https://api.hubapi.com/contacts/v1/contact/vid/{0}/profile?hapikey=962e8ce2-2314-4e7f-8dab-77b7f59c270c
URL:-https://api.hubapi.com/contacts/v1/contact/?hapikey=962e8ce2-2314-4e7f-8dab-77b7f59c270c
Response exception:System.Net.HttpWebResponse
Error records:-{"message":"Contact already exists","identityProfile":{"vid":64015353,"identity":[{"value":"9c9b242c-4c74-45ca-9c98-48b23878cf87","type":"LEAD_GUID","timestamp":1594132398725},{"value":"exon3309@gmail.com","type":"EMAIL","timestamp":1599664210469,"isPrimary":true}],"linkedVid":[],"isContact":true,"createdWithoutEmail":true,"savedAtTimestamp":1599664210527,"promotedToContact":true},"errors":[{"message":"A contact with email exon3309@gmail.com already exists.","in":"email"}],"status":"error","correlationId":"8c981963-505b-4595-96be-c6a9673c9d23","category":"OBJECT_ALREADY_EXISTS","error":"CONTACT_EXISTS"}
Completed count:-3528
Error at count:-3529
URL:-https://api.hubapi.com/contacts/v1/contact/vid/{0}/profile?hapikey=962e8ce2-2314-4e7f-8dab-77b7f59c270c
URL:-https://api.hubapi.com/contacts/v1/contact/?hapikey=962e8ce2-2314-4e7f-8dab-77b7f59c270c
Response exception:System.Net.HttpWebResponse
Error records:-{"message":"Contact already exists","identityProfile":{"vid":14038801,"identity":[{"value":"robertpol88@o2.pl","type":"EMAIL","timestamp":1581327554746,"isPrimary":true},{"value":"84cafd42-d30d-476d-95e0-3bd2eb2fd970","type":"LEAD_GUID","timestamp":1581327556476}],"linkedVid":[33453106,44079951],"isContact":true,"savedAtTimestamp":1589178017748},"errors":[{"message":"A contact with email robertpol88@o2.pl already exists.","in":"email"}],"status":"error","correlationId":"e08a87a1-bc92-4253-8ebd-6543d476a77a","category":"OBJECT_ALREADY_EXISTS","error":"CONTACT_EXISTS"}
Completed count:-3529
Completed count:-3530
Completed count:-3531
Completed count:-3532
Completed count:-3533
Error at count:-3534
URL:-https://api.hubapi.com/contacts/v1/contact/vid/{0}/profile?hapikey=962e8ce2-2314-4e7f-8dab-77b7f59c270c
URL:-https://api.hubapi.com/contacts/v1/contact/?hapikey=962e8ce2-2314-4e7f-8dab-77b7f59c270c
Response exception:System.Net.HttpWebResponse
Error records:-{"message":"Contact already exists","identityProfile":{"vid":62896721,"identity":[{"value":"david.kerr32@btinternet.com","type":"EMAIL","timestamp":1593882954047,"isPrimary":true},{"value":"765d24a1-9b6d-4e16-89d9-cdba2f2da6bb","type":"LEAD_GUID","timestamp":1593882954057}],"linkedVid":[],"isContact":true,"savedAtTimestamp":1593882954059},"errors":[{"message":"A contact with email david.kerr32@btinternet.com already exists.","in":"email"}],"status":"error","correlationId":"cb16fab2-0949-4453-b53b-40ec0488395f","category":"OBJECT_ALREADY_EXISTS","error":"CONTACT_EXISTS"}
Completed count:-3534
Completed count:-3535
Error at count:-3536
URL:-https://api.hubapi.com/contacts/v1/contact/vid/{0}/profile?hapikey=962e8ce2-2314-4e7f-8dab-77b7f59c270c
URL:-https://api.hubapi.com/contacts/v1/contact/?hapikey=962e8ce2-2314-4e7f-8dab-77b7f59c270c
Response exception:System.Net.HttpWebResponse
Error records:-{"message":"Contact already exists","identityProfile":{"vid":62823751,"identity":[{"value":"75ce7a7f-5651-4ae2-b76f-978f6ee866b3","type":"LEAD_GUID","timestamp":1593882906453},{"value":"recep1@hotmail.co.uk","type":"EMAIL","timestamp":1596044619057,"isPrimary":true}],"linkedVid":[],"isContact":true,"createdWithoutEmail":true,"savedAtTimestamp":1596044619091,"promotedToContact":true},"errors":[{"message":"A contact with email recep1@hotmail.co.uk already exists.","in":"email"}],"status":"error","correlationId":"df7f5a64-a7e3-4c89-9084-8c16990b7a51","category":"OBJECT_ALREADY_EXISTS","error":"CONTACT_EXISTS"}
Completed count:-3536
Error at count:-3537
URL:-https://api.hubapi.com/contacts/v1/contact/vid/{0}/profile?hapikey=962e8ce2-2314-4e7f-8dab-77b7f59c270c
URL:-https://api.hubapi.com/contacts/v1/contact/?hapikey=962e8ce2-2314-4e7f-8dab-77b7f59c270c
Response exception:System.Net.HttpWebResponse
Error records:-{"message":"Contact already exists","identityProfile":{"vid":62916746,"identity":[{"value":"49cc902b-ca5c-4798-a9a6-27454182b1a0","type":"LEAD_GUID","timestamp":1593882971803},{"value":"sergei_kurmaz@yahoo.com","type":"EMAIL","timestamp":1599590628581,"isPrimary":true}],"linkedVid":[],"isContact":true,"savedAtTimestamp":1599590628633},"errors":[{"message":"A contact with email sergei_kurmaz@yahoo.com already exists.","in":"email"}],"status":"error","correlationId":"b02ee64b-ea48-472f-b42b-3c7b12e0bfa6","category":"OBJECT_ALREADY_EXISTS","error":"CONTACT_EXISTS"}
Completed count:-3537
Error at count:-3538
URL:-https://api.hubapi.com/contacts/v1/contact/vid/{0}/profile?hapikey=962e8ce2-2314-4e7f-8dab-77b7f59c270c
URL:-https://api.hubapi.com/contacts/v1/contact/?hapikey=962e8ce2-2314-4e7f-8dab-77b7f59c270c
Response exception:System.Net.HttpWebResponse
Error records:-{"message":"Contact already exists","identityProfile":{"vid":62969735,"identity":[{"value":"pintiliegeorgecristian@gmail.com","type":"EMAIL","timestamp":1593882999572,"isPrimary":true},{"value":"9797b5a0-9af7-4568-b023-a0f05963b9f5","type":"LEAD_GUID","timestamp":1593882999590}],"linkedVid":[],"isContact":true,"savedAtTimestamp":1593882999592},"errors":[{"message":"A contact with email pintiliegeorgecristian@gmail.com already exists.","in":"email"}],"status":"error","correlationId":"48977a7d-4e64-4655-9023-7c9c34167e53","category":"OBJECT_ALREADY_EXISTS","error":"CONTACT_EXISTS"}
Completed count:-3538
Completed count:-3539
Error at count:-3540
URL:-https://api.hubapi.com/contacts/v1/contact/vid/{0}/profile?hapikey=962e8ce2-2314-4e7f-8dab-77b7f59c270c
URL:-https://api.hubapi.com/contacts/v1/contact/?hapikey=962e8ce2-2314-4e7f-8dab-77b7f59c270c
Response exception:System.Net.HttpWebResponse
Error records:-{"message":"Contact already exists","identityProfile":{"vid":16583201,"identity":[{"value":"hieswarmca@gmail.com","type":"EMAIL","timestamp":1582040188968,"isPrimary":true},{"value":"12c94a91-0b43-4e67-b48d-090832872f83","type":"LEAD_GUID","timestamp":1582040188993}],"linkedVid":[],"isContact":true,"savedAtTimestamp":1582040188998},"errors":[{"message":"A contact with email hieswarmca@gmail.com already exists.","in":"email"}],"status":"error","correlationId":"80b649d4-55b7-407a-bf64-cae1255c246a","category":"OBJECT_ALREADY_EXISTS","error":"CONTACT_EXISTS"}
Completed count:-3540
Completed count:-3541
Completed count:-3542
Error at count:-3543
URL:-https://api.hubapi.com/contacts/v1/contact/vid/{0}/profile?hapikey=962e8ce2-2314-4e7f-8dab-77b7f59c270c
URL:-https://api.hubapi.com/contacts/v1/contact/?hapikey=962e8ce2-2314-4e7f-8dab-77b7f59c270c
Response exception:System.Net.HttpWebResponse
Error records:-{"message":"Contact already exists","identityProfile":{"vid":436461,"identity":[{"value":"marekkrk28@gmail.com","type":"EMAIL","timestamp":1576130870593,"isPrimary":true},{"value":"bbce77f5-3c00-49ea-9ee2-e63a722fcb29","type":"LEAD_GUID","timestamp":1576130870609}],"linkedVid":[],"isContact":true,"savedAtTimestamp":1576130870611},"errors":[{"message":"A contact with email marekkrk28@gmail.com already exists.","in":"email"}],"status":"error","correlationId":"b5fad3b3-dc5b-4923-8d8a-5c6fd44f7978","category":"OBJECT_ALREADY_EXISTS","error":"CONTACT_EXISTS"}
Completed count:-3543
Completed count:-3544
Error at count:-3545
URL:-https://api.hubapi.com/contacts/v1/contact/vid/{0}/profile?hapikey=962e8ce2-2314-4e7f-8dab-77b7f59c270c
URL:-https://api.hubapi.com/contacts/v1/contact/?hapikey=962e8ce2-2314-4e7f-8dab-77b7f59c270c
Response exception:System.Net.HttpWebResponse
Error records:-{"message":"Contact already exists","identityProfile":{"vid":62829306,"identity":[{"value":"jelsmir@gmail.com","type":"EMAIL","timestamp":1593882912081,"isPrimary":true},{"value":"fc16ab6a-ac77-47a5-8df1-6690bbe6d23e","type":"LEAD_GUID","timestamp":1593882912094}],"linkedVid":[],"isContact":true,"savedAtTimestamp":1593882912095},"errors":[{"message":"A contact with email jelsmir@gmail.com already exists.","in":"email"}],"status":"error","correlationId":"f9b3f1a2-0699-4e27-b123-e6af6b55b29a","category":"OBJECT_ALREADY_EXISTS","error":"CONTACT_EXISTS"}
Completed count:-3545
Completed count:-3546
Completed count:-3547
Completed count:-3548
Completed count:-3549
Completed count:-3550
Completed count:-3551
Error at count:-3552
URL:-https://api.hubapi.com/contacts/v1/contact/vid/{0}/profile?hapikey=962e8ce2-2314-4e7f-8dab-77b7f59c270c
URL:-https://api.hubapi.com/contacts/v1/contact/?hapikey=962e8ce2-2314-4e7f-8dab-77b7f59c270c
Response exception:System.Net.HttpWebResponse
Error records:-{"message":"Contact already exists","identityProfile":{"vid":62990170,"identity":[{"value":"khaliqtmk@gmail.com","type":"EMAIL","timestamp":1593883023192,"isPrimary":true},{"value":"fedbc39e-86d9-43eb-9014-14804e193a9d","type":"LEAD_GUID","timestamp":1593883023200}],"linkedVid":[],"isContact":true,"savedAtTimestamp":1593883023202},"errors":[{"message":"A contact with email khaliqtmk@gmail.com already exists.","in":"email"}],"status":"error","correlationId":"b02d3d00-03fd-49dd-9928-76b4ba98db2b","category":"OBJECT_ALREADY_EXISTS","error":"CONTACT_EXISTS"}
Completed count:-3552
Completed count:-3553
Completed count:-3554
Completed count:-3555
Error at count:-3556
URL:-https://api.hubapi.com/contacts/v1/contact/vid/{0}/profile?hapikey=962e8ce2-2314-4e7f-8dab-77b7f59c270c
URL:-https://api.hubapi.com/contacts/v1/contact/?hapikey=962e8ce2-2314-4e7f-8dab-77b7f59c270c
Response exception:System.Net.HttpWebResponse
Error records:-{"message":"Contact already exists","identityProfile":{"vid":59222053,"identity":[{"value":"35b423af-bd74-4424-b1de-87ad4c40b363","type":"LEAD_GUID","timestamp":1593005064325},{"value":"shijimoldevasia@gmail.com","type":"EMAIL","timestamp":1598890818476,"isPrimary":true}],"linkedVid":[59257801,59260501],"isContact":true,"savedAtTimestamp":1598890818519},"errors":[{"message":"A contact with email shijimoldevasia@gmail.com already exists.","in":"email"}],"status":"error","correlationId":"16b14e43-f588-4d62-8652-41602c432d79","category":"OBJECT_ALREADY_EXISTS","error":"CONTACT_EXISTS"}
Completed count:-3556
Completed count:-3557
Completed count:-3558
Error at count:-3559
URL:-https://api.hubapi.com/contacts/v1/contact/vid/{0}/profile?hapikey=962e8ce2-2314-4e7f-8dab-77b7f59c270c
URL:-https://api.hubapi.com/contacts/v1/contact/?hapikey=962e8ce2-2314-4e7f-8dab-77b7f59c270c
Response exception:System.Net.HttpWebResponse
Error records:-{"message":"Contact already exists","identityProfile":{"vid":62966955,"identity":[{"value":"haawo1@hotmail.com","type":"EMAIL","timestamp":1593882996556,"isPrimary":true},{"value":"2c6b6849-573a-4cd9-88b2-7aa72733c198","type":"LEAD_GUID","timestamp":1593882996567}],"linkedVid":[63900914],"isContact":true,"savedAtTimestamp":1594124473234},"errors":[{"message":"A contact with email haawo1@hotmail.com already exists.","in":"email"}],"status":"error","correlationId":"74bd765d-98ca-46d8-aecd-b158c9a0dc36","category":"OBJECT_ALREADY_EXISTS","error":"CONTACT_EXISTS"}
Completed count:-3559
Completed count:-3560
Error at count:-3561
URL:-https://api.hubapi.com/contacts/v1/contact/vid/{0}/profile?hapikey=962e8ce2-2314-4e7f-8dab-77b7f59c270c
URL:-https://api.hubapi.com/contacts/v1/contact/?hapikey=962e8ce2-2314-4e7f-8dab-77b7f59c270c
Response exception:System.Net.HttpWebResponse
Error records:-{"message":"Contact already exists","identityProfile":{"vid":62823645,"identity":[{"value":"hyasser21@hotmail.co.uk","type":"EMAIL","timestamp":1593882906952,"isPrimary":true},{"value":"7b32cf8e-5156-451a-91a5-0b52489c6b30","type":"LEAD_GUID","timestamp":1593882906961}],"linkedVid":[],"isContact":true,"savedAtTimestamp":1593882906963},"errors":[{"message":"A contact with email hyasser21@hotmail.co.uk already exists.","in":"email"}],"status":"error","correlationId":"d73445f8-55ae-46dc-9781-4fc0e2000eaf","category":"OBJECT_ALREADY_EXISTS","error":"CONTACT_EXISTS"}
Completed count:-3561
Error at count:-3562
URL:-https://api.hubapi.com/contacts/v1/contact/vid/{0}/profile?hapikey=962e8ce2-2314-4e7f-8dab-77b7f59c270c
URL:-https://api.hubapi.com/contacts/v1/contact/?hapikey=962e8ce2-2314-4e7f-8dab-77b7f59c270c
Response exception:System.Net.HttpWebResponse
Error records:-{"message":"Contact already exists","identityProfile":{"vid":62827884,"identity":[{"value":"m.mostafa@vlrgilio.it","type":"EMAIL","timestamp":1593882910909,"isPrimary":true},{"value":"17b22f6f-5d64-4ef6-8369-4396361b3c7d","type":"LEAD_GUID","timestamp":1593882910921}],"linkedVid":[],"isContact":true,"savedAtTimestamp":1593882910924},"errors":[{"message":"A contact with email m.mostafa@vlrgilio.it already exists.","in":"email"}],"status":"error","correlationId":"24bee67c-9d50-446a-b036-976b54680d56","category":"OBJECT_ALREADY_EXISTS","error":"CONTACT_EXISTS"}
Completed count:-3562
Error at count:-3563
URL:-https://api.hubapi.com/contacts/v1/contact/vid/{0}/profile?hapikey=962e8ce2-2314-4e7f-8dab-77b7f59c270c
URL:-https://api.hubapi.com/contacts/v1/contact/?hapikey=962e8ce2-2314-4e7f-8dab-77b7f59c270c
Response exception:System.Net.HttpWebResponse
Error records:-{"message":"Contact already exists","identityProfile":{"vid":2170801,"identity":[{"value":"vasyafilat@yahoo.co.uk","type":"EMAIL","timestamp":1576839379520,"isPrimary":true},{"value":"b9d9375d-387b-4405-9e73-16582e623915","type":"LEAD_GUID","timestamp":1576839382058}],"linkedVid":[4268914],"isContact":true,"savedAtTimestamp":1577797852104},"errors":[{"message":"A contact with email vasyafilat@yahoo.co.uk already exists.","in":"email"}],"status":"error","correlationId":"69562ace-2ef7-4afd-944d-174ae815de4e","category":"OBJECT_ALREADY_EXISTS","error":"CONTACT_EXISTS"}
Completed count:-3563
Completed count:-3564
Error at count:-3565
URL:-https://api.hubapi.com/contacts/v1/contact/vid/{0}/profile?hapikey=962e8ce2-2314-4e7f-8dab-77b7f59c270c
URL:-https://api.hubapi.com/contacts/v1/contact/?hapikey=962e8ce2-2314-4e7f-8dab-77b7f59c270c
Response exception:System.Net.HttpWebResponse
Error records:-{"message":"Contact already exists","identityProfile":{"vid":62824196,"identity":[{"value":"cd15df57-b127-47d1-b864-20c1fded080f","type":"LEAD_GUID","timestamp":1593882908250},{"value":"base7@wp.pl","type":"EMAIL","timestamp":1598890817719,"isPrimary":true}],"linkedVid":[],"isContact":true,"createdWithoutEmail":true,"savedAtTimestamp":1598890817759,"promotedToContact":true},"errors":[{"message":"A contact with email base7@wp.pl already exists.","in":"email"}],"status":"error","correlationId":"646720fc-7111-4ede-a6fa-908f68b3eeee","category":"OBJECT_ALREADY_EXISTS","error":"CONTACT_EXISTS"}
Completed count:-3565
Completed count:-3566
Error at count:-3567
URL:-https://api.hubapi.com/contacts/v1/contact/vid/{0}/profile?hapikey=962e8ce2-2314-4e7f-8dab-77b7f59c270c
URL:-https://api.hubapi.com/contacts/v1/contact/?hapikey=962e8ce2-2314-4e7f-8dab-77b7f59c270c
Response exception:System.Net.HttpWebResponse
Error records:-{"message":"Contact already exists","identityProfile":{"vid":438746,"identity":[{"value":"omid_k_h99@yahoo.com","type":"EMAIL","timestamp":1576130876347,"isPrimary":true},{"value":"5f56874d-b393-4b82-a55b-cca37434f81f","type":"LEAD_GUID","timestamp":1576130876355}],"linkedVid":[63900033],"isContact":true,"savedAtTimestamp":1594124172871},"errors":[{"message":"A contact with email omid_k_h99@yahoo.com already exists.","in":"email"}],"status":"error","correlationId":"aeb67283-7ab6-4f2d-b2c7-edc77d417603","category":"OBJECT_ALREADY_EXISTS","error":"CONTACT_EXISTS"}
Completed count:-3567
Error at count:-3568
URL:-https://api.hubapi.com/contacts/v1/contact/vid/{0}/profile?hapikey=962e8ce2-2314-4e7f-8dab-77b7f59c270c
URL:-https://api.hubapi.com/contacts/v1/contact/?hapikey=962e8ce2-2314-4e7f-8dab-77b7f59c270c
Response exception:System.Net.HttpWebResponse
Error records:-{"message":"Contact already exists","identityProfile":{"vid":459601,"identity":[{"value":"mqadri157@gmail.com","type":"EMAIL","timestamp":1585332153816,"isPrimary":true},{"value":"06f87918-daed-4cc2-9ba9-84940c04712c","type":"LEAD_GUID","timestamp":1585332154626}],"linkedVid":[27971951],"isContact":true,"savedAtTimestamp":1585411803430},"errors":[{"message":"A contact with email mqadri157@gmail.com already exists.","in":"email"}],"status":"error","correlationId":"47b2416e-ac7a-40b6-8644-2a60c358fd5b","category":"OBJECT_ALREADY_EXISTS","error":"CONTACT_EXISTS"}
Completed count:-3568
Completed count:-3569
Error at count:-3570
URL:-https://api.hubapi.com/contacts/v1/contact/vid/{0}/profile?hapikey=962e8ce2-2314-4e7f-8dab-77b7f59c270c
URL:-https://api.hubapi.com/contacts/v1/contact/?hapikey=962e8ce2-2314-4e7f-8dab-77b7f59c270c
Response exception:System.Net.HttpWebResponse
Error records:-{"message":"Contact already exists","identityProfile":{"vid":62972315,"identity":[{"value":"iqbaltayyab785@yahoo.co.uk","type":"EMAIL","timestamp":1593883002233,"isPrimary":true},{"value":"a2e19dc2-862f-4cef-9af2-2d20d4b6a7df","type":"LEAD_GUID","timestamp":1593883002240}],"linkedVid":[],"isContact":true,"savedAtTimestamp":1593883002241},"errors":[{"message":"A contact with email iqbaltayyab785@yahoo.co.uk already exists.","in":"email"}],"status":"error","correlationId":"d6020727-6870-47da-a422-804be81989e4","category":"OBJECT_ALREADY_EXISTS","error":"CONTACT_EXISTS"}
Completed count:-3570
Completed count:-3571
Completed count:-3572
Error at count:-3573
URL:-https://api.hubapi.com/contacts/v1/contact/vid/{0}/profile?hapikey=962e8ce2-2314-4e7f-8dab-77b7f59c270c
URL:-https://api.hubapi.com/contacts/v1/contact/?hapikey=962e8ce2-2314-4e7f-8dab-77b7f59c270c
Response exception:System.Net.HttpWebResponse
Error records:-{"message":"Contact already exists","identityProfile":{"vid":13532551,"identity":[{"value":"asbirute@yahoo.co.uk","type":"EMAIL","timestamp":1581176466431,"isPrimary":true},{"value":"0a08e4f2-8d43-44e1-b833-11f66dab54b7","type":"LEAD_GUID","timestamp":1581176467783}],"linkedVid":[31523001],"isContact":true,"savedAtTimestamp":1587230269779},"errors":[{"message":"A contact with email asbirute@yahoo.co.uk already exists.","in":"email"}],"status":"error","correlationId":"7c0012fd-122c-4c0a-ae18-b7329975d252","category":"OBJECT_ALREADY_EXISTS","error":"CONTACT_EXISTS"}
Completed count:-3573
Error at count:-3574
URL:-https://api.hubapi.com/contacts/v1/contact/vid/{0}/profile?hapikey=962e8ce2-2314-4e7f-8dab-77b7f59c270c
URL:-https://api.hubapi.com/contacts/v1/contact/?hapikey=962e8ce2-2314-4e7f-8dab-77b7f59c270c
Response exception:System.Net.HttpWebResponse
Error records:-{"message":"Contact already exists","identityProfile":{"vid":436358,"identity":[{"value":"wazam50@yahoo.co.uk","type":"EMAIL","timestamp":1576130870403,"isPrimary":true},{"value":"5f5b9009-047d-4e5b-b57f-498f9f0a9e53","type":"LEAD_GUID","timestamp":1576130870415}],"linkedVid":[],"isContact":true,"savedAtTimestamp":1576130870417},"errors":[{"message":"A contact with email wazam50@yahoo.co.uk already exists.","in":"email"}],"status":"error","correlationId":"9bc97421-3903-4a3e-9f8e-7c83a3857731","category":"OBJECT_ALREADY_EXISTS","error":"CONTACT_EXISTS"}
Completed count:-3574
Completed count:-3575
Completed count:-3576
Completed count:-3577
Completed count:-3578
Error at count:-3579
URL:-https://api.hubapi.com/contacts/v1/contact/vid/{0}/profile?hapikey=962e8ce2-2314-4e7f-8dab-77b7f59c270c
URL:-https://api.hubapi.com/contacts/v1/contact/?hapikey=962e8ce2-2314-4e7f-8dab-77b7f59c270c
Response exception:System.Net.HttpWebResponse
Error records:-{"message":"Contact already exists","identityProfile":{"vid":62986851,"identity":[{"value":"robjenkins1980@outlook.com","type":"EMAIL","timestamp":1593883019285,"isPrimary":true},{"value":"ccbb157f-40c2-4653-be34-0af511ea0bee","type":"LEAD_GUID","timestamp":1593883019426}],"linkedVid":[],"isContact":true,"savedAtTimestamp":1593883019433},"errors":[{"message":"A contact with email robjenkins1980@outlook.com already exists.","in":"email"}],"status":"error","correlationId":"106d9f4d-8f37-49eb-84cb-c73285fdc4f1","category":"OBJECT_ALREADY_EXISTS","error":"CONTACT_EXISTS"}
Completed count:-3579
Completed count:-3580
Completed count:-3581
Error at count:-3582
URL:-https://api.hubapi.com/contacts/v1/contact/vid/{0}/profile?hapikey=962e8ce2-2314-4e7f-8dab-77b7f59c270c
URL:-https://api.hubapi.com/contacts/v1/contact/?hapikey=962e8ce2-2314-4e7f-8dab-77b7f59c270c
Response exception:System.Net.HttpWebResponse
Error records:-{"message":"Contact already exists","identityProfile":{"vid":62906170,"identity":[{"value":"panesarharpal@yahoo.co.in","type":"EMAIL","timestamp":1593882961052,"isPrimary":true},{"value":"aa352360-4dd3-4780-8a7f-593cdf662b65","type":"LEAD_GUID","timestamp":1593882961066}],"linkedVid":[],"isContact":true,"savedAtTimestamp":1593882961069},"errors":[{"message":"A contact with email panesarharpal@yahoo.co.in already exists.","in":"email"}],"status":"error","correlationId":"13b0526f-bc87-44d4-b4d6-b30a9b352340","category":"OBJECT_ALREADY_EXISTS","error":"CONTACT_EXISTS"}
Completed count:-3582
Completed count:-3583
Error at count:-3584
URL:-https://api.hubapi.com/contacts/v1/contact/vid/{0}/profile?hapikey=962e8ce2-2314-4e7f-8dab-77b7f59c270c
URL:-https://api.hubapi.com/contacts/v1/contact/?hapikey=962e8ce2-2314-4e7f-8dab-77b7f59c270c
Response exception:System.Net.HttpWebResponse
Error records:-{"message":"Contact already exists","identityProfile":{"vid":62828555,"identity":[{"value":"guma30.pj@gmail.com","type":"EMAIL","timestamp":1593882911558,"isPrimary":true},{"value":"640b6121-8d7e-4786-acee-1f90097541f9","type":"LEAD_GUID","timestamp":1593882911569}],"linkedVid":[],"isContact":true,"savedAtTimestamp":1593882911572},"errors":[{"message":"A contact with email guma30.pj@gmail.com already exists.","in":"email"}],"status":"error","correlationId":"c69c7c1a-af65-4190-a877-3f539bcb305e","category":"OBJECT_ALREADY_EXISTS","error":"CONTACT_EXISTS"}
Completed count:-3584
Error at count:-3585
URL:-https://api.hubapi.com/contacts/v1/contact/vid/{0}/profile?hapikey=962e8ce2-2314-4e7f-8dab-77b7f59c270c
URL:-https://api.hubapi.com/contacts/v1/contact/?hapikey=962e8ce2-2314-4e7f-8dab-77b7f59c270c
Response exception:System.Net.HttpWebResponse
Error records:-{"message":"Contact already exists","identityProfile":{"vid":62916686,"identity":[{"value":"kkarklina@yahoo.com","type":"EMAIL","timestamp":1593882971106,"isPrimary":true},{"value":"a6f98ab3-427e-422c-87a5-f12685d67c70","type":"LEAD_GUID","timestamp":1593882971116}],"linkedVid":[],"isContact":true,"savedAtTimestamp":1593882971118},"errors":[{"message":"A contact with email kkarklina@yahoo.com already exists.","in":"email"}],"status":"error","correlationId":"16213c7a-7c2e-4e27-8e67-c026ffebd0dd","category":"OBJECT_ALREADY_EXISTS","error":"CONTACT_EXISTS"}
Completed count:-3585
Completed count:-3586
Completed count:-3587
Completed count:-3588
Completed count:-3589
Completed count:-3590
Completed count:-3591
Error at count:-3592
URL:-https://api.hubapi.com/contacts/v1/contact/vid/{0}/profile?hapikey=962e8ce2-2314-4e7f-8dab-77b7f59c270c
URL:-https://api.hubapi.com/contacts/v1/contact/?hapikey=962e8ce2-2314-4e7f-8dab-77b7f59c270c
Response exception:System.Net.HttpWebResponse
Error records:-{"message":"Contact already exists","identityProfile":{"vid":62134843,"identity":[{"value":"leocm@hotmail.co.uk","type":"EMAIL","timestamp":1593710888424,"isPrimary":true},{"value":"7151e1e9-d2d6-484b-90e8-b5ba1b84e7e2","type":"LEAD_GUID","timestamp":1593710888431}],"linkedVid":[],"isContact":true,"savedAtTimestamp":1593710888433},"errors":[{"message":"A contact with email leocm@hotmail.co.uk already exists.","in":"email"}],"status":"error","correlationId":"53911d38-8d84-47db-a66a-569a3dec20a6","category":"OBJECT_ALREADY_EXISTS","error":"CONTACT_EXISTS"}
Completed count:-3592
Completed count:-3593
Completed count:-3594
Error at count:-3595
URL:-https://api.hubapi.com/contacts/v1/contact/vid/{0}/profile?hapikey=962e8ce2-2314-4e7f-8dab-77b7f59c270c
URL:-https://api.hubapi.com/contacts/v1/contact/?hapikey=962e8ce2-2314-4e7f-8dab-77b7f59c270c
Response exception:System.Net.HttpWebResponse
Error records:-{"message":"Contact already exists","identityProfile":{"vid":62819922,"identity":[{"value":"ddg_08@rediffmail.com","type":"EMAIL","timestamp":1593882904123,"isPrimary":true},{"value":"cc045595-ba6f-478d-a80a-63b3fd434025","type":"LEAD_GUID","timestamp":1593882904131}],"linkedVid":[],"isContact":true,"savedAtTimestamp":1593882904133},"errors":[{"message":"A contact with email ddg_08@rediffmail.com already exists.","in":"email"}],"status":"error","correlationId":"b222712e-3124-4009-9b73-ad749b5cffef","category":"OBJECT_ALREADY_EXISTS","error":"CONTACT_EXISTS"}
Completed count:-3595
Error at count:-3596
URL:-https://api.hubapi.com/contacts/v1/contact/vid/{0}/profile?hapikey=962e8ce2-2314-4e7f-8dab-77b7f59c270c
URL:-https://api.hubapi.com/contacts/v1/contact/?hapikey=962e8ce2-2314-4e7f-8dab-77b7f59c270c
Response exception:System.Net.HttpWebResponse
Error records:-{"message":"Contact already exists","identityProfile":{"vid":40200551,"identity":[{"value":"piotrpbielski@interia.pl","type":"EMAIL","timestamp":1588196692334,"isPrimary":true},{"value":"ea3acf64-7fdf-4064-99b6-38a6ae73148e","type":"LEAD_GUID","timestamp":1588196693190}],"linkedVid":[43164019,43169201,43699401,50566501,43168651,43163864,58458101],"isContact":true,"savedAtTimestamp":1592832598696},"errors":[{"message":"A contact with email piotrpbielski@interia.pl already exists.","in":"email"}],"status":"error","correlationId":"686b5693-ab50-4a66-9c85-0540c60af91a","category":"OBJECT_ALREADY_EXISTS","error":"CONTACT_EXISTS"}
Completed count:-3596
Error at count:-3597
URL:-https://api.hubapi.com/contacts/v1/contact/vid/{0}/profile?hapikey=962e8ce2-2314-4e7f-8dab-77b7f59c270c
URL:-https://api.hubapi.com/contacts/v1/contact/?hapikey=962e8ce2-2314-4e7f-8dab-77b7f59c270c
Response exception:System.Net.HttpWebResponse
Error records:-{"message":"Contact already exists","identityProfile":{"vid":64027287,"identity":[{"value":"f0da5671-926a-455c-b9c5-b0f850562154","type":"LEAD_GUID","timestamp":1594132402846},{"value":"eliok111@yahoo.com","type":"EMAIL","timestamp":1598890819151,"isPrimary":true}],"linkedVid":[],"isContact":true,"createdWithoutEmail":true,"savedAtTimestamp":1598890819226,"promotedToContact":true},"errors":[{"message":"A contact with email eliok111@yahoo.com already exists.","in":"email"}],"status":"error","correlationId":"1fe1706a-790f-4de4-9c16-f89e49e47078","category":"OBJECT_ALREADY_EXISTS","error":"CONTACT_EXISTS"}
Completed count:-3597
Completed count:-3598
Completed count:-3599
Error at count:-3600
URL:-https://api.hubapi.com/contacts/v1/contact/vid/{0}/profile?hapikey=962e8ce2-2314-4e7f-8dab-77b7f59c270c
URL:-https://api.hubapi.com/contacts/v1/contact/?hapikey=962e8ce2-2314-4e7f-8dab-77b7f59c270c
Response exception:System.Net.HttpWebResponse
Error records:-{"message":"Contact already exists","identityProfile":{"vid":57844951,"identity":[{"value":"kajalmassey@gmail.com","type":"EMAIL","timestamp":1592671321641,"isPrimary":true},{"value":"9d7b22e6-8e8e-49ae-bf96-23f850de90c9","type":"LEAD_GUID","timestamp":1592671322211}],"linkedVid":[],"isContact":true,"savedAtTimestamp":1592671322213},"errors":[{"message":"A contact with email kajalmassey@gmail.com already exists.","in":"email"}],"status":"error","correlationId":"b7dbcd59-825f-4cde-b0cc-5c120a0d62d1","category":"OBJECT_ALREADY_EXISTS","error":"CONTACT_EXISTS"}
Completed count:-3600
Completed count:-3601
Completed count:-3602
Completed count:-3603
Completed count:-3604
Completed count:-3605
Completed count:-3606
Completed count:-3607
Completed count:-3608
Completed count:-3609
Error at count:-3610
URL:-https://api.hubapi.com/contacts/v1/contact/vid/{0}/profile?hapikey=962e8ce2-2314-4e7f-8dab-77b7f59c270c
URL:-https://api.hubapi.com/contacts/v1/contact/?hapikey=962e8ce2-2314-4e7f-8dab-77b7f59c270c
Response exception:System.Net.HttpWebResponse
Error records:-{"message":"Contact already exists","identityProfile":{"vid":62970680,"identity":[{"value":"cde4804b-bc7b-4f8e-a6c1-b614c77acb63","type":"LEAD_GUID","timestamp":1593883000739},{"value":"mmow0720@gmail.com","type":"EMAIL","timestamp":1596044636898,"isPrimary":true}],"linkedVid":[],"isContact":true,"savedAtTimestamp":1596044636937},"errors":[{"message":"A contact with email mmow0720@gmail.com already exists.","in":"email"}],"status":"error","correlationId":"d626e198-3cfc-44d2-b772-50edbd970b2d","category":"OBJECT_ALREADY_EXISTS","error":"CONTACT_EXISTS"}
Completed count:-3610
Completed count:-3611
Error at count:-3612
URL:-https://api.hubapi.com/contacts/v1/contact/vid/{0}/profile?hapikey=962e8ce2-2314-4e7f-8dab-77b7f59c270c
URL:-https://api.hubapi.com/contacts/v1/contact/?hapikey=962e8ce2-2314-4e7f-8dab-77b7f59c270c
Response exception:System.Net.HttpWebResponse
Error records:-{"message":"Contact already exists","identityProfile":{"vid":437327,"identity":[{"value":"halinafilip@gmail.com","type":"EMAIL","timestamp":1576130873148,"isPrimary":true},{"value":"36dad0e3-7f40-4d49-8969-9687091530de","type":"LEAD_GUID","timestamp":1576130873157}],"linkedVid":[57026851,64050390],"isContact":true,"savedAtTimestamp":1594137681415},"errors":[{"message":"A contact with email halinafilip@gmail.com already exists.","in":"email"}],"status":"error","correlationId":"eeddbb66-9b46-467b-8bcc-4f0d7260f7b9","category":"OBJECT_ALREADY_EXISTS","error":"CONTACT_EXISTS"}
Completed count:-3612
Completed count:-3613
Completed count:-3614
Completed count:-3615
Completed count:-3616
Completed count:-3617
Completed count:-3618
Error at count:-3619
URL:-https://api.hubapi.com/contacts/v1/contact/vid/{0}/profile?hapikey=962e8ce2-2314-4e7f-8dab-77b7f59c270c
URL:-https://api.hubapi.com/contacts/v1/contact/?hapikey=962e8ce2-2314-4e7f-8dab-77b7f59c270c
Response exception:System.Net.HttpWebResponse
Error records:-{"message":"Contact already exists","identityProfile":{"vid":62824664,"identity":[{"value":"sn67@wp.pl","type":"EMAIL","timestamp":1593882907325,"isPrimary":true},{"value":"d18022fd-e487-4e03-96ed-c11602cc6105","type":"LEAD_GUID","timestamp":1593882907334}],"linkedVid":[],"isContact":true,"savedAtTimestamp":1593882907336},"errors":[{"message":"A contact with email sn67@wp.pl already exists.","in":"email"}],"status":"error","correlationId":"bd76256c-f7ac-45c9-8bde-bb1572276f6a","category":"OBJECT_ALREADY_EXISTS","error":"CONTACT_EXISTS"}
Completed count:-3619
Completed count:-3620
Error at count:-3621
URL:-https://api.hubapi.com/contacts/v1/contact/vid/{0}/profile?hapikey=962e8ce2-2314-4e7f-8dab-77b7f59c270c
URL:-https://api.hubapi.com/contacts/v1/contact/?hapikey=962e8ce2-2314-4e7f-8dab-77b7f59c270c
Response exception:System.Net.HttpWebResponse
Error records:-{"message":"Contact already exists","identityProfile":{"vid":62822429,"identity":[{"value":"61192eab-a387-47dd-b177-3a3ce8bcb106","type":"LEAD_GUID","timestamp":1593882905949},{"value":"swatibhagat1406@gmail.com","type":"EMAIL","timestamp":1599596077086,"isPrimary":true}],"linkedVid":[],"isContact":true,"createdWithoutEmail":true,"savedAtTimestamp":1599596077133,"promotedToContact":true},"errors":[{"message":"A contact with email swatibhagat1406@gmail.com already exists.","in":"email"}],"status":"error","correlationId":"8e99520c-92b3-47bf-89c6-59e5e60cb5ec","category":"OBJECT_ALREADY_EXISTS","error":"CONTACT_EXISTS"}
Completed count:-3621
Error at count:-3622
URL:-https://api.hubapi.com/contacts/v1/contact/vid/{0}/profile?hapikey=962e8ce2-2314-4e7f-8dab-77b7f59c270c
URL:-https://api.hubapi.com/contacts/v1/contact/?hapikey=962e8ce2-2314-4e7f-8dab-77b7f59c270c
Response exception:System.Net.HttpWebResponse
Error records:-{"message":"Contact already exists","identityProfile":{"vid":6110001,"identity":[{"value":"lazko23@abv.bg","type":"EMAIL","timestamp":1578500348536,"isPrimary":true},{"value":"424920b8-50d2-4af4-8ce5-4889832158dd","type":"LEAD_GUID","timestamp":1578500350237}],"linkedVid":[10462351,41335651,53437001,21057401],"isContact":true,"savedAtTimestamp":1591542135704},"errors":[{"message":"A contact with email lazko23@abv.bg already exists.","in":"email"}],"status":"error","correlationId":"0399ea0b-cdff-4c4c-a297-9803b39041fc","category":"OBJECT_ALREADY_EXISTS","error":"CONTACT_EXISTS"}
Completed count:-3622
Error at count:-3623
URL:-https://api.hubapi.com/contacts/v1/contact/vid/{0}/profile?hapikey=962e8ce2-2314-4e7f-8dab-77b7f59c270c
URL:-https://api.hubapi.com/contacts/v1/contact/?hapikey=962e8ce2-2314-4e7f-8dab-77b7f59c270c
Response exception:System.Net.HttpWebResponse
Error records:-{"message":"Contact already exists","identityProfile":{"vid":62967053,"identity":[{"value":"shair_flak@yahoo.com","type":"EMAIL","timestamp":1593882996689,"isPrimary":true},{"value":"d9de8413-e695-4544-85a9-dabf2de79d89","type":"LEAD_GUID","timestamp":1593882996701}],"linkedVid":[],"isContact":true,"savedAtTimestamp":1593882996704},"errors":[{"message":"A contact with email shair_flak@yahoo.com already exists.","in":"email"}],"status":"error","correlationId":"aa76f4b8-c29f-4184-a907-e70fe7c76cb5","category":"OBJECT_ALREADY_EXISTS","error":"CONTACT_EXISTS"}
Completed count:-3623
Error at count:-3624
URL:-https://api.hubapi.com/contacts/v1/contact/vid/{0}/profile?hapikey=962e8ce2-2314-4e7f-8dab-77b7f59c270c
URL:-https://api.hubapi.com/contacts/v1/contact/?hapikey=962e8ce2-2314-4e7f-8dab-77b7f59c270c
Response exception:System.Net.HttpWebResponse
Error records:-{"message":"Contact already exists","identityProfile":{"vid":5617051,"identity":[{"value":"brahimoufta@gmail.com","type":"EMAIL","timestamp":1580209058983,"isPrimary":true},{"value":"316b945f-bf0b-4eaf-b765-08cad9583c21","type":"LEAD_GUID","timestamp":1580209060151}],"linkedVid":[],"isContact":true,"savedAtTimestamp":1580209060153},"errors":[{"message":"A contact with email brahimoufta@gmail.com already exists.","in":"email"}],"status":"error","correlationId":"ebc490d3-431f-4afb-a3ef-eb62921ba750","category":"OBJECT_ALREADY_EXISTS","error":"CONTACT_EXISTS"}
Completed count:-3624
Completed count:-3625
Completed count:-3626
Completed count:-3627
Completed count:-3628
Completed count:-3629
Error at count:-3630
URL:-https://api.hubapi.com/contacts/v1/contact/vid/{0}/profile?hapikey=962e8ce2-2314-4e7f-8dab-77b7f59c270c
URL:-https://api.hubapi.com/contacts/v1/contact/?hapikey=962e8ce2-2314-4e7f-8dab-77b7f59c270c
Response exception:System.Net.HttpWebResponse
Error records:-{"message":"Contact already exists","identityProfile":{"vid":58092551,"identity":[{"value":"lsaclub@yahoo.com","type":"EMAIL","timestamp":1592749654638,"isPrimary":true},{"value":"506ce9b6-4cf3-4df2-96a5-448dab39da97","type":"LEAD_GUID","timestamp":1592749655200}],"linkedVid":[],"isContact":true,"savedAtTimestamp":1592749655204},"errors":[{"message":"A contact with email lsaclub@yahoo.com already exists.","in":"email"}],"status":"error","correlationId":"41db5f47-476b-456c-bb70-2fdf0c5becbf","category":"OBJECT_ALREADY_EXISTS","error":"CONTACT_EXISTS"}
Completed count:-3630
Completed count:-3631
Completed count:-3632
Error at count:-3633
URL:-https://api.hubapi.com/contacts/v1/contact/vid/{0}/profile?hapikey=962e8ce2-2314-4e7f-8dab-77b7f59c270c
URL:-https://api.hubapi.com/contacts/v1/contact/?hapikey=962e8ce2-2314-4e7f-8dab-77b7f59c270c
Response exception:System.Net.HttpWebResponse
Error records:-{"message":"Contact already exists","identityProfile":{"vid":64013205,"identity":[{"value":"2c941048-566b-4344-9e45-06ee0311a103","type":"LEAD_GUID","timestamp":1594132398483},{"value":"sadiajahangir664@gmail.com","type":"EMAIL","timestamp":1598890815412,"isPrimary":true}],"linkedVid":[],"isContact":true,"createdWithoutEmail":true,"savedAtTimestamp":1598890815452,"promotedToContact":true},"errors":[{"message":"A contact with email sadiajahangir664@gmail.com already exists.","in":"email"}],"status":"error","correlationId":"b012f1ff-abc4-47bd-922e-c944cd527694","category":"OBJECT_ALREADY_EXISTS","error":"CONTACT_EXISTS"}
Completed count:-3633
Error at count:-3634
URL:-https://api.hubapi.com/contacts/v1/contact/vid/{0}/profile?hapikey=962e8ce2-2314-4e7f-8dab-77b7f59c270c
URL:-https://api.hubapi.com/contacts/v1/contact/?hapikey=962e8ce2-2314-4e7f-8dab-77b7f59c270c
Response exception:System.Net.HttpWebResponse
Error records:-{"message":"Contact already exists","identityProfile":{"vid":62863628,"identity":[{"value":"ebfc0beb-fd2c-46be-b665-0f1931620f59","type":"LEAD_GUID","timestamp":1593882929771},{"value":"sophia16529.so@gmail.com","type":"EMAIL","timestamp":1599596188788,"isPrimary":true}],"linkedVid":[],"isContact":true,"createdWithoutEmail":true,"savedAtTimestamp":1599596188830,"promotedToContact":true},"errors":[{"message":"A contact with email sophia16529.so@gmail.com already exists.","in":"email"}],"status":"error","correlationId":"60b7f1cf-7f81-48ba-9812-300feca7125c","category":"OBJECT_ALREADY_EXISTS","error":"CONTACT_EXISTS"}
Completed count:-3634
Completed count:-3635
Error at count:-3636
URL:-https://api.hubapi.com/contacts/v1/contact/vid/{0}/profile?hapikey=962e8ce2-2314-4e7f-8dab-77b7f59c270c
URL:-https://api.hubapi.com/contacts/v1/contact/?hapikey=962e8ce2-2314-4e7f-8dab-77b7f59c270c
Response exception:System.Net.HttpWebResponse
Error records:-{"message":"Contact already exists","identityProfile":{"vid":62876277,"identity":[{"value":"a4f4585f-fafd-4f7e-be8b-c22a206021ef","type":"LEAD_GUID","timestamp":1593882935491},{"value":"seramc5858@gmail.com","type":"EMAIL","timestamp":1598887124395,"isPrimary":true}],"linkedVid":[],"isContact":true,"createdWithoutEmail":true,"savedAtTimestamp":1598887124439,"promotedToContact":true},"errors":[{"message":"A contact with email seramc5858@gmail.com already exists.","in":"email"}],"status":"error","correlationId":"2a8f382d-35c5-4abd-a191-2af848936ef0","category":"OBJECT_ALREADY_EXISTS","error":"CONTACT_EXISTS"}
Completed count:-3636
Completed count:-3637
Completed count:-3638
Completed count:-3639
Error at count:-3640
URL:-https://api.hubapi.com/contacts/v1/contact/vid/{0}/profile?hapikey=962e8ce2-2314-4e7f-8dab-77b7f59c270c
URL:-https://api.hubapi.com/contacts/v1/contact/?hapikey=962e8ce2-2314-4e7f-8dab-77b7f59c270c
Response exception:System.Net.HttpWebResponse
Error records:-{"message":"Contact already exists","identityProfile":{"vid":62903122,"identity":[{"value":"anitagajda38@gmail.com","type":"EMAIL","timestamp":1593882957105,"isPrimary":true},{"value":"238e3c5a-d4a7-407b-af2e-d419261d9f30","type":"LEAD_GUID","timestamp":1593882957118}],"linkedVid":[],"isContact":true,"savedAtTimestamp":1593882957119},"errors":[{"message":"A contact with email anitagajda38@gmail.com already exists.","in":"email"}],"status":"error","correlationId":"b61af2ab-7e1e-4782-b10a-9fc1b4e158b3","category":"OBJECT_ALREADY_EXISTS","error":"CONTACT_EXISTS"}
Completed count:-3640
Completed count:-3641
Completed count:-3642
Completed count:-3643
Completed count:-3644
Completed count:-3645
Completed count:-3646
Completed count:-3647
Completed count:-3648
Completed count:-3649
Completed count:-3650
Completed count:-3651
Completed count:-3652
Error at count:-3653
URL:-https://api.hubapi.com/contacts/v1/contact/vid/{0}/profile?hapikey=962e8ce2-2314-4e7f-8dab-77b7f59c270c
URL:-https://api.hubapi.com/contacts/v1/contact/?hapikey=962e8ce2-2314-4e7f-8dab-77b7f59c270c
Response exception:System.Net.HttpWebResponse
Error records:-{"message":"Contact already exists","identityProfile":{"vid":55445251,"identity":[{"value":"hussainsaber123@yahoo.co.uk","type":"EMAIL","timestamp":1592055929393,"isPrimary":true},{"value":"0dc21ad2-a7c0-4d53-903d-b7fe051591f4","type":"LEAD_GUID","timestamp":1592055929415}],"linkedVid":[],"isContact":true,"savedAtTimestamp":1592055929419},"errors":[{"message":"A contact with email hussainsaber123@yahoo.co.uk already exists.","in":"email"}],"status":"error","correlationId":"88bbf065-8382-4f19-a84d-2cea9674bf54","category":"OBJECT_ALREADY_EXISTS","error":"CONTACT_EXISTS"}
Completed count:-3653
Completed count:-3654
Completed count:-3655
Error at count:-3656
URL:-https://api.hubapi.com/contacts/v1/contact/vid/{0}/profile?hapikey=962e8ce2-2314-4e7f-8dab-77b7f59c270c
URL:-https://api.hubapi.com/contacts/v1/contact/?hapikey=962e8ce2-2314-4e7f-8dab-77b7f59c270c
Response exception:System.Net.HttpWebResponse
Error records:-{"message":"Contact already exists","identityProfile":{"vid":62887518,"identity":[{"value":"a2d70fe8-4fe9-416a-9082-f7f05249440a","type":"LEAD_GUID","timestamp":1593882950352},{"value":"jssandhujas@gmail.com","type":"EMAIL","timestamp":1598890815200,"isPrimary":true}],"linkedVid":[64401601],"isContact":true,"savedAtTimestamp":1598890815235},"errors":[{"message":"A contact with email jssandhujas@gmail.com already exists.","in":"email"}],"status":"error","correlationId":"c3fc1e3c-180b-4203-821f-d49a21d62e0f","category":"OBJECT_ALREADY_EXISTS","error":"CONTACT_EXISTS"}
Completed count:-3656
Completed count:-3657
Completed count:-3658
Completed count:-3659
Completed count:-3660
Completed count:-3661
Error at count:-3662
URL:-https://api.hubapi.com/contacts/v1/contact/vid/{0}/profile?hapikey=962e8ce2-2314-4e7f-8dab-77b7f59c270c
URL:-https://api.hubapi.com/contacts/v1/contact/?hapikey=962e8ce2-2314-4e7f-8dab-77b7f59c270c
Response exception:System.Net.HttpWebResponse
Error records:-{"message":"Contact already exists","identityProfile":{"vid":62931204,"identity":[{"value":"tuaha_mohsin@hotmail.com","type":"EMAIL","timestamp":1593882978883,"isPrimary":true},{"value":"87d26b10-5314-405f-9b95-70cccc5a1d20","type":"LEAD_GUID","timestamp":1593882978893}],"linkedVid":[],"isContact":true,"savedAtTimestamp":1593882978895},"errors":[{"message":"A contact with email tuaha_mohsin@hotmail.com already exists.","in":"email"}],"status":"error","correlationId":"4b31430f-7982-44e5-aa37-2a38d66c013d","category":"OBJECT_ALREADY_EXISTS","error":"CONTACT_EXISTS"}
Completed count:-3662
Completed count:-3663
Completed count:-3664
Completed count:-3665
Completed count:-3666
Completed count:-3667
Error at count:-3668
URL:-https://api.hubapi.com/contacts/v1/contact/vid/{0}/profile?hapikey=962e8ce2-2314-4e7f-8dab-77b7f59c270c
URL:-https://api.hubapi.com/contacts/v1/contact/?hapikey=962e8ce2-2314-4e7f-8dab-77b7f59c270c
Response exception:System.Net.HttpWebResponse
Error records:-{"message":"Contact already exists","identityProfile":{"vid":1415551,"identity":[{"value":"p_k_harish@yahoo.com","type":"EMAIL","timestamp":1576684565539,"isPrimary":true},{"value":"52dad3bd-6776-454e-bf9a-0ab499551331","type":"LEAD_GUID","timestamp":1576684567132}],"linkedVid":[64136903],"isContact":true,"savedAtTimestamp":1594148949880},"errors":[{"message":"A contact with email p_k_harish@yahoo.com already exists.","in":"email"}],"status":"error","correlationId":"216f4c7d-cae3-4ebf-b240-3898e4047d82","category":"OBJECT_ALREADY_EXISTS","error":"CONTACT_EXISTS"}
Completed count:-3668
Error at count:-3669
URL:-https://api.hubapi.com/contacts/v1/contact/vid/{0}/profile?hapikey=962e8ce2-2314-4e7f-8dab-77b7f59c270c
URL:-https://api.hubapi.com/contacts/v1/contact/?hapikey=962e8ce2-2314-4e7f-8dab-77b7f59c270c
Response exception:System.Net.HttpWebResponse
Error records:-{"message":"Contact already exists","identityProfile":{"vid":440753,"identity":[{"value":"damianmartyna504@interia.pl","type":"EMAIL","timestamp":1576130879464,"isPrimary":true},{"value":"bef000cd-bbb6-41e2-a560-15ad5161b77f","type":"LEAD_GUID","timestamp":1576130879473}],"linkedVid":[],"isContact":true,"savedAtTimestamp":1576130879474},"errors":[{"message":"A contact with email damianmartyna504@interia.pl already exists.","in":"email"}],"status":"error","correlationId":"61e02516-69b7-4113-97ea-013f635267dd","category":"OBJECT_ALREADY_EXISTS","error":"CONTACT_EXISTS"}
Completed count:-3669
Completed count:-3670
Completed count:-3671
Completed count:-3672
Error at count:-3673
URL:-https://api.hubapi.com/contacts/v1/contact/vid/{0}/profile?hapikey=962e8ce2-2314-4e7f-8dab-77b7f59c270c
URL:-https://api.hubapi.com/contacts/v1/contact/?hapikey=962e8ce2-2314-4e7f-8dab-77b7f59c270c
Response exception:System.Net.HttpWebResponse
Error records:-{"message":"Contact already exists","identityProfile":{"vid":62959795,"identity":[{"value":"rositsabaydanova@yahoo.com","type":"EMAIL","timestamp":1593882989407,"isPrimary":true},{"value":"4fefaa6e-c125-4ff9-809b-cb46533d1bd3","type":"LEAD_GUID","timestamp":1593882989420}],"linkedVid":[64732151],"isContact":true,"savedAtTimestamp":1594269149705},"errors":[{"message":"A contact with email rositsabaydanova@yahoo.com already exists.","in":"email"}],"status":"error","correlationId":"b45ceef7-f0d5-4025-86db-02392c8d149a","category":"OBJECT_ALREADY_EXISTS","error":"CONTACT_EXISTS"}
Completed count:-3673
Completed count:-3674
Completed count:-3675
Error at count:-3676
URL:-https://api.hubapi.com/contacts/v1/contact/vid/{0}/profile?hapikey=962e8ce2-2314-4e7f-8dab-77b7f59c270c
URL:-https://api.hubapi.com/contacts/v1/contact/?hapikey=962e8ce2-2314-4e7f-8dab-77b7f59c270c
Response exception:System.Net.HttpWebResponse
Error records:-{"message":"Contact already exists","identityProfile":{"vid":62945052,"identity":[{"value":"asofolarin@gmail.com","type":"EMAIL","timestamp":1593882985222,"isPrimary":true},{"value":"9e0a9e47-28cc-4a70-b006-0cfbe546c7dd","type":"LEAD_GUID","timestamp":1593882985232}],"linkedVid":[],"isContact":true,"savedAtTimestamp":1593882985234},"errors":[{"message":"A contact with email asofolarin@gmail.com already exists.","in":"email"}],"status":"error","correlationId":"1a1378b8-6374-44f8-a6c0-196b017fbf1d","category":"OBJECT_ALREADY_EXISTS","error":"CONTACT_EXISTS"}
Completed count:-3676
Completed count:-3677
Error at count:-3678
URL:-https://api.hubapi.com/contacts/v1/contact/vid/{0}/profile?hapikey=962e8ce2-2314-4e7f-8dab-77b7f59c270c
URL:-https://api.hubapi.com/contacts/v1/contact/?hapikey=962e8ce2-2314-4e7f-8dab-77b7f59c270c
Response exception:System.Net.HttpWebResponse
Error records:-{"message":"Contact already exists","identityProfile":{"vid":24447451,"identity":[{"value":"taniuxa56@gmail.com","type":"EMAIL","timestamp":1584512834252,"isPrimary":true},{"value":"3f8a4d38-3eb8-4c1c-8cac-0f9a762d06ba","type":"LEAD_GUID","timestamp":1584512834620}],"linkedVid":[],"isContact":true,"savedAtTimestamp":1584512834623},"errors":[{"message":"A contact with email taniuxa56@gmail.com already exists.","in":"email"}],"status":"error","correlationId":"81c2839e-35f2-432a-8b7f-a377cc44c5a8","category":"OBJECT_ALREADY_EXISTS","error":"CONTACT_EXISTS"}
Completed count:-3678
Completed count:-3679
Error at count:-3680
URL:-https://api.hubapi.com/contacts/v1/contact/vid/{0}/profile?hapikey=962e8ce2-2314-4e7f-8dab-77b7f59c270c
URL:-https://api.hubapi.com/contacts/v1/contact/?hapikey=962e8ce2-2314-4e7f-8dab-77b7f59c270c
Response exception:System.Net.HttpWebResponse
Error records:-{"message":"Contact already exists","identityProfile":{"vid":13178901,"identity":[{"value":"maciej.milos@wp.pl","type":"EMAIL","timestamp":1583594906298,"isPrimary":true},{"value":"78b3b9aa-2fa0-4e36-8682-f96dcdd08492","type":"LEAD_GUID","timestamp":1583594907181}],"linkedVid":[42820601,21695501],"isContact":true,"savedAtTimestamp":1588852569161},"errors":[{"message":"A contact with email maciej.milos@wp.pl already exists.","in":"email"}],"status":"error","correlationId":"a5a916c1-8705-4f4e-91c3-5ebb064d51f9","category":"OBJECT_ALREADY_EXISTS","error":"CONTACT_EXISTS"}
Completed count:-3680
Error at count:-3681
URL:-https://api.hubapi.com/contacts/v1/contact/vid/{0}/profile?hapikey=962e8ce2-2314-4e7f-8dab-77b7f59c270c
URL:-https://api.hubapi.com/contacts/v1/contact/?hapikey=962e8ce2-2314-4e7f-8dab-77b7f59c270c
Response exception:System.Net.HttpWebResponse
Error records:-{"message":"Contact already exists","identityProfile":{"vid":987651,"identity":[{"value":"lamecksaidi@yahoo.com","type":"EMAIL","timestamp":1576351933703,"isPrimary":true},{"value":"3d97c1cb-3438-4a10-b376-d7062b9854f1","type":"LEAD_GUID","timestamp":1576351935787}],"linkedVid":[6842001],"isContact":true,"savedAtTimestamp":1579189663205},"errors":[{"message":"A contact with email lamecksaidi@yahoo.com already exists.","in":"email"}],"status":"error","correlationId":"fb39e767-19cb-4219-ab30-3f2a7fe098a2","category":"OBJECT_ALREADY_EXISTS","error":"CONTACT_EXISTS"}
Completed count:-3681
Error at count:-3682
URL:-https://api.hubapi.com/contacts/v1/contact/vid/{0}/profile?hapikey=962e8ce2-2314-4e7f-8dab-77b7f59c270c
URL:-https://api.hubapi.com/contacts/v1/contact/?hapikey=962e8ce2-2314-4e7f-8dab-77b7f59c270c
Response exception:System.Net.HttpWebResponse
Error records:-{"message":"Contact already exists","identityProfile":{"vid":64013360,"identity":[{"value":"18d1a105-7940-4b98-8ff7-7b12bdfbea21","type":"LEAD_GUID","timestamp":1594132398569},{"value":"nathpijush@googlemail.com","type":"EMAIL","timestamp":1599597137768,"isPrimary":true}],"linkedVid":[],"isContact":true,"savedAtTimestamp":1599597137827},"errors":[{"message":"A contact with email nathpijush@googlemail.com already exists.","in":"email"}],"status":"error","correlationId":"af5340ce-2550-4263-961e-05b5a573e483","category":"OBJECT_ALREADY_EXISTS","error":"CONTACT_EXISTS"}
Completed count:-3682
Error at count:-3683
URL:-https://api.hubapi.com/contacts/v1/contact/vid/{0}/profile?hapikey=962e8ce2-2314-4e7f-8dab-77b7f59c270c
URL:-https://api.hubapi.com/contacts/v1/contact/?hapikey=962e8ce2-2314-4e7f-8dab-77b7f59c270c
Response exception:System.Net.HttpWebResponse
Error records:-{"message":"Contact already exists","identityProfile":{"vid":62936929,"identity":[{"value":"binualexander05@gmail.com","type":"EMAIL","timestamp":1593882980999,"isPrimary":true},{"value":"1556d1a1-3a3e-4961-a53d-e04ad559213f","type":"LEAD_GUID","timestamp":1593882981005}],"linkedVid":[63911237],"isContact":true,"savedAtTimestamp":1594128043996},"errors":[{"message":"A contact with email binualexander05@gmail.com already exists.","in":"email"}],"status":"error","correlationId":"b7b58842-aadb-4b24-9e15-8de10f87d94a","category":"OBJECT_ALREADY_EXISTS","error":"CONTACT_EXISTS"}
Completed count:-3683
Completed count:-3684
Completed count:-3685
Completed count:-3686
Completed count:-3687
Error at count:-3688
URL:-https://api.hubapi.com/contacts/v1/contact/vid/{0}/profile?hapikey=962e8ce2-2314-4e7f-8dab-77b7f59c270c
URL:-https://api.hubapi.com/contacts/v1/contact/?hapikey=962e8ce2-2314-4e7f-8dab-77b7f59c270c
Response exception:System.Net.HttpWebResponse
Error records:-{"message":"Contact already exists","identityProfile":{"vid":62905908,"identity":[{"value":"fa2dfcc9-897b-4236-b516-d3e91163a875","type":"LEAD_GUID","timestamp":1593882960212},{"value":"tanasiemugur@gmail.com","type":"EMAIL","timestamp":1596044623661,"isPrimary":true}],"linkedVid":[],"isContact":true,"createdWithoutEmail":true,"savedAtTimestamp":1596044623744,"promotedToContact":true},"errors":[{"message":"A contact with email tanasiemugur@gmail.com already exists.","in":"email"}],"status":"error","correlationId":"c9ef3f25-8a8c-48eb-909a-e21f3702b14f","category":"OBJECT_ALREADY_EXISTS","error":"CONTACT_EXISTS"}
Completed count:-3688
Completed count:-3689
Error at count:-3690
URL:-https://api.hubapi.com/contacts/v1/contact/vid/{0}/profile?hapikey=962e8ce2-2314-4e7f-8dab-77b7f59c270c
URL:-https://api.hubapi.com/contacts/v1/contact/?hapikey=962e8ce2-2314-4e7f-8dab-77b7f59c270c
Response exception:System.Net.HttpWebResponse
Error records:-{"message":"Contact already exists","identityProfile":{"vid":7814501,"identity":[{"value":"58f6a213-dbc8-4265-bf83-0477030ced62","type":"LEAD_GUID","timestamp":1579130676919},{"value":"pawel.j@mail.com","type":"EMAIL","timestamp":1598890818205,"isPrimary":true},{"value":"pawel.psychoterapia@gmail.com","type":"EMAIL","timestamp":1581095252920,"isSecondary":true}],"linkedVid":[],"isContact":true,"savedAtTimestamp":1598890818248},"errors":[{"message":"A contact with email pawel.j@mail.com already exists.","in":"email"}],"status":"error","correlationId":"aeca1c04-475c-4e80-b3c4-be849deaf385","category":"OBJECT_ALREADY_EXISTS","error":"CONTACT_EXISTS"}
Completed count:-3690
Error at count:-3691
URL:-https://api.hubapi.com/contacts/v1/contact/vid/{0}/profile?hapikey=962e8ce2-2314-4e7f-8dab-77b7f59c270c
URL:-https://api.hubapi.com/contacts/v1/contact/?hapikey=962e8ce2-2314-4e7f-8dab-77b7f59c270c
Response exception:System.Net.HttpWebResponse
Error records:-{"message":"Contact already exists","identityProfile":{"vid":49951401,"identity":[{"value":"instock@gmx.com","type":"EMAIL","timestamp":1590657933883,"isPrimary":true},{"value":"69e1ff06-663a-4732-85bc-b5d77d60a16c","type":"LEAD_GUID","timestamp":1590657934854}],"linkedVid":[],"isContact":true,"savedAtTimestamp":1590657934857},"errors":[{"message":"A contact with email instock@gmx.com already exists.","in":"email"}],"status":"error","correlationId":"8137a2b4-5b2a-40af-8b65-feda3358d50e","category":"OBJECT_ALREADY_EXISTS","error":"CONTACT_EXISTS"}
Completed count:-3691
Error at count:-3692
URL:-https://api.hubapi.com/contacts/v1/contact/vid/{0}/profile?hapikey=962e8ce2-2314-4e7f-8dab-77b7f59c270c
URL:-https://api.hubapi.com/contacts/v1/contact/?hapikey=962e8ce2-2314-4e7f-8dab-77b7f59c270c
Response exception:System.Net.HttpWebResponse
Error records:-{"message":"Contact already exists","identityProfile":{"vid":60723751,"identity":[{"value":"vermajyoti689@gmail.com","type":"EMAIL","timestamp":1593390037396,"isPrimary":true},{"value":"bacbfd71-2059-457e-922c-d5c9f2e2f9e0","type":"LEAD_GUID","timestamp":1593390037410}],"linkedVid":[],"isContact":true,"savedAtTimestamp":1593390037415},"errors":[{"message":"A contact with email vermajyoti689@gmail.com already exists.","in":"email"}],"status":"error","correlationId":"bab8f70a-01cb-4644-b5c2-d4300fa4088c","category":"OBJECT_ALREADY_EXISTS","error":"CONTACT_EXISTS"}
Completed count:-3692
Completed count:-3693
Completed count:-3694
Error at count:-3695
URL:-https://api.hubapi.com/contacts/v1/contact/vid/{0}/profile?hapikey=962e8ce2-2314-4e7f-8dab-77b7f59c270c
URL:-https://api.hubapi.com/contacts/v1/contact/?hapikey=962e8ce2-2314-4e7f-8dab-77b7f59c270c
Response exception:System.Net.HttpWebResponse
Error records:-{"message":"Contact already exists","identityProfile":{"vid":62960302,"identity":[{"value":"exploitz86@gmail.com","type":"EMAIL","timestamp":1593882989785,"isPrimary":true},{"value":"8543401e-81f6-4991-a4bc-da05d72b2531","type":"LEAD_GUID","timestamp":1593882989796}],"linkedVid":[],"isContact":true,"savedAtTimestamp":1593882989799},"errors":[{"message":"A contact with email exploitz86@gmail.com already exists.","in":"email"}],"status":"error","correlationId":"b31aa9db-fad9-4307-a1fc-8931b86618e6","category":"OBJECT_ALREADY_EXISTS","error":"CONTACT_EXISTS"}
Completed count:-3695
Error at count:-3696
URL:-https://api.hubapi.com/contacts/v1/contact/vid/{0}/profile?hapikey=962e8ce2-2314-4e7f-8dab-77b7f59c270c
URL:-https://api.hubapi.com/contacts/v1/contact/?hapikey=962e8ce2-2314-4e7f-8dab-77b7f59c270c
Response exception:System.Net.HttpWebResponse
Error records:-{"message":"Contact already exists","identityProfile":{"vid":62984247,"identity":[{"value":"ja_pereira@yahoo.com.br","type":"EMAIL","timestamp":1593883018285,"isPrimary":true},{"value":"522b65ab-f2c6-4487-bf28-8cfde64b6491","type":"LEAD_GUID","timestamp":1593883018301}],"linkedVid":[],"isContact":true,"savedAtTimestamp":1593883018305},"errors":[{"message":"A contact with email ja_pereira@yahoo.com.br already exists.","in":"email"}],"status":"error","correlationId":"cc1b3907-f213-4cb8-b708-2c7279634881","category":"OBJECT_ALREADY_EXISTS","error":"CONTACT_EXISTS"}
Completed count:-3696
Completed count:-3697
Error at count:-3698
URL:-https://api.hubapi.com/contacts/v1/contact/vid/{0}/profile?hapikey=962e8ce2-2314-4e7f-8dab-77b7f59c270c
URL:-https://api.hubapi.com/contacts/v1/contact/?hapikey=962e8ce2-2314-4e7f-8dab-77b7f59c270c
Response exception:System.Net.HttpWebResponse
Error records:-{"message":"Contact already exists","identityProfile":{"vid":9984101,"identity":[{"value":"super.lungu@2015yandex.ru","type":"EMAIL","timestamp":1579871174698,"isPrimary":true},{"value":"03a4507c-b4a9-41ec-9d2b-47f470f35753","type":"LEAD_GUID","timestamp":1579871175770}],"linkedVid":[],"isContact":true,"savedAtTimestamp":1579871175775},"errors":[{"message":"A contact with email super.lungu@2015yandex.ru already exists.","in":"email"}],"status":"error","correlationId":"c447c43c-87e1-49c4-ba83-a21eb5424eac","category":"OBJECT_ALREADY_EXISTS","error":"CONTACT_EXISTS"}
Completed count:-3698
Error at count:-3699
URL:-https://api.hubapi.com/contacts/v1/contact/vid/{0}/profile?hapikey=962e8ce2-2314-4e7f-8dab-77b7f59c270c
URL:-https://api.hubapi.com/contacts/v1/contact/?hapikey=962e8ce2-2314-4e7f-8dab-77b7f59c270c
Response exception:System.Net.HttpWebResponse
Error records:-{"message":"Contact already exists","identityProfile":{"vid":62825805,"identity":[{"value":"singhkulwant703@gmail.com","type":"EMAIL","timestamp":1593882908758,"isPrimary":true},{"value":"0266f266-8a42-4d92-863d-63eab0b35706","type":"LEAD_GUID","timestamp":1593882908773}],"linkedVid":[],"isContact":true,"savedAtTimestamp":1593882908775},"errors":[{"message":"A contact with email singhkulwant703@gmail.com already exists.","in":"email"}],"status":"error","correlationId":"263d3a83-5b23-4a2d-858b-743dedda63a9","category":"OBJECT_ALREADY_EXISTS","error":"CONTACT_EXISTS"}
Completed count:-3699
Completed count:-3700
Completed count:-3701
Error at count:-3702
URL:-https://api.hubapi.com/contacts/v1/contact/vid/{0}/profile?hapikey=962e8ce2-2314-4e7f-8dab-77b7f59c270c
URL:-https://api.hubapi.com/contacts/v1/contact/?hapikey=962e8ce2-2314-4e7f-8dab-77b7f59c270c
Response exception:System.Net.HttpWebResponse
Error records:-{"message":"Contact already exists","identityProfile":{"vid":62971104,"identity":[{"value":"jaydip.vasu10@gmail.com","type":"EMAIL","timestamp":1593883000466,"isPrimary":true},{"value":"939b9125-cc8f-44fe-945a-87444f3fc233","type":"LEAD_GUID","timestamp":1593883000479}],"linkedVid":[],"isContact":true,"savedAtTimestamp":1593883000481},"errors":[{"message":"A contact with email jaydip.vasu10@gmail.com already exists.","in":"email"}],"status":"error","correlationId":"aba0e32d-5600-4ecf-bcbb-f27931a448d0","category":"OBJECT_ALREADY_EXISTS","error":"CONTACT_EXISTS"}
Completed count:-3702
Completed count:-3703
Completed count:-3704
Completed count:-3705
Completed count:-3706
Completed count:-3707
Completed count:-3708
Error at count:-3709
URL:-https://api.hubapi.com/contacts/v1/contact/vid/{0}/profile?hapikey=962e8ce2-2314-4e7f-8dab-77b7f59c270c
URL:-https://api.hubapi.com/contacts/v1/contact/?hapikey=962e8ce2-2314-4e7f-8dab-77b7f59c270c
Response exception:System.Net.HttpWebResponse
Error records:-{"message":"Contact already exists","identityProfile":{"vid":25010751,"identity":[{"value":"306c81ff-0ba2-4930-a38a-937c06e4927a","type":"LEAD_GUID","timestamp":1584645689274},{"value":"p.jward@outlook.com","type":"EMAIL","timestamp":1598890815197,"isPrimary":true}],"linkedVid":[39359951],"isContact":true,"savedAtTimestamp":1598890815290},"errors":[{"message":"A contact with email p.jward@outlook.com already exists.","in":"email"}],"status":"error","correlationId":"f1e0ebcd-f65f-4950-8c75-4f48ddf0ba86","category":"OBJECT_ALREADY_EXISTS","error":"CONTACT_EXISTS"}
Completed count:-3709
Completed count:-3710
Error at count:-3711
URL:-https://api.hubapi.com/contacts/v1/contact/vid/{0}/profile?hapikey=962e8ce2-2314-4e7f-8dab-77b7f59c270c
URL:-https://api.hubapi.com/contacts/v1/contact/?hapikey=962e8ce2-2314-4e7f-8dab-77b7f59c270c
Response exception:System.Net.HttpWebResponse
Error records:-{"message":"Contact already exists","identityProfile":{"vid":439929,"identity":[{"value":"ainarasrefbergs888@gmail.com","type":"EMAIL","timestamp":1576130878807,"isPrimary":true},{"value":"a2bbbe60-27ce-4c2f-854d-8da68c96ad04","type":"LEAD_GUID","timestamp":1576130878815}],"linkedVid":[],"isContact":true,"savedAtTimestamp":1576130878816},"errors":[{"message":"A contact with email ainarasrefbergs888@gmail.com already exists.","in":"email"}],"status":"error","correlationId":"7b7619f5-7354-43ca-8b41-f7cc8d06da9c","category":"OBJECT_ALREADY_EXISTS","error":"CONTACT_EXISTS"}
