Completed count:-1649
Error at count:-1650
URL:-https://api.hubapi.com/contacts/v1/contact/vid/{0}/profile?hapikey=962e8ce2-2314-4e7f-8dab-77b7f59c270c
URL:-https://api.hubapi.com/contacts/v1/contact/?hapikey=962e8ce2-2314-4e7f-8dab-77b7f59c270c
Response exception:System.Net.HttpWebResponse
Error records:-{"message":"Contact already exists","identityProfile":{"vid":62139603,"identity":[{"value":"30b66f1f-9e70-473a-a9ea-96332524ef23","type":"LEAD_GUID","timestamp":1593710891533},{"value":"mrian_krasi@abv.bg","type":"EMAIL","timestamp":1599591872117,"isPrimary":true}],"linkedVid":[],"isContact":true,"savedAtTimestamp":1599591872192},"errors":[{"message":"A contact with email mrian_krasi@abv.bg already exists.","in":"email"}],"status":"error","correlationId":"a418fe96-1b62-47df-b9cf-233c3c45c106","category":"OBJECT_ALREADY_EXISTS","error":"CONTACT_EXISTS"}
Completed count:-1650
Completed count:-1651
Completed count:-1652
Completed count:-1653
Completed count:-1654
Completed count:-1655
Error at count:-1656
URL:-https://api.hubapi.com/contacts/v1/contact/vid/{0}/profile?hapikey=962e8ce2-2314-4e7f-8dab-77b7f59c270c
URL:-https://api.hubapi.com/contacts/v1/contact/?hapikey=962e8ce2-2314-4e7f-8dab-77b7f59c270c
Response exception:System.Net.HttpWebResponse
Error records:-{"message":"Contact already exists","identityProfile":{"vid":441107,"identity":[{"value":"alumira77@gmail.com","type":"EMAIL","timestamp":1576130879652,"isPrimary":true},{"value":"911f413b-4234-46a8-96cc-6000642cda0b","type":"LEAD_GUID","timestamp":1576130879658}],"linkedVid":[],"isContact":true,"savedAtTimestamp":1576130879660},"errors":[{"message":"A contact with email alumira77@gmail.com already exists.","in":"email"}],"status":"error","correlationId":"6357e91a-97d0-45da-9b93-41ae9559a928","category":"OBJECT_ALREADY_EXISTS","error":"CONTACT_EXISTS"}
Completed count:-1656
Error at count:-1657
URL:-https://api.hubapi.com/contacts/v1/contact/vid/{0}/profile?hapikey=962e8ce2-2314-4e7f-8dab-77b7f59c270c
URL:-https://api.hubapi.com/contacts/v1/contact/?hapikey=962e8ce2-2314-4e7f-8dab-77b7f59c270c
Response exception:System.Net.HttpWebResponse
Error records:-{"message":"Contact already exists","identityProfile":{"vid":62829211,"identity":[{"value":"shuizhuniuro@yahoo.co.uk","type":"EMAIL","timestamp":1593882912121,"isPrimary":true},{"value":"196a89d7-6144-4aca-8e9f-10b5c358c690","type":"LEAD_GUID","timestamp":1593882912130}],"linkedVid":[],"isContact":true,"savedAtTimestamp":1593882912132},"errors":[{"message":"A contact with email shuizhuniuro@yahoo.co.uk already exists.","in":"email"}],"status":"error","correlationId":"a7d32833-946d-47b4-be8a-30ddbf58da77","category":"OBJECT_ALREADY_EXISTS","error":"CONTACT_EXISTS"}
Completed count:-1657
Completed count:-1658
Completed count:-1659
Completed count:-1660
Completed count:-1661
Completed count:-1662
Completed count:-1663
Completed count:-1664
Completed count:-1665
Error at count:-1666
URL:-https://api.hubapi.com/contacts/v1/contact/vid/{0}/profile?hapikey=962e8ce2-2314-4e7f-8dab-77b7f59c270c
URL:-https://api.hubapi.com/contacts/v1/contact/?hapikey=962e8ce2-2314-4e7f-8dab-77b7f59c270c
Response exception:System.Net.HttpWebResponse
Error records:-{"message":"Contact already exists","identityProfile":{"vid":62823481,"identity":[{"value":"akhil.nitk@gmail.com","type":"EMAIL","timestamp":1593882906680,"isPrimary":true},{"value":"77759a56-7ce9-405c-b1fe-ee158e4c3ab6","type":"LEAD_GUID","timestamp":1593882906691}],"linkedVid":[64440501],"isContact":true,"savedAtTimestamp":1594212852255},"errors":[{"message":"A contact with email akhil.nitk@gmail.com already exists.","in":"email"}],"status":"error","correlationId":"8c323305-2256-49bf-b94d-b253536d4d99","category":"OBJECT_ALREADY_EXISTS","error":"CONTACT_EXISTS"}
Completed count:-1666
Error at count:-1667
URL:-https://api.hubapi.com/contacts/v1/contact/vid/{0}/profile?hapikey=962e8ce2-2314-4e7f-8dab-77b7f59c270c
URL:-https://api.hubapi.com/contacts/v1/contact/?hapikey=962e8ce2-2314-4e7f-8dab-77b7f59c270c
Response exception:System.Net.HttpWebResponse
Error records:-{"message":"Contact already exists","identityProfile":{"vid":62825315,"identity":[{"value":"saurabhanwekar@gmail.com","type":"EMAIL","timestamp":1593882908494,"isPrimary":true},{"value":"e33e39aa-2f7a-441e-be1d-2518d052f0f0","type":"LEAD_GUID","timestamp":1593882908503}],"linkedVid":[63887652],"isContact":true,"savedAtTimestamp":1594121944535},"errors":[{"message":"A contact with email saurabhanwekar@gmail.com already exists.","in":"email"}],"status":"error","correlationId":"f791b9a5-d343-4e5b-8016-78a213aeafaf","category":"OBJECT_ALREADY_EXISTS","error":"CONTACT_EXISTS"}
Completed count:-1667
Completed count:-1668
Completed count:-1669
Completed count:-1670
Completed count:-1671
Completed count:-1672
Completed count:-1673
Completed count:-1674
Error at count:-1675
URL:-https://api.hubapi.com/contacts/v1/contact/vid/{0}/profile?hapikey=962e8ce2-2314-4e7f-8dab-77b7f59c270c
URL:-https://api.hubapi.com/contacts/v1/contact/?hapikey=962e8ce2-2314-4e7f-8dab-77b7f59c270c
Response exception:System.Net.HttpWebResponse
Error records:-{"message":"Contact already exists","identityProfile":{"vid":39065751,"identity":[{"value":"gboyanov63@gmail.com","type":"EMAIL","timestamp":1587948461693,"isPrimary":true},{"value":"42c404e3-6183-4196-ad54-ab7776e4371d","type":"LEAD_GUID","timestamp":1587948462182}],"linkedVid":[46348351],"isContact":true,"savedAtTimestamp":1589722412227},"errors":[{"message":"A contact with email gboyanov63@gmail.com already exists.","in":"email"}],"status":"error","correlationId":"b6d89e88-2a66-48aa-8ed5-e8ff07004b2a","category":"OBJECT_ALREADY_EXISTS","error":"CONTACT_EXISTS"}
Completed count:-1675
Completed count:-1676
Completed count:-1677
Error at count:-1678
URL:-https://api.hubapi.com/contacts/v1/contact/vid/{0}/profile?hapikey=962e8ce2-2314-4e7f-8dab-77b7f59c270c
URL:-https://api.hubapi.com/contacts/v1/contact/?hapikey=962e8ce2-2314-4e7f-8dab-77b7f59c270c
Response exception:System.Net.HttpWebResponse
Error records:-{"message":"Contact already exists","identityProfile":{"vid":62142654,"identity":[{"value":"mateusz.cierpial2510@gmail.com","type":"EMAIL","timestamp":1593710896036,"isPrimary":true},{"value":"df12511a-3fb4-44c1-8799-ae94596d7386","type":"LEAD_GUID","timestamp":1593710896044}],"linkedVid":[],"isContact":true,"savedAtTimestamp":1593710896046},"errors":[{"message":"A contact with email mateusz.cierpial2510@gmail.com already exists.","in":"email"}],"status":"error","correlationId":"12de5ddf-662c-4675-9cd7-1060274ca80d","category":"OBJECT_ALREADY_EXISTS","error":"CONTACT_EXISTS"}
Completed count:-1678
Error at count:-1679
URL:-https://api.hubapi.com/contacts/v1/contact/vid/{0}/profile?hapikey=962e8ce2-2314-4e7f-8dab-77b7f59c270c
URL:-https://api.hubapi.com/contacts/v1/contact/?hapikey=962e8ce2-2314-4e7f-8dab-77b7f59c270c
Response exception:System.Net.HttpWebResponse
Error records:-{"message":"Contact already exists","identityProfile":{"vid":62822354,"identity":[{"value":"samokonav123@gmail.com","type":"EMAIL","timestamp":1593882905650,"isPrimary":true},{"value":"83470f98-5236-4d04-b045-99f4778511e1","type":"LEAD_GUID","timestamp":1593882905660}],"linkedVid":[],"isContact":true,"savedAtTimestamp":1593882905662},"errors":[{"message":"A contact with email samokonav123@gmail.com already exists.","in":"email"}],"status":"error","correlationId":"8210251f-56f5-490b-8e3b-db57d6c69768","category":"OBJECT_ALREADY_EXISTS","error":"CONTACT_EXISTS"}
Completed count:-1679
Completed count:-1680
Error at count:-1681
URL:-https://api.hubapi.com/contacts/v1/contact/vid/{0}/profile?hapikey=962e8ce2-2314-4e7f-8dab-77b7f59c270c
URL:-https://api.hubapi.com/contacts/v1/contact/?hapikey=962e8ce2-2314-4e7f-8dab-77b7f59c270c
Response exception:System.Net.HttpWebResponse
Error records:-{"message":"Contact already exists","identityProfile":{"vid":6132151,"identity":[{"value":"janooo1984@gmail.com","type":"EMAIL","timestamp":1578506189915,"isPrimary":true},{"value":"e91346fb-ed74-4ce9-8fa0-a6180b508422","type":"LEAD_GUID","timestamp":1578506191555}],"linkedVid":[22673851,58194851,14228801],"isContact":true,"savedAtTimestamp":1592770081719},"errors":[{"message":"A contact with email janooo1984@gmail.com already exists.","in":"email"}],"status":"error","correlationId":"ae4f32d6-1aca-4148-adaa-12043a5faaed","category":"OBJECT_ALREADY_EXISTS","error":"CONTACT_EXISTS"}
Completed count:-1681
Error at count:-1682
URL:-https://api.hubapi.com/contacts/v1/contact/vid/{0}/profile?hapikey=962e8ce2-2314-4e7f-8dab-77b7f59c270c
URL:-https://api.hubapi.com/contacts/v1/contact/?hapikey=962e8ce2-2314-4e7f-8dab-77b7f59c270c
Response exception:System.Net.HttpWebResponse
Error records:-{"message":"Contact already exists","identityProfile":{"vid":62918747,"identity":[{"value":"evgenij13@inbox.lv","type":"EMAIL","timestamp":1593882973373,"isPrimary":true},{"value":"8c4e1110-80ba-43ee-9f36-dbc89318f42d","type":"LEAD_GUID","timestamp":1593882973382}],"linkedVid":[],"isContact":true,"savedAtTimestamp":1593882973384},"errors":[{"message":"A contact with email evgenij13@inbox.lv already exists.","in":"email"}],"status":"error","correlationId":"a314feb3-37d0-4cd2-b849-1a4512d124cf","category":"OBJECT_ALREADY_EXISTS","error":"CONTACT_EXISTS"}
Completed count:-1682
Error at count:-1683
URL:-https://api.hubapi.com/contacts/v1/contact/vid/{0}/profile?hapikey=962e8ce2-2314-4e7f-8dab-77b7f59c270c
URL:-https://api.hubapi.com/contacts/v1/contact/?hapikey=962e8ce2-2314-4e7f-8dab-77b7f59c270c
Response exception:System.Net.HttpWebResponse
Error records:-{"message":"Contact already exists","identityProfile":{"vid":11828201,"identity":[{"value":"komel_hussain@yahoo.co.uk","type":"EMAIL","timestamp":1580720912971,"isPrimary":true},{"value":"22918d7c-1fef-41eb-b256-a32fb6f82232","type":"LEAD_GUID","timestamp":1580720914410}],"linkedVid":[44000651,44247801,16171451],"isContact":true,"savedAtTimestamp":1589212022373},"errors":[{"message":"A contact with email komel_hussain@yahoo.co.uk already exists.","in":"email"}],"status":"error","correlationId":"917b2f43-fcb3-4df4-86c7-4498fbddff15","category":"OBJECT_ALREADY_EXISTS","error":"CONTACT_EXISTS"}
Completed count:-1683
Completed count:-1684
Error at count:-1685
URL:-https://api.hubapi.com/contacts/v1/contact/vid/{0}/profile?hapikey=962e8ce2-2314-4e7f-8dab-77b7f59c270c
URL:-https://api.hubapi.com/contacts/v1/contact/?hapikey=962e8ce2-2314-4e7f-8dab-77b7f59c270c
Response exception:System.Net.HttpWebResponse
Error records:-{"message":"Contact already exists","identityProfile":{"vid":62876945,"identity":[{"value":"daqna.vacheva@abv.bg","type":"EMAIL","timestamp":1593882936291,"isPrimary":true},{"value":"64f96839-a4a8-408b-bb19-183760833002","type":"LEAD_GUID","timestamp":1593882936327}],"linkedVid":[],"isContact":true,"savedAtTimestamp":1593882936329},"errors":[{"message":"A contact with email daqna.vacheva@abv.bg already exists.","in":"email"}],"status":"error","correlationId":"d9b806b3-fd7b-4e3f-bd92-90176f81fd60","category":"OBJECT_ALREADY_EXISTS","error":"CONTACT_EXISTS"}
Completed count:-1685
Completed count:-1686
Completed count:-1687
Error at count:-1688
URL:-https://api.hubapi.com/contacts/v1/contact/vid/{0}/profile?hapikey=962e8ce2-2314-4e7f-8dab-77b7f59c270c
URL:-https://api.hubapi.com/contacts/v1/contact/?hapikey=962e8ce2-2314-4e7f-8dab-77b7f59c270c
Response exception:System.Net.HttpWebResponse
Error records:-{"message":"Contact already exists","identityProfile":{"vid":439876,"identity":[{"value":"hulya.mlt@hotmail.com","type":"EMAIL","timestamp":1576130878291,"isPrimary":true},{"value":"f085ec6d-23c8-467b-9409-38a0d0974c34","type":"LEAD_GUID","timestamp":1576130878300}],"linkedVid":[13834401,54629651,54621951,54627951],"isContact":true,"savedAtTimestamp":1591824675941},"errors":[{"message":"A contact with email hulya.mlt@hotmail.com already exists.","in":"email"}],"status":"error","correlationId":"70e58e2a-708f-43c2-b1b3-04c7b67609d9","category":"OBJECT_ALREADY_EXISTS","error":"CONTACT_EXISTS"}
Completed count:-1688
Error at count:-1689
URL:-https://api.hubapi.com/contacts/v1/contact/vid/{0}/profile?hapikey=962e8ce2-2314-4e7f-8dab-77b7f59c270c
URL:-https://api.hubapi.com/contacts/v1/contact/?hapikey=962e8ce2-2314-4e7f-8dab-77b7f59c270c
Response exception:System.Net.HttpWebResponse
Error records:-{"message":"Contact already exists","identityProfile":{"vid":62968274,"identity":[{"value":"m.alex2003@icloud.com","type":"EMAIL","timestamp":1593882998138,"isPrimary":true},{"value":"cce99d4b-7346-455c-b220-fa019b3e790b","type":"LEAD_GUID","timestamp":1593882998150}],"linkedVid":[],"isContact":true,"savedAtTimestamp":1593882998153},"errors":[{"message":"A contact with email m.alex2003@icloud.com already exists.","in":"email"}],"status":"error","correlationId":"422af5de-82a2-45e8-ba56-353947039f6e","category":"OBJECT_ALREADY_EXISTS","error":"CONTACT_EXISTS"}
Completed count:-1689
Completed count:-1690
Error at count:-1691
URL:-https://api.hubapi.com/contacts/v1/contact/vid/{0}/profile?hapikey=962e8ce2-2314-4e7f-8dab-77b7f59c270c
URL:-https://api.hubapi.com/contacts/v1/contact/?hapikey=962e8ce2-2314-4e7f-8dab-77b7f59c270c
Response exception:System.Net.HttpWebResponse
Error records:-{"message":"Contact already exists","identityProfile":{"vid":62975933,"identity":[{"value":"436bdde0-55b5-4b1b-a278-a370ec32645b","type":"LEAD_GUID","timestamp":1593883013773},{"value":"sharushanvijayarooban@gmail.com","type":"EMAIL","timestamp":1598890815303,"isPrimary":true}],"linkedVid":[],"isContact":true,"createdWithoutEmail":true,"savedAtTimestamp":1598890815385,"promotedToContact":true},"errors":[{"message":"A contact with email sharushanvijayarooban@gmail.com already exists.","in":"email"}],"status":"error","correlationId":"e8ec9bf4-7456-4b15-975e-86c7c275b51d","category":"OBJECT_ALREADY_EXISTS","error":"CONTACT_EXISTS"}
Completed count:-1691
Completed count:-1692
Completed count:-1693
Completed count:-1694
Error at count:-1695
URL:-https://api.hubapi.com/contacts/v1/contact/vid/{0}/profile?hapikey=962e8ce2-2314-4e7f-8dab-77b7f59c270c
URL:-https://api.hubapi.com/contacts/v1/contact/?hapikey=962e8ce2-2314-4e7f-8dab-77b7f59c270c
Response exception:System.Net.HttpWebResponse
Error records:-{"message":"Contact already exists","identityProfile":{"vid":62896858,"identity":[{"value":"deoludabest@yahoo.com","type":"EMAIL","timestamp":1593882953908,"isPrimary":true},{"value":"1819d529-0e02-4000-825d-fd26c85893e3","type":"LEAD_GUID","timestamp":1593882953921}],"linkedVid":[],"isContact":true,"savedAtTimestamp":1593882953924},"errors":[{"message":"A contact with email deoludabest@yahoo.com already exists.","in":"email"}],"status":"error","correlationId":"15f005a5-f124-4c0f-b377-0cc97c5062df","category":"OBJECT_ALREADY_EXISTS","error":"CONTACT_EXISTS"}
Completed count:-1695
Error at count:-1696
URL:-https://api.hubapi.com/contacts/v1/contact/vid/{0}/profile?hapikey=962e8ce2-2314-4e7f-8dab-77b7f59c270c
URL:-https://api.hubapi.com/contacts/v1/contact/?hapikey=962e8ce2-2314-4e7f-8dab-77b7f59c270c
Response exception:System.Net.HttpWebResponse
Error records:-{"validationResults":[{"isValid":false,"message":"credit/debit card was not one of the allowed options: [label: \"PayPal\"\nvalue: \"PayPal\"\ndisplay_order: 0\ndouble_data: 0.0\nhidden: false\ndescription: \"\"\nread_only: false\n, label: \"Paysafe\"\nvalue: \"Paysafe\"\ndisplay_order: 1\ndouble_data: 0.0\nhidden: false\ndescription: \"\"\nread_only: false\n, label: \"Others\"\nvalue: \"Others\"\ndisplay_order: 2\ndouble_data: 0.0\nhidden: false\ndescription: \"\"\nread_only: false\n, label: \"Credit/Debit card \"\nvalue: \"Credit/Debit card\"\ndisplay_order: 3\ndouble_data: 0.0\nhidden: false\ndescription: \"\"\nread_only: false\n, label: \"RealX\"\nvalue: \"RealX\"\ndisplay_order: 4\ndouble_data: 0.0\nhidden: false\ndescription: \"\"\nread_only: false\n]","error":"INVALID_OPTION","name":"latest_topup_payment_method_used"}],"status":"error","message":"Property values were not valid","correlationId":"d4cf7ec6-e422-428e-81d6-f58a34d2e7be"}
Completed count:-1696
Completed count:-1697
Error at count:-1698
URL:-https://api.hubapi.com/contacts/v1/contact/vid/{0}/profile?hapikey=962e8ce2-2314-4e7f-8dab-77b7f59c270c
URL:-https://api.hubapi.com/contacts/v1/contact/?hapikey=962e8ce2-2314-4e7f-8dab-77b7f59c270c
Response exception:System.Net.HttpWebResponse
Error records:-{"message":"Contact already exists","identityProfile":{"vid":62905297,"identity":[{"value":"semyed@gmail.com","type":"EMAIL","timestamp":1593882960190,"isPrimary":true},{"value":"b0641988-d411-45dd-adfb-a3dca1ef8bf2","type":"LEAD_GUID","timestamp":1593882960199}],"linkedVid":[],"isContact":true,"savedAtTimestamp":1593882960202},"errors":[{"message":"A contact with email semyed@gmail.com already exists.","in":"email"}],"status":"error","correlationId":"23237efb-8a8c-40ba-a6e6-739d01b5f779","category":"OBJECT_ALREADY_EXISTS","error":"CONTACT_EXISTS"}
Completed count:-1698
Completed count:-1699
Completed count:-1700
Error at count:-1701
URL:-https://api.hubapi.com/contacts/v1/contact/vid/{0}/profile?hapikey=962e8ce2-2314-4e7f-8dab-77b7f59c270c
URL:-https://api.hubapi.com/contacts/v1/contact/?hapikey=962e8ce2-2314-4e7f-8dab-77b7f59c270c
Response exception:System.Net.HttpWebResponse
Error records:-{"message":"Contact already exists","identityProfile":{"vid":62824892,"identity":[{"value":"c325ff88-79bf-47f1-9af8-192c5d474663","type":"LEAD_GUID","timestamp":1593882908275},{"value":"office@gmclaren.com","type":"EMAIL","timestamp":1598890814595,"isPrimary":true}],"linkedVid":[],"isContact":true,"createdWithoutEmail":true,"savedAtTimestamp":1598890814646,"promotedToContact":true},"errors":[{"message":"A contact with email office@gmclaren.com already exists.","in":"email"}],"status":"error","correlationId":"e4321b14-ee57-49ab-b0f9-a53f2261d49d","category":"OBJECT_ALREADY_EXISTS","error":"CONTACT_EXISTS"}
Completed count:-1701
Error at count:-1702
URL:-https://api.hubapi.com/contacts/v1/contact/vid/{0}/profile?hapikey=962e8ce2-2314-4e7f-8dab-77b7f59c270c
URL:-https://api.hubapi.com/contacts/v1/contact/?hapikey=962e8ce2-2314-4e7f-8dab-77b7f59c270c
Response exception:System.Net.HttpWebResponse
Error records:-{"message":"Contact already exists","identityProfile":{"vid":438711,"identity":[{"value":"kevin2007@ymail.com","type":"EMAIL","timestamp":1576130875628,"isPrimary":true},{"value":"6be983ba-de41-456e-b95f-c95535f76752","type":"LEAD_GUID","timestamp":1576130875637}],"linkedVid":[12615554],"isContact":true,"savedAtTimestamp":1586428780362},"errors":[{"message":"A contact with email kevin2007@ymail.com already exists.","in":"email"}],"status":"error","correlationId":"3a60ae99-4fab-4012-aa9a-c67a739cb390","category":"OBJECT_ALREADY_EXISTS","error":"CONTACT_EXISTS"}
Completed count:-1702
Completed count:-1703
Completed count:-1704
Completed count:-1705
Completed count:-1706
Error at count:-1707
URL:-https://api.hubapi.com/contacts/v1/contact/vid/{0}/profile?hapikey=962e8ce2-2314-4e7f-8dab-77b7f59c270c
URL:-https://api.hubapi.com/contacts/v1/contact/?hapikey=962e8ce2-2314-4e7f-8dab-77b7f59c270c
Response exception:System.Net.HttpWebResponse
Error records:-{"message":"Contact already exists","identityProfile":{"vid":438571,"identity":[{"value":"mocsonokykata@freemail.hu","type":"EMAIL","timestamp":1576130875550,"isPrimary":true},{"value":"85afd644-669a-49c7-8511-9b816c7ac33a","type":"LEAD_GUID","timestamp":1576130875558}],"linkedVid":[14033701],"isContact":true,"savedAtTimestamp":1581326393730},"errors":[{"message":"A contact with email mocsonokykata@freemail.hu already exists.","in":"email"}],"status":"error","correlationId":"be83a959-73b2-4253-a550-1301e83f97be","category":"OBJECT_ALREADY_EXISTS","error":"CONTACT_EXISTS"}
Completed count:-1707
Error at count:-1708
URL:-https://api.hubapi.com/contacts/v1/contact/vid/{0}/profile?hapikey=962e8ce2-2314-4e7f-8dab-77b7f59c270c
URL:-https://api.hubapi.com/contacts/v1/contact/?hapikey=962e8ce2-2314-4e7f-8dab-77b7f59c270c
Response exception:System.Net.HttpWebResponse
Error records:-{"message":"Contact already exists","identityProfile":{"vid":62896182,"identity":[{"value":"istauk.id22@gmail.com","type":"EMAIL","timestamp":1593882953226,"isPrimary":true},{"value":"fb80b2b2-fc3a-402e-b9d3-e6095a114a9e","type":"LEAD_GUID","timestamp":1593882953234}],"linkedVid":[],"isContact":true,"savedAtTimestamp":1593882953235},"errors":[{"message":"A contact with email istauk.id22@gmail.com already exists.","in":"email"}],"status":"error","correlationId":"42e4fa9c-ed92-4d78-a65c-dd67facdf67e","category":"OBJECT_ALREADY_EXISTS","error":"CONTACT_EXISTS"}
Completed count:-1708
Error at count:-1709
URL:-https://api.hubapi.com/contacts/v1/contact/vid/{0}/profile?hapikey=962e8ce2-2314-4e7f-8dab-77b7f59c270c
URL:-https://api.hubapi.com/contacts/v1/contact/?hapikey=962e8ce2-2314-4e7f-8dab-77b7f59c270c
Response exception:System.Net.HttpWebResponse
Error records:-{"message":"Contact already exists","identityProfile":{"vid":62864631,"identity":[{"value":"airidasjonaitis27@gmail.com","type":"EMAIL","timestamp":1593882930602,"isPrimary":true},{"value":"666097cd-6558-4a02-9363-111d8c2cddd0","type":"LEAD_GUID","timestamp":1593882930619}],"linkedVid":[],"isContact":true,"savedAtTimestamp":1593882930622},"errors":[{"message":"A contact with email airidasjonaitis27@gmail.com already exists.","in":"email"}],"status":"error","correlationId":"b6bb9493-15da-4d81-a9f6-9a84ddc220f0","category":"OBJECT_ALREADY_EXISTS","error":"CONTACT_EXISTS"}
Completed count:-1709
Error at count:-1710
URL:-https://api.hubapi.com/contacts/v1/contact/vid/{0}/profile?hapikey=962e8ce2-2314-4e7f-8dab-77b7f59c270c
URL:-https://api.hubapi.com/contacts/v1/contact/?hapikey=962e8ce2-2314-4e7f-8dab-77b7f59c270c
Response exception:System.Net.HttpWebResponse
Error records:-{"message":"Contact already exists","identityProfile":{"vid":62968898,"identity":[{"value":"gd.shepherd3@gmail.com","type":"EMAIL","timestamp":1593882998714,"isPrimary":true},{"value":"10552b61-3803-4b79-b96e-c5a2fcc179fe","type":"LEAD_GUID","timestamp":1593882998723}],"linkedVid":[],"isContact":true,"savedAtTimestamp":1593882998725},"errors":[{"message":"A contact with email gd.shepherd3@gmail.com already exists.","in":"email"}],"status":"error","correlationId":"d748bf52-5a0e-4d1c-88ed-aec0e8e513b4","category":"OBJECT_ALREADY_EXISTS","error":"CONTACT_EXISTS"}
Completed count:-1710
Completed count:-1711
Error at count:-1712
URL:-https://api.hubapi.com/contacts/v1/contact/vid/{0}/profile?hapikey=962e8ce2-2314-4e7f-8dab-77b7f59c270c
URL:-https://api.hubapi.com/contacts/v1/contact/?hapikey=962e8ce2-2314-4e7f-8dab-77b7f59c270c
Response exception:System.Net.HttpWebResponse
Error records:-{"message":"Contact already exists","identityProfile":{"vid":10065603,"identity":[{"value":"jimmy@mail.bg","type":"EMAIL","timestamp":1579886796346,"isPrimary":true},{"value":"345d92c5-6b21-4053-8eba-25b9aa75eaf8","type":"LEAD_GUID","timestamp":1579886801090}],"linkedVid":[28719351,57193401,18825101,52190651,24071251,41127551],"isContact":true,"savedAtTimestamp":1592506370033},"errors":[{"message":"A contact with email jimmy@mail.bg already exists.","in":"email"}],"status":"error","correlationId":"fa4e0d97-5b41-4ad6-9eb6-c7196ebdca82","category":"OBJECT_ALREADY_EXISTS","error":"CONTACT_EXISTS"}
Completed count:-1712
Error at count:-1713
URL:-https://api.hubapi.com/contacts/v1/contact/vid/{0}/profile?hapikey=962e8ce2-2314-4e7f-8dab-77b7f59c270c
URL:-https://api.hubapi.com/contacts/v1/contact/?hapikey=962e8ce2-2314-4e7f-8dab-77b7f59c270c
Response exception:System.Net.HttpWebResponse
Error records:-{"message":"Contact already exists","identityProfile":{"vid":62882662,"identity":[{"value":"zbychu525@gmail.com","type":"EMAIL","timestamp":1593882942030,"isPrimary":true},{"value":"d74cdbc7-040c-452a-be91-347ee12f6444","type":"LEAD_GUID","timestamp":1593882942044}],"linkedVid":[],"isContact":true,"savedAtTimestamp":1593882942045},"errors":[{"message":"A contact with email zbychu525@gmail.com already exists.","in":"email"}],"status":"error","correlationId":"02215ef2-d07a-40e2-b4fb-5606e70bac38","category":"OBJECT_ALREADY_EXISTS","error":"CONTACT_EXISTS"}
Completed count:-1713
Completed count:-1714
Completed count:-1715
Completed count:-1716
Error at count:-1717
URL:-https://api.hubapi.com/contacts/v1/contact/vid/{0}/profile?hapikey=962e8ce2-2314-4e7f-8dab-77b7f59c270c
URL:-https://api.hubapi.com/contacts/v1/contact/?hapikey=962e8ce2-2314-4e7f-8dab-77b7f59c270c
Response exception:System.Net.HttpWebResponse
Error records:-{"message":"Contact already exists","identityProfile":{"vid":1197301,"identity":[{"value":"medin987@gmail.com","type":"EMAIL","timestamp":1579150211929,"isPrimary":true},{"value":"1795d41b-35f9-4811-ba93-f8cd8f3824f4","type":"LEAD_GUID","timestamp":1579150214278}],"linkedVid":[5791651],"isContact":true,"savedAtTimestamp":1591266177122},"errors":[{"message":"A contact with email medin987@gmail.com already exists.","in":"email"}],"status":"error","correlationId":"699c2444-5148-430f-b631-7ed8f7ae08d1","category":"OBJECT_ALREADY_EXISTS","error":"CONTACT_EXISTS"}
Completed count:-1717
Error at count:-1718
URL:-https://api.hubapi.com/contacts/v1/contact/vid/{0}/profile?hapikey=962e8ce2-2314-4e7f-8dab-77b7f59c270c
URL:-https://api.hubapi.com/contacts/v1/contact/?hapikey=962e8ce2-2314-4e7f-8dab-77b7f59c270c
Response exception:System.Net.HttpWebResponse
Error records:-{"message":"Contact already exists","identityProfile":{"vid":64023103,"identity":[{"value":"a0bb71b6-fa85-4b78-be1f-2f7f9a49b544","type":"LEAD_GUID","timestamp":1594132400307},{"value":"email@mickiedean.com","type":"EMAIL","timestamp":1598887124381,"isPrimary":true}],"linkedVid":[],"isContact":true,"createdWithoutEmail":true,"savedAtTimestamp":1598887124411,"promotedToContact":true},"errors":[{"message":"A contact with email email@mickiedean.com already exists.","in":"email"}],"status":"error","correlationId":"d14789d6-a35b-414e-807a-29c1f71cb1c6","category":"OBJECT_ALREADY_EXISTS","error":"CONTACT_EXISTS"}
Completed count:-1718
Error at count:-1719
URL:-https://api.hubapi.com/contacts/v1/contact/vid/{0}/profile?hapikey=962e8ce2-2314-4e7f-8dab-77b7f59c270c
URL:-https://api.hubapi.com/contacts/v1/contact/?hapikey=962e8ce2-2314-4e7f-8dab-77b7f59c270c
Response exception:System.Net.HttpWebResponse
Error records:-{"message":"Contact already exists","identityProfile":{"vid":62135206,"identity":[{"value":"milika-4@hotmail.com","type":"EMAIL","timestamp":1593710888204,"isPrimary":true},{"value":"c9d1aebe-24ae-4645-ae85-f906fa033572","type":"LEAD_GUID","timestamp":1593710888212}],"linkedVid":[],"isContact":true,"savedAtTimestamp":1593710888215},"errors":[{"message":"A contact with email milika-4@hotmail.com already exists.","in":"email"}],"status":"error","correlationId":"0dbb48f9-ec72-4077-aea9-57fe929147bf","category":"OBJECT_ALREADY_EXISTS","error":"CONTACT_EXISTS"}
Completed count:-1719
Error at count:-1720
URL:-https://api.hubapi.com/contacts/v1/contact/vid/{0}/profile?hapikey=962e8ce2-2314-4e7f-8dab-77b7f59c270c
URL:-https://api.hubapi.com/contacts/v1/contact/?hapikey=962e8ce2-2314-4e7f-8dab-77b7f59c270c
Response exception:System.Net.HttpWebResponse
Error records:-{"message":"Contact already exists","identityProfile":{"vid":62906720,"identity":[{"value":"jarek.rosiak1@wp.pl","type":"EMAIL","timestamp":1593882961651,"isPrimary":true},{"value":"881c0ee2-b958-4ed1-ab1f-5973e5d842a1","type":"LEAD_GUID","timestamp":1593882961665}],"linkedVid":[],"isContact":true,"savedAtTimestamp":1593882961667},"errors":[{"message":"A contact with email jarek.rosiak1@wp.pl already exists.","in":"email"}],"status":"error","correlationId":"7e89c155-e7d8-4a11-b4a3-3b0b5b2c58c7","category":"OBJECT_ALREADY_EXISTS","error":"CONTACT_EXISTS"}
Completed count:-1720
Error at count:-1721
URL:-https://api.hubapi.com/contacts/v1/contact/vid/{0}/profile?hapikey=962e8ce2-2314-4e7f-8dab-77b7f59c270c
URL:-https://api.hubapi.com/contacts/v1/contact/?hapikey=962e8ce2-2314-4e7f-8dab-77b7f59c270c
Response exception:System.Net.HttpWebResponse
Error records:-{"message":"Contact already exists","identityProfile":{"vid":62140264,"identity":[{"value":"40935ca9-a3a8-49ac-b541-7e08fde46460","type":"LEAD_GUID","timestamp":1593710893670},{"value":"btissam_salma2005@hotmail.com","type":"EMAIL","timestamp":1599590146942,"isPrimary":true}],"linkedVid":[],"isContact":true,"savedAtTimestamp":1599590146991},"errors":[{"message":"A contact with email btissam_salma2005@hotmail.com already exists.","in":"email"}],"status":"error","correlationId":"2df912da-304a-4c5e-9597-5d74f9e63f9c","category":"OBJECT_ALREADY_EXISTS","error":"CONTACT_EXISTS"}
Completed count:-1721
Error at count:-1722
URL:-https://api.hubapi.com/contacts/v1/contact/vid/{0}/profile?hapikey=962e8ce2-2314-4e7f-8dab-77b7f59c270c
URL:-https://api.hubapi.com/contacts/v1/contact/?hapikey=962e8ce2-2314-4e7f-8dab-77b7f59c270c
Response exception:System.Net.HttpWebResponse
Error records:-{"message":"Contact already exists","identityProfile":{"vid":62850871,"identity":[{"value":"stoicafarcasele@gmail.com","type":"EMAIL","timestamp":1593882926024,"isPrimary":true},{"value":"2ae87bd8-0b1f-4b53-8988-54c6a395fc00","type":"LEAD_GUID","timestamp":1593882926035}],"linkedVid":[],"isContact":true,"savedAtTimestamp":1593882926037},"errors":[{"message":"A contact with email stoicafarcasele@gmail.com already exists.","in":"email"}],"status":"error","correlationId":"97bed79c-f598-4eb1-8879-72182a7149cb","category":"OBJECT_ALREADY_EXISTS","error":"CONTACT_EXISTS"}
Completed count:-1722
Completed count:-1723
Error at count:-1724
URL:-https://api.hubapi.com/contacts/v1/contact/vid/{0}/profile?hapikey=962e8ce2-2314-4e7f-8dab-77b7f59c270c
URL:-https://api.hubapi.com/contacts/v1/contact/?hapikey=962e8ce2-2314-4e7f-8dab-77b7f59c270c
Response exception:System.Net.HttpWebResponse
Error records:-{"message":"Contact already exists","identityProfile":{"vid":62931002,"identity":[{"value":"gourishankarpaul46@gmail.com","type":"EMAIL","timestamp":1593882978870,"isPrimary":true},{"value":"4458c0e5-7b32-4de4-ae00-6e693b5a11c2","type":"LEAD_GUID","timestamp":1593882978878}],"linkedVid":[],"isContact":true,"savedAtTimestamp":1593882978880},"errors":[{"message":"A contact with email gourishankarpaul46@gmail.com already exists.","in":"email"}],"status":"error","correlationId":"eb599897-9f08-4b52-95ac-efc81546fec0","category":"OBJECT_ALREADY_EXISTS","error":"CONTACT_EXISTS"}
Completed count:-1724
Error at count:-1725
URL:-https://api.hubapi.com/contacts/v1/contact/vid/{0}/profile?hapikey=962e8ce2-2314-4e7f-8dab-77b7f59c270c
URL:-https://api.hubapi.com/contacts/v1/contact/?hapikey=962e8ce2-2314-4e7f-8dab-77b7f59c270c
Response exception:System.Net.HttpWebResponse
Error records:-{"message":"Contact already exists","identityProfile":{"vid":63964816,"identity":[{"value":"dd6ee90f-cf63-482e-bf91-89c3815a6c93","type":"LEAD_GUID","timestamp":1594132390535},{"value":"darrelwoods8@hotmail.com","type":"EMAIL","timestamp":1598890815512,"isPrimary":true}],"linkedVid":[],"isContact":true,"createdWithoutEmail":true,"savedAtTimestamp":1598890815661,"promotedToContact":true},"errors":[{"message":"A contact with email darrelwoods8@hotmail.com already exists.","in":"email"}],"status":"error","correlationId":"a51752b1-0296-48b5-b230-48a6e572c961","category":"OBJECT_ALREADY_EXISTS","error":"CONTACT_EXISTS"}
Completed count:-1725
Completed count:-1726
Completed count:-1727
Completed count:-1728
Completed count:-1729
Completed count:-1730
Completed count:-1731
Completed count:-1732
Completed count:-1733
Completed count:-1734
Completed count:-1735
Completed count:-1736
Completed count:-1737
Completed count:-1738
Error at count:-1739
URL:-https://api.hubapi.com/contacts/v1/contact/vid/{0}/profile?hapikey=962e8ce2-2314-4e7f-8dab-77b7f59c270c
URL:-https://api.hubapi.com/contacts/v1/contact/?hapikey=962e8ce2-2314-4e7f-8dab-77b7f59c270c
Response exception:System.Net.HttpWebResponse
Error records:-{"message":"Contact already exists","identityProfile":{"vid":62864832,"identity":[{"value":"yasar_zia@hotmail.co.uk","type":"EMAIL","timestamp":1593882930969,"isPrimary":true},{"value":"452432dd-44f0-4988-a69a-b7f7e9f12596","type":"LEAD_GUID","timestamp":1593882930979}],"linkedVid":[],"isContact":true,"savedAtTimestamp":1593882930981},"errors":[{"message":"A contact with email yasar_zia@hotmail.co.uk already exists.","in":"email"}],"status":"error","correlationId":"051bc0b7-3615-41c0-bf2d-46b2079987f5","category":"OBJECT_ALREADY_EXISTS","error":"CONTACT_EXISTS"}
Completed count:-1739
Error at count:-1740
URL:-https://api.hubapi.com/contacts/v1/contact/vid/{0}/profile?hapikey=962e8ce2-2314-4e7f-8dab-77b7f59c270c
URL:-https://api.hubapi.com/contacts/v1/contact/?hapikey=962e8ce2-2314-4e7f-8dab-77b7f59c270c
Response exception:System.Net.HttpWebResponse
Error records:-{"message":"Contact already exists","identityProfile":{"vid":62970294,"identity":[{"value":"arihilamnkeirufavour@gmail.com","type":"EMAIL","timestamp":1593882999823,"isPrimary":true},{"value":"a423bc80-05f2-4c8e-b02b-0a5e901ccf97","type":"LEAD_GUID","timestamp":1593882999831}],"linkedVid":[],"isContact":true,"savedAtTimestamp":1593882999834},"errors":[{"message":"A contact with email arihilamnkeirufavour@gmail.com already exists.","in":"email"}],"status":"error","correlationId":"5996f8d9-0720-4cd8-91c9-45f365c9b1cb","category":"OBJECT_ALREADY_EXISTS","error":"CONTACT_EXISTS"}
Completed count:-1740
Error at count:-1741
URL:-https://api.hubapi.com/contacts/v1/contact/vid/{0}/profile?hapikey=962e8ce2-2314-4e7f-8dab-77b7f59c270c
URL:-https://api.hubapi.com/contacts/v1/contact/?hapikey=962e8ce2-2314-4e7f-8dab-77b7f59c270c
Response exception:System.Net.HttpWebResponse
Error records:-{"message":"Contact already exists","identityProfile":{"vid":62134906,"identity":[{"value":"egidija.ad@gmail.com","type":"EMAIL","timestamp":1593710887244,"isPrimary":true},{"value":"0f758d4a-1d9c-4522-8e10-a355eb10aafd","type":"LEAD_GUID","timestamp":1593710887254}],"linkedVid":[],"isContact":true,"savedAtTimestamp":1593710887256},"errors":[{"message":"A contact with email egidija.ad@gmail.com already exists.","in":"email"}],"status":"error","correlationId":"175f3390-bb17-466b-b89f-b3b511ca5fe7","category":"OBJECT_ALREADY_EXISTS","error":"CONTACT_EXISTS"}
Completed count:-1741
Completed count:-1742
Completed count:-1743
Completed count:-1744
Completed count:-1745
Completed count:-1746
Completed count:-1747
Completed count:-1748
Error at count:-1749
URL:-https://api.hubapi.com/contacts/v1/contact/vid/{0}/profile?hapikey=962e8ce2-2314-4e7f-8dab-77b7f59c270c
URL:-https://api.hubapi.com/contacts/v1/contact/?hapikey=962e8ce2-2314-4e7f-8dab-77b7f59c270c
Response exception:System.Net.HttpWebResponse
Error records:-{"message":"Contact already exists","identityProfile":{"vid":62828166,"identity":[{"value":"g.sylwia@hotmail.com","type":"EMAIL","timestamp":1593882911018,"isPrimary":true},{"value":"b4bb3c78-f3c4-4bd7-8c14-a877c3310733","type":"LEAD_GUID","timestamp":1593882911028}],"linkedVid":[],"isContact":true,"savedAtTimestamp":1593882911030},"errors":[{"message":"A contact with email g.sylwia@hotmail.com already exists.","in":"email"}],"status":"error","correlationId":"00fdd816-da18-4182-a5c7-bdd7fbb04aa7","category":"OBJECT_ALREADY_EXISTS","error":"CONTACT_EXISTS"}
Completed count:-1749
Completed count:-1750
Error at count:-1751
URL:-https://api.hubapi.com/contacts/v1/contact/vid/{0}/profile?hapikey=962e8ce2-2314-4e7f-8dab-77b7f59c270c
URL:-https://api.hubapi.com/contacts/v1/contact/?hapikey=962e8ce2-2314-4e7f-8dab-77b7f59c270c
Response exception:System.Net.HttpWebResponse
Error records:-{"message":"Contact already exists","identityProfile":{"vid":62986746,"identity":[{"value":"saki.khan7@yahoo.co.uk","type":"EMAIL","timestamp":1593883019493,"isPrimary":true},{"value":"21773a80-1917-4175-9d18-70db72c16f3d","type":"LEAD_GUID","timestamp":1593883019508}],"linkedVid":[],"isContact":true,"savedAtTimestamp":1593883019510},"errors":[{"message":"A contact with email saki.khan7@yahoo.co.uk already exists.","in":"email"}],"status":"error","correlationId":"1d536bd8-82fa-4309-a0d7-ee17c3d41776","category":"OBJECT_ALREADY_EXISTS","error":"CONTACT_EXISTS"}
Completed count:-1751
Completed count:-1752
Error at count:-1753
URL:-https://api.hubapi.com/contacts/v1/contact/vid/{0}/profile?hapikey=962e8ce2-2314-4e7f-8dab-77b7f59c270c
URL:-https://api.hubapi.com/contacts/v1/contact/?hapikey=962e8ce2-2314-4e7f-8dab-77b7f59c270c
Response exception:System.Net.HttpWebResponse
Error records:-{"message":"Contact already exists","identityProfile":{"vid":62954351,"identity":[{"value":"kyp@hotmail.fr","type":"EMAIL","timestamp":1593882986817,"isPrimary":true},{"value":"6fe6f10c-55b1-46c3-b46e-1a3a7c76ef34","type":"LEAD_GUID","timestamp":1593882986825}],"linkedVid":[],"isContact":true,"savedAtTimestamp":1593882987098},"errors":[{"message":"A contact with email kyp@hotmail.fr already exists.","in":"email"}],"status":"error","correlationId":"83bf97d2-f89f-44f1-9654-a784fdb89b65","category":"OBJECT_ALREADY_EXISTS","error":"CONTACT_EXISTS"}
Completed count:-1753
Error at count:-1754
URL:-https://api.hubapi.com/contacts/v1/contact/vid/{0}/profile?hapikey=962e8ce2-2314-4e7f-8dab-77b7f59c270c
URL:-https://api.hubapi.com/contacts/v1/contact/?hapikey=962e8ce2-2314-4e7f-8dab-77b7f59c270c
Response exception:System.Net.HttpWebResponse
Error records:-{"message":"Contact already exists","identityProfile":{"vid":62918066,"identity":[{"value":"nader1441@aim.com","type":"EMAIL","timestamp":1593882972194,"isPrimary":true},{"value":"312281d8-4c6d-44e1-934e-7818bc12b139","type":"LEAD_GUID","timestamp":1593882972202}],"linkedVid":[40142701],"isContact":true,"savedAtTimestamp":1594128836909},"errors":[{"message":"A contact with email nader1441@aim.com already exists.","in":"email"}],"status":"error","correlationId":"bd62f68d-8e3c-4d8f-a21f-678765601c3e","category":"OBJECT_ALREADY_EXISTS","error":"CONTACT_EXISTS"}
Completed count:-1754
Error at count:-1755
URL:-https://api.hubapi.com/contacts/v1/contact/vid/{0}/profile?hapikey=962e8ce2-2314-4e7f-8dab-77b7f59c270c
URL:-https://api.hubapi.com/contacts/v1/contact/?hapikey=962e8ce2-2314-4e7f-8dab-77b7f59c270c
Response exception:System.Net.HttpWebResponse
Error records:-{"message":"Contact already exists","identityProfile":{"vid":62887745,"identity":[{"value":"dolly.omsingh@gmail.com","type":"EMAIL","timestamp":1593882951413,"isPrimary":true},{"value":"2216516e-584c-42a5-842d-ddba257ccfef","type":"LEAD_GUID","timestamp":1593882951420}],"linkedVid":[],"isContact":true,"savedAtTimestamp":1593882951423},"errors":[{"message":"A contact with email dolly.omsingh@gmail.com already exists.","in":"email"}],"status":"error","correlationId":"e05dfffb-10e8-4c06-9b47-97b59e3215c2","category":"OBJECT_ALREADY_EXISTS","error":"CONTACT_EXISTS"}
Completed count:-1755
Completed count:-1756
Error at count:-1757
URL:-https://api.hubapi.com/contacts/v1/contact/vid/{0}/profile?hapikey=962e8ce2-2314-4e7f-8dab-77b7f59c270c
URL:-https://api.hubapi.com/contacts/v1/contact/?hapikey=962e8ce2-2314-4e7f-8dab-77b7f59c270c
Response exception:System.Net.HttpWebResponse
Error records:-{"message":"Contact already exists","identityProfile":{"vid":640351,"identity":[{"value":"a7b2cd0d-e414-47cb-b27b-50a7a1e439c0","type":"LEAD_GUID","timestamp":1576215940272},{"value":"adexecom29@gmail.com","type":"EMAIL","timestamp":1600466184577,"isPrimary":true},{"value":"paterhun@gmail.com","type":"EMAIL","timestamp":1600455070836,"isSecondary":true}],"linkedVid":[14795155],"isContact":true,"savedAtTimestamp":1600466184618},"errors":[{"message":"A contact with email adexecom29@gmail.com already exists.","in":"email"}],"status":"error","correlationId":"914d5769-6d2e-4132-a03c-dd7f1cc4b459","category":"OBJECT_ALREADY_EXISTS","error":"CONTACT_EXISTS"}
Completed count:-1757
Completed count:-1758
Completed count:-1759
Completed count:-1760
Completed count:-1761
Error at count:-1762
URL:-https://api.hubapi.com/contacts/v1/contact/vid/{0}/profile?hapikey=962e8ce2-2314-4e7f-8dab-77b7f59c270c
URL:-https://api.hubapi.com/contacts/v1/contact/?hapikey=962e8ce2-2314-4e7f-8dab-77b7f59c270c
Response exception:System.Net.HttpWebResponse
Error records:-{"message":"Contact already exists","identityProfile":{"vid":62818811,"identity":[{"value":"albertinemanjuhtem@gmail.com","type":"EMAIL","timestamp":1593882902603,"isPrimary":true},{"value":"1c49c642-55ad-46a1-8d2b-f5cdb2e7b77e","type":"LEAD_GUID","timestamp":1593882902613}],"linkedVid":[],"isContact":true,"savedAtTimestamp":1593882902615},"errors":[{"message":"A contact with email albertinemanjuhtem@gmail.com already exists.","in":"email"}],"status":"error","correlationId":"b3302ad8-edee-4068-bc98-706e6c9f4b05","category":"OBJECT_ALREADY_EXISTS","error":"CONTACT_EXISTS"}
Completed count:-1762
Completed count:-1763
Completed count:-1764
Error at count:-1765
URL:-https://api.hubapi.com/contacts/v1/contact/vid/{0}/profile?hapikey=962e8ce2-2314-4e7f-8dab-77b7f59c270c
URL:-https://api.hubapi.com/contacts/v1/contact/?hapikey=962e8ce2-2314-4e7f-8dab-77b7f59c270c
Response exception:System.Net.HttpWebResponse
Error records:-{"message":"Contact already exists","identityProfile":{"vid":43033803,"identity":[{"value":"ghafoorraja1892@gmail.com","type":"EMAIL","timestamp":1588899821781,"isPrimary":true},{"value":"f09150af-1d02-4d63-90d8-f945e90b0605","type":"LEAD_GUID","timestamp":1588899822225}],"linkedVid":[43092001,43074501,45667053,45675101,43078201,43375501,45675251,43077901,43375801,44949251],"isContact":true,"savedAtTimestamp":1589542412515},"errors":[{"message":"A contact with email ghafoorraja1892@gmail.com already exists.","in":"email"}],"status":"error","correlationId":"3a850893-bd04-406a-9d19-dd05990ce1b4","category":"OBJECT_ALREADY_EXISTS","error":"CONTACT_EXISTS"}
Completed count:-1765
Error at count:-1766
URL:-https://api.hubapi.com/contacts/v1/contact/vid/{0}/profile?hapikey=962e8ce2-2314-4e7f-8dab-77b7f59c270c
URL:-https://api.hubapi.com/contacts/v1/contact/?hapikey=962e8ce2-2314-4e7f-8dab-77b7f59c270c
Response exception:System.Net.HttpWebResponse
Error records:-{"message":"Contact already exists","identityProfile":{"vid":63977354,"identity":[{"value":"a6b5e225-7ac0-4ed3-9823-235319df5398","type":"LEAD_GUID","timestamp":1594132393349},{"value":"jisjhn@gmail.com","type":"EMAIL","timestamp":1598890815087,"isPrimary":true}],"linkedVid":[],"isContact":true,"createdWithoutEmail":true,"savedAtTimestamp":1598890815118,"promotedToContact":true},"errors":[{"message":"A contact with email jisjhn@gmail.com already exists.","in":"email"}],"status":"error","correlationId":"3cced843-3701-4e99-a334-0b90890d20cc","category":"OBJECT_ALREADY_EXISTS","error":"CONTACT_EXISTS"}
Completed count:-1766
Completed count:-1767
Completed count:-1768
Completed count:-1769
Completed count:-1770
Error at count:-1771
URL:-https://api.hubapi.com/contacts/v1/contact/vid/{0}/profile?hapikey=962e8ce2-2314-4e7f-8dab-77b7f59c270c
URL:-https://api.hubapi.com/contacts/v1/contact/?hapikey=962e8ce2-2314-4e7f-8dab-77b7f59c270c
Response exception:System.Net.HttpWebResponse
Error records:-{"message":"Contact already exists","identityProfile":{"vid":62828375,"identity":[{"value":"samaira08@hotmail.co.uk","type":"EMAIL","timestamp":1593882911962,"isPrimary":true},{"value":"0c47d33b-9ec7-4677-a537-5266b50e7f2c","type":"LEAD_GUID","timestamp":1593882911968}],"linkedVid":[],"isContact":true,"savedAtTimestamp":1593882911971},"errors":[{"message":"A contact with email samaira08@hotmail.co.uk already exists.","in":"email"}],"status":"error","correlationId":"f8b74bef-a8a9-4332-8462-db10b63085c4","category":"OBJECT_ALREADY_EXISTS","error":"CONTACT_EXISTS"}
Completed count:-1771
Completed count:-1772
Completed count:-1773
Completed count:-1774
Completed count:-1775
Completed count:-1776
Completed count:-1777
Completed count:-1778
Error at count:-1779
URL:-https://api.hubapi.com/contacts/v1/contact/vid/{0}/profile?hapikey=962e8ce2-2314-4e7f-8dab-77b7f59c270c
URL:-https://api.hubapi.com/contacts/v1/contact/?hapikey=962e8ce2-2314-4e7f-8dab-77b7f59c270c
Response exception:System.Net.HttpWebResponse
Error records:-{"message":"Contact already exists","identityProfile":{"vid":62819235,"identity":[{"value":"ionut@megane.rs","type":"EMAIL","timestamp":1593882903487,"isPrimary":true},{"value":"1bcb6ad1-3eab-476b-9458-af9731decf5b","type":"LEAD_GUID","timestamp":1593882903497}],"linkedVid":[],"isContact":true,"savedAtTimestamp":1593882903500},"errors":[{"message":"A contact with email ionut@megane.rs already exists.","in":"email"}],"status":"error","correlationId":"d7a3bfb7-8093-49e8-aa55-9fd9ae6283d3","category":"OBJECT_ALREADY_EXISTS","error":"CONTACT_EXISTS"}
Completed count:-1779
Completed count:-1780
Error at count:-1781
URL:-https://api.hubapi.com/contacts/v1/contact/vid/{0}/profile?hapikey=962e8ce2-2314-4e7f-8dab-77b7f59c270c
URL:-https://api.hubapi.com/contacts/v1/contact/?hapikey=962e8ce2-2314-4e7f-8dab-77b7f59c270c
Response exception:System.Net.HttpWebResponse
Error records:-{"message":"Contact already exists","identityProfile":{"vid":62973378,"identity":[{"value":"1a7f9390-7098-4b62-9400-fe1f8ebfd2d8","type":"LEAD_GUID","timestamp":1593883005684},{"value":"zach.wynne@bath.edu","type":"EMAIL","timestamp":1598887126378,"isPrimary":true}],"linkedVid":[],"isContact":true,"savedAtTimestamp":1598887126425},"errors":[{"message":"A contact with email zach.wynne@bath.edu already exists.","in":"email"}],"status":"error","correlationId":"d30c9ff3-1cc9-43b5-9221-925eb70ecae8","category":"OBJECT_ALREADY_EXISTS","error":"CONTACT_EXISTS"}
Completed count:-1781
Error at count:-1782
URL:-https://api.hubapi.com/contacts/v1/contact/vid/{0}/profile?hapikey=962e8ce2-2314-4e7f-8dab-77b7f59c270c
URL:-https://api.hubapi.com/contacts/v1/contact/?hapikey=962e8ce2-2314-4e7f-8dab-77b7f59c270c
Response exception:System.Net.HttpWebResponse
Error records:-{"message":"Contact already exists","identityProfile":{"vid":62881284,"identity":[{"value":"elijah4christ2002@yahoo.com","type":"EMAIL","timestamp":1593882938223,"isPrimary":true},{"value":"d89e4aac-cebf-4bc1-959c-231a1287b92c","type":"LEAD_GUID","timestamp":1593882938238}],"linkedVid":[],"isContact":true,"savedAtTimestamp":1593882938241},"errors":[{"message":"A contact with email elijah4christ2002@yahoo.com already exists.","in":"email"}],"status":"error","correlationId":"917502ce-f59d-41cd-8f5e-f2fcc501dcbc","category":"OBJECT_ALREADY_EXISTS","error":"CONTACT_EXISTS"}
Completed count:-1782
Error at count:-1783
URL:-https://api.hubapi.com/contacts/v1/contact/vid/{0}/profile?hapikey=962e8ce2-2314-4e7f-8dab-77b7f59c270c
URL:-https://api.hubapi.com/contacts/v1/contact/?hapikey=962e8ce2-2314-4e7f-8dab-77b7f59c270c
Response exception:System.Net.HttpWebResponse
Error records:-{"message":"Contact already exists","identityProfile":{"vid":62960878,"identity":[{"value":"1e4ba830-e7f0-4325-b6d2-89724be902f4","type":"LEAD_GUID","timestamp":1593882990382},{"value":"pawlakonidas@gmail.com","type":"EMAIL","timestamp":1598890816002,"isPrimary":true}],"linkedVid":[],"isContact":true,"savedAtTimestamp":1598890816042},"errors":[{"message":"A contact with email pawlakonidas@gmail.com already exists.","in":"email"}],"status":"error","correlationId":"5512c182-4269-4079-8fd9-eb408fc002e8","category":"OBJECT_ALREADY_EXISTS","error":"CONTACT_EXISTS"}
Completed count:-1783
Completed count:-1784
Completed count:-1785
Completed count:-1786
Error at count:-1787
URL:-https://api.hubapi.com/contacts/v1/contact/vid/{0}/profile?hapikey=962e8ce2-2314-4e7f-8dab-77b7f59c270c
URL:-https://api.hubapi.com/contacts/v1/contact/?hapikey=962e8ce2-2314-4e7f-8dab-77b7f59c270c
Response exception:System.Net.HttpWebResponse
Error records:-{"message":"Contact already exists","identityProfile":{"vid":17061551,"identity":[{"value":"omercelik@gmail.com","type":"EMAIL","timestamp":1582143610077,"isPrimary":true},{"value":"166e9ebe-7eea-47b8-9de0-88d30ffdee17","type":"LEAD_GUID","timestamp":1582143611669}],"linkedVid":[],"isContact":true,"savedAtTimestamp":1582143611675},"errors":[{"message":"A contact with email omercelik@gmail.com already exists.","in":"email"}],"status":"error","correlationId":"b7c3e1ee-c65d-483d-a439-3a40e5f34ac8","category":"OBJECT_ALREADY_EXISTS","error":"CONTACT_EXISTS"}
Completed count:-1787
Completed count:-1788
Error at count:-1789
URL:-https://api.hubapi.com/contacts/v1/contact/vid/{0}/profile?hapikey=962e8ce2-2314-4e7f-8dab-77b7f59c270c
URL:-https://api.hubapi.com/contacts/v1/contact/?hapikey=962e8ce2-2314-4e7f-8dab-77b7f59c270c
Response exception:System.Net.HttpWebResponse
Error records:-{"message":"Contact already exists","identityProfile":{"vid":62962001,"identity":[{"value":"5d005f0f-b338-4b24-badd-42fb3ff3f101","type":"LEAD_GUID","timestamp":1593882991577},{"value":"afzalsamaviah@gmail.com","type":"EMAIL","timestamp":1599663948461,"isPrimary":true}],"linkedVid":[],"isContact":true,"savedAtTimestamp":1599663948532},"errors":[{"message":"A contact with email afzalsamaviah@gmail.com already exists.","in":"email"}],"status":"error","correlationId":"f3086e9b-4d40-4e92-8fd2-b923c4b3e8f4","category":"OBJECT_ALREADY_EXISTS","error":"CONTACT_EXISTS"}
Completed count:-1789
Error at count:-1790
URL:-https://api.hubapi.com/contacts/v1/contact/vid/{0}/profile?hapikey=962e8ce2-2314-4e7f-8dab-77b7f59c270c
URL:-https://api.hubapi.com/contacts/v1/contact/?hapikey=962e8ce2-2314-4e7f-8dab-77b7f59c270c
Response exception:System.Net.HttpWebResponse
Error records:-{"message":"Contact already exists","identityProfile":{"vid":62829056,"identity":[{"value":"tomaszzyga1@wp.pl","type":"EMAIL","timestamp":1593882911975,"isPrimary":true},{"value":"19643648-7639-42ba-b7d2-deaf411f1e97","type":"LEAD_GUID","timestamp":1593882911999}],"linkedVid":[63925667],"isContact":true,"savedAtTimestamp":1594131331055},"errors":[{"message":"A contact with email tomaszzyga1@wp.pl already exists.","in":"email"}],"status":"error","correlationId":"80ef41af-f41e-4b49-bd1e-587191dfd37f","category":"OBJECT_ALREADY_EXISTS","error":"CONTACT_EXISTS"}
Completed count:-1790
Error at count:-1791
URL:-https://api.hubapi.com/contacts/v1/contact/vid/{0}/profile?hapikey=962e8ce2-2314-4e7f-8dab-77b7f59c270c
URL:-https://api.hubapi.com/contacts/v1/contact/?hapikey=962e8ce2-2314-4e7f-8dab-77b7f59c270c
Response exception:System.Net.HttpWebResponse
Error records:-{"message":"Contact already exists","identityProfile":{"vid":23523601,"identity":[{"value":"6501df7a-8fc3-4b7f-988a-a030451ad824","type":"LEAD_GUID","timestamp":1584201201163},{"value":"scarlet_asia@ymail.com","type":"EMAIL","timestamp":1599594005684,"isPrimary":true}],"linkedVid":[],"isContact":true,"savedAtTimestamp":1599594005728},"errors":[{"message":"A contact with email scarlet_asia@ymail.com already exists.","in":"email"}],"status":"error","correlationId":"24175204-b86c-4d35-82e9-eca3fd30c3ca","category":"OBJECT_ALREADY_EXISTS","error":"CONTACT_EXISTS"}
Completed count:-1791
Error at count:-1792
URL:-https://api.hubapi.com/contacts/v1/contact/vid/{0}/profile?hapikey=962e8ce2-2314-4e7f-8dab-77b7f59c270c
URL:-https://api.hubapi.com/contacts/v1/contact/?hapikey=962e8ce2-2314-4e7f-8dab-77b7f59c270c
Response exception:System.Net.HttpWebResponse
Error records:-{"validationResults":[{"isValid":false,"message":"credit/debit card was not one of the allowed options: [label: \"PayPal\"\nvalue: \"PayPal\"\ndisplay_order: 0\ndouble_data: 0.0\nhidden: false\ndescription: \"\"\nread_only: false\n, label: \"Paysafe\"\nvalue: \"Paysafe\"\ndisplay_order: 1\ndouble_data: 0.0\nhidden: false\ndescription: \"\"\nread_only: false\n, label: \"Others\"\nvalue: \"Others\"\ndisplay_order: 2\ndouble_data: 0.0\nhidden: false\ndescription: \"\"\nread_only: false\n, label: \"Credit/Debit card \"\nvalue: \"Credit/Debit card\"\ndisplay_order: 3\ndouble_data: 0.0\nhidden: false\ndescription: \"\"\nread_only: false\n, label: \"RealX\"\nvalue: \"RealX\"\ndisplay_order: 4\ndouble_data: 0.0\nhidden: false\ndescription: \"\"\nread_only: false\n]","error":"INVALID_OPTION","name":"latest_topup_payment_method_used"}],"status":"error","message":"Property values were not valid","correlationId":"f7c3da76-838e-4719-95a3-90b0c43a61d9"}
Completed count:-1792
Error at count:-1793
URL:-https://api.hubapi.com/contacts/v1/contact/vid/{0}/profile?hapikey=962e8ce2-2314-4e7f-8dab-77b7f59c270c
URL:-https://api.hubapi.com/contacts/v1/contact/?hapikey=962e8ce2-2314-4e7f-8dab-77b7f59c270c
Response exception:System.Net.HttpWebResponse
Error records:-{"message":"Contact already exists","identityProfile":{"vid":437620,"identity":[{"value":"kalemba14@wp.pl","type":"EMAIL","timestamp":1576130874097,"isPrimary":true},{"value":"d2593bd3-553a-49a9-8999-8beee6dcdc3d","type":"LEAD_GUID","timestamp":1576130874105}],"linkedVid":[39275601,39275801],"isContact":true,"savedAtTimestamp":1588000850397},"errors":[{"message":"A contact with email kalemba14@wp.pl already exists.","in":"email"}],"status":"error","correlationId":"a081e5e7-d7e0-486c-a96d-890b69fa683a","category":"OBJECT_ALREADY_EXISTS","error":"CONTACT_EXISTS"}
Completed count:-1793
Error at count:-1794
URL:-https://api.hubapi.com/contacts/v1/contact/vid/{0}/profile?hapikey=962e8ce2-2314-4e7f-8dab-77b7f59c270c
URL:-https://api.hubapi.com/contacts/v1/contact/?hapikey=962e8ce2-2314-4e7f-8dab-77b7f59c270c
Response exception:System.Net.HttpWebResponse
Error records:-{"message":"Contact already exists","identityProfile":{"vid":62134400,"identity":[{"value":"vkara101@hotmail.com","type":"EMAIL","timestamp":1593710887313,"isPrimary":true},{"value":"482d654e-6f16-4b32-a0a2-1127255d4bf9","type":"LEAD_GUID","timestamp":1593710887320}],"linkedVid":[],"isContact":true,"savedAtTimestamp":1593710887321},"errors":[{"message":"A contact with email vkara101@hotmail.com already exists.","in":"email"}],"status":"error","correlationId":"435a7a2c-e76b-41d0-a098-d00d805ec66b","category":"OBJECT_ALREADY_EXISTS","error":"CONTACT_EXISTS"}
Completed count:-1794
Error at count:-1795
URL:-https://api.hubapi.com/contacts/v1/contact/vid/{0}/profile?hapikey=962e8ce2-2314-4e7f-8dab-77b7f59c270c
URL:-https://api.hubapi.com/contacts/v1/contact/?hapikey=962e8ce2-2314-4e7f-8dab-77b7f59c270c
Response exception:System.Net.HttpWebResponse
Error records:-{"message":"Contact already exists","identityProfile":{"vid":62825809,"identity":[{"value":"9e403746-ecee-4723-a5ee-bd2388c389b8","type":"LEAD_GUID","timestamp":1593882909024},{"value":"ahtarah@gmail.com","type":"EMAIL","timestamp":1599663978945,"isPrimary":true}],"linkedVid":[],"isContact":true,"savedAtTimestamp":1599663979037},"errors":[{"message":"A contact with email ahtarah@gmail.com already exists.","in":"email"}],"status":"error","correlationId":"403dfc97-0861-412b-9bab-371d332cb7c3","category":"OBJECT_ALREADY_EXISTS","error":"CONTACT_EXISTS"}
Completed count:-1795
Completed count:-1796
Completed count:-1797
Error at count:-1798
URL:-https://api.hubapi.com/contacts/v1/contact/vid/{0}/profile?hapikey=962e8ce2-2314-4e7f-8dab-77b7f59c270c
URL:-https://api.hubapi.com/contacts/v1/contact/?hapikey=962e8ce2-2314-4e7f-8dab-77b7f59c270c
Response exception:System.Net.HttpWebResponse
Error records:-{"message":"Contact already exists","identityProfile":{"vid":5274201,"identity":[{"value":"nokian2@gmail.com","type":"EMAIL","timestamp":1578171684198,"isPrimary":true},{"value":"eb857341-0d68-4181-9098-bd0102155e44","type":"LEAD_GUID","timestamp":1578171685222}],"linkedVid":[],"isContact":true,"savedAtTimestamp":1578171685225},"errors":[{"message":"A contact with email nokian2@gmail.com already exists.","in":"email"}],"status":"error","correlationId":"adbc7ce2-d16a-4dc3-8752-b61fd008ed9b","category":"OBJECT_ALREADY_EXISTS","error":"CONTACT_EXISTS"}
Completed count:-1798
Completed count:-1799
Error at count:-1800
URL:-https://api.hubapi.com/contacts/v1/contact/vid/{0}/profile?hapikey=962e8ce2-2314-4e7f-8dab-77b7f59c270c
URL:-https://api.hubapi.com/contacts/v1/contact/?hapikey=962e8ce2-2314-4e7f-8dab-77b7f59c270c
Response exception:System.Net.HttpWebResponse
Error records:-{"message":"Contact already exists","identityProfile":{"vid":62907279,"identity":[{"value":"qadraaligeedi@gmail.com","type":"EMAIL","timestamp":1593882962915,"isPrimary":true},{"value":"c7913040-6dfa-4c6c-a389-596120fec054","type":"LEAD_GUID","timestamp":1593882962923}],"linkedVid":[],"isContact":true,"savedAtTimestamp":1593882962925},"errors":[{"message":"A contact with email qadraaligeedi@gmail.com already exists.","in":"email"}],"status":"error","correlationId":"8417f6ac-3039-4c7e-bba3-6121ba2d506e","category":"OBJECT_ALREADY_EXISTS","error":"CONTACT_EXISTS"}
Completed count:-1800
Completed count:-1801
Completed count:-1802
Completed count:-1803
Completed count:-1804
